PCBNEW-LibModule-V1  Wed 20 Feb 2019 11:14:05 AM -03
# encoding utf-8
Units mm
$INDEX
Bosch_LGA-14_3x2.5mm_P0.5mm
$EndINDEX
$MODULE Bosch_LGA-14_3x2.5mm_P0.5mm
Po 0 0 0 15 5A02F217 00000000 ~~
Li Bosch_LGA-14_3x2.5mm_P0.5mm
Cd LGA-14 Bosch https://ae-bst.resource.bosch.com/media/_tech/media/datasheets/BST-BMI160-DS000-07.pdf
Kw lga land grid array
Sc 0
AR 
Op 0 0 0
At SMD
T0 0 -2.5 1 1 0 0.15 N V 21 N "REF**"
T1 0 2.5 1 1 0 0.15 N V 21 N "Bosch_LGA-14_3x2.5mm_P0.5mm"
DS -1.7 -1.35 -0.88 -1.35 0.1 21
DS -1.6 1.35 -0.88 1.35 0.1 21
DS -1.6 1.35 -1.6 1.13 0.1 21
DS 1.6 1.13 1.6 1.35 0.1 21
DS 1.6 1.35 0.88 1.35 0.1 21
DS 0.88 -1.35 1.6 -1.35 0.1 21
DS 1.6 -1.35 1.6 -1.13 0.1 21
T2 0 0 0.5 0.5 0 0.075 N V 21 N "%R"
$PAD
Sh "13" R 0.25 0.675 0 0 0
Dr 0 0 0
At SMD N 00888000
Ne 0 ""
Po 0 -1.0125
$EndPAD
$PAD
Sh "14" R 0.25 0.675 0 0 0
Dr 0 0 0
At SMD N 00888000
Ne 0 ""
Po -0.5 -1.0125
$EndPAD
$PAD
Sh "12" R 0.25 0.675 0 0 0
Dr 0 0 0
At SMD N 00888000
Ne 0 ""
Po 0.5 -1.0125
$EndPAD
$PAD
Sh "5" R 0.25 0.675 0 0 0
Dr 0 0 0
At SMD N 00888000
Ne 0 ""
Po -0.5 1.0125
$EndPAD
$PAD
Sh "6" R 0.25 0.675 0 0 0
Dr 0 0 0
At SMD N 00888000
Ne 0 ""
Po 0 1.0125
$EndPAD
$PAD
Sh "7" R 0.25 0.675 0 0 0
Dr 0 0 0
At SMD N 00888000
Ne 0 ""
Po 0.5 1.0125
$EndPAD
$PAD
Sh "1" R 0.675 0.25 0 0 0
Dr 0 0 0
At SMD N 00888000
Ne 0 ""
Po -1.2625 -0.75
$EndPAD
$PAD
Sh "2" R 0.675 0.25 0 0 0
Dr 0 0 0
At SMD N 00888000
Ne 0 ""
Po -1.2625 -0.25
$EndPAD
$PAD
Sh "3" R 0.675 0.25 0 0 0
Dr 0 0 0
At SMD N 00888000
Ne 0 ""
Po -1.2625 0.25
$EndPAD
$PAD
Sh "4" R 0.675 0.25 0 0 0
Dr 0 0 0
At SMD N 00888000
Ne 0 ""
Po -1.2625 0.75
$EndPAD
$PAD
Sh "8" R 0.675 0.25 0 0 0
Dr 0 0 0
At SMD N 00888000
Ne 0 ""
Po 1.2625 0.75
$EndPAD
$PAD
Sh "9" R 0.675 0.25 0 0 0
Dr 0 0 0
At SMD N 00888000
Ne 0 ""
Po 1.2625 0.25
$EndPAD
$PAD
Sh "10" R 0.675 0.25 0 0 0
Dr 0 0 0
At SMD N 00888000
Ne 0 ""
Po 1.2625 -0.25
$EndPAD
$PAD
Sh "11" R 0.675 0.25 0 0 0
Dr 0 0 0
At SMD N 00888000
Ne 0 ""
Po 1.2625 -0.75
$EndPAD
$SHAPE3D
Na "${KISYS3DMOD}/Package_LGA.3dshapes/Bosch_LGA-14_3x2.5mm_P0.5mm.wrl"
Sc 1 1 1
Of 0 0 0
Ro 0 0 0
$EndSHAPE3D
$EndMODULE Bosch_LGA-14_3x2.5mm_P0.5mm
$EndLIBRARY
