PCBNEW-LibModule-V1  Tue 12 Mar 2019 04:28:13 PM -03
# encoding utf-8
Units mm
$INDEX
HOLE
$EndINDEX
$MODULE HOLE
Po 0 0 0 15 5C880833 00000000 ~~
Li HOLE
Sc 0
AR 
Op 0 0 0
T0 0 0 1 1 0 0.15 N V 21 N ""
T1 0 0 1 1 0 0.15 N V 21 N ""
$PAD
Sh "" C 3 3 0 0 0
Dr 3 0 0
At STD N 00E0FFFF
Ne 0 ""
Po 0 0
$EndPAD
$EndMODULE HOLE
$EndLIBRARY
