PCBNEW-LibModule-V1  Wed 20 Feb 2019 02:26:59 PM -03
# encoding utf-8
Units mm
$INDEX
LGA-16_3x3mm_P0_5mm
$EndINDEX
$MODULE LGA-16_3x3mm_P0_5mm
Po 0 0 0 15 5C6D8B0E 00000000 ~~
Li LGA-16_3x3mm_P0_5mm
Sc 0
AR 
Op 0 0 0
T0 0.0508 -2.5908 0.8 0.8 0 0.1 N V 21 N "REF**"
T1 0 2.75 1 1 0 0.15 N V 21 N ""
DS 1.1 -1.6 1.6 -1.6 0.1 21
DS 1.6 -1.6 1.6 -1.1 0.1 21
DS 1.6 1.6 1.6 1.1 0.1 21
DS 1.6 1.1 1.6 1.6 0.1 21
DS 1.6 1.6 1.1 1.6 0.1 21
DS -1.6 1.6 -1.1 1.6 0.1 21
DS -1.6 1.6 -1.6 1.1 0.1 21
DS -1.6 -1.6 -1.6 -1.1 0.1 21
$PAD
Sh "13" R 0.3 0.45 0 0 0
Dr 0 0 0
At SMD N 00888000
Ne 0 ""
Po 0.75 -1.275
$EndPAD
$PAD
Sh "16" R 0.3 0.45 0 0 0
Dr 0 0 0
At SMD N 00888000
Ne 0 ""
Po -0.75 -1.275
$EndPAD
$PAD
Sh "15" R 0.3 0.45 0 0 0
Dr 0 0 0
At SMD N 00888000
Ne 0 ""
Po -0.25 -1.275
$EndPAD
$PAD
Sh "14" R 0.3 0.45 0 0 0
Dr 0 0 0
At SMD N 00888000
Ne 0 ""
Po 0.25 -1.275
$EndPAD
$PAD
Sh "1" R 0.3 0.45 0 0 900
Dr 0 0 0
At SMD N 00888000
Ne 0 ""
Po -1.275 -0.75
$EndPAD
$PAD
Sh "2" R 0.3 0.45 0 0 900
Dr 0 0 0
At SMD N 00888000
Ne 0 ""
Po -1.275 -0.25
$EndPAD
$PAD
Sh "3" R 0.3 0.45 0 0 900
Dr 0 0 0
At SMD N 00888000
Ne 0 ""
Po -1.275 0.25
$EndPAD
$PAD
Sh "4" R 0.3 0.45 0 0 900
Dr 0 0 0
At SMD N 00888000
Ne 0 ""
Po -1.275 0.75
$EndPAD
$PAD
Sh "8" R 0.3 0.45 0 0 0
Dr 0 0 0
At SMD N 00888000
Ne 0 ""
Po 0.75 1.275
$EndPAD
$PAD
Sh "6" R 0.3 0.45 0 0 0
Dr 0 0 0
At SMD N 00888000
Ne 0 ""
Po -0.25 1.275
$EndPAD
$PAD
Sh "7" R 0.3 0.45 0 0 0
Dr 0 0 0
At SMD N 00888000
Ne 0 ""
Po 0.25 1.275
$EndPAD
$PAD
Sh "5" R 0.3 0.45 0 0 0
Dr 0 0 0
At SMD N 00888000
Ne 0 ""
Po -0.75 1.275
$EndPAD
$PAD
Sh "9" R 0.3 0.45 0 0 900
Dr 0 0 0
At SMD N 00888000
Ne 0 ""
Po 1.275 0.75
$EndPAD
$PAD
Sh "12" R 0.3 0.45 0 0 900
Dr 0 0 0
At SMD N 00888000
Ne 0 ""
Po 1.275 -0.75
$EndPAD
$PAD
Sh "11" R 0.3 0.45 0 0 900
Dr 0 0 0
At SMD N 00888000
Ne 0 ""
Po 1.275 -0.25
$EndPAD
$PAD
Sh "10" R 0.3 0.45 0 0 900
Dr 0 0 0
At SMD N 00888000
Ne 0 ""
Po 1.275 0.25
$EndPAD
$EndMODULE LGA-16_3x3mm_P0.5mm
$EndLIBRARY
