PCBNEW-LibModule-V1  Fri 22 Feb 2019 10:20:11 AM -03
# encoding utf-8
Units mm
$INDEX
LGA-CC-16-4
$EndINDEX
$MODULE LGA-CC-16-4
Po 0 0 0 15 5C6FF6A0 00000000 ~~
Li LGA-CC-16-4
Sc 0
AR /5C6DD109
Op 0 0 0
T0 -0.9525 -2.3241 0.8 0.8 0 0.1 N V 21 N "U2"
T1 0 2.75 1 1 0 0.15 N V 21 N "ADXL372_SPI"
DC -1.55448 -1.46812 -1.53416 -1.39954 0.15 21
DS 1.69946 1.37688 1.69946 1.57874 0.1 21
DS 1.66604 -1.55428 1.66604 -1.35242 0.1 21
DS 1.69906 1.57968 1.19906 1.57968 0.1 21
DS 1.16604 -1.55428 1.66604 -1.55428 0.1 21
DS -1.66604 1.58476 -1.16604 1.58476 0.1 21
DS -1.66858 1.38196 -1.66858 1.58382 0.1 21
$PAD
Sh "13" R 0.3 0.925 0 0 900
Dr 0 0 0
At SMD N 00888000
Ne 8 "GND"
Po 1.28778 -0.98552
$EndPAD
$PAD
Sh "16" R 0.3 0.8 0 0 0
Dr 0 0 0
At SMD N 00888000
Ne 8 "GND"
Po -0.49092 -1.2496
$EndPAD
$PAD
Sh "15" R 0.3 0.8 0 0 0
Dr 0 0 0
At SMD N 00888000
Ne 0 ""
Po 0.00254 -1.24968
$EndPAD
$PAD
Sh "14" R 0.3 0.8 0 0 0
Dr 0 0 0
At SMD N 00888000
Ne 4 "/VBAT"
Po 0.50908 -1.2496
$EndPAD
$PAD
Sh "1" R 0.3 0.925 0 0 900
Dr 0 0 0
At SMD N 00888000
Ne 4 "/VBAT"
Po -1.29278 -1.00146
$EndPAD
$PAD
Sh "2" R 0.3 0.925 0 0 900
Dr 0 0 0
At SMD N 00888000
Ne 0 ""
Po -1.29278 -0.50146
$EndPAD
$PAD
Sh "3" R 0.3 0.925 0 0 900
Dr 0 0 0
At SMD N 00888000
Ne 0 ""
Po -1.29278 -0.00146
$EndPAD
$PAD
Sh "4" R 0.3 0.925 0 0 900
Dr 0 0 0
At SMD N 00888000
Ne 3 "/SCLK"
Po -1.29278 0.49854
$EndPAD
$PAD
Sh "8" R 0.3 0.8 0 0 0
Dr 0 0 0
At SMD N 00888000
Ne 5 "/acc_CSB"
Po 0.50108 1.25214
$EndPAD
$PAD
Sh "6" R 0.3 0.8 0 0 0
Dr 0 0 0
At SMD N 00888000
Ne 2 "/MOSI"
Po -0.49892 1.25214
$EndPAD
$PAD
Sh "7" R 0.3 0.8 0 0 0
Dr 0 0 0
At SMD N 00888000
Ne 1 "/MISO"
Po 0.00108 1.25214
$EndPAD
$PAD
Sh "5" R 0.3 0.925 0 0 900
Dr 0 0 0
At SMD N 00888000
Ne 0 ""
Po -1.29286 1.0033
$EndPAD
$PAD
Sh "9" R 0.3 0.925 0 0 900
Dr 0 0 0
At SMD N 00888000
Ne 7 "/acc_int2"
Po 1.2877 1.00146
$EndPAD
$PAD
Sh "12" R 0.3 0.925 0 0 900
Dr 0 0 0
At SMD N 00888000
Ne 8 "GND"
Po 1.2877 -0.49854
$EndPAD
$PAD
Sh "11" R 0.3 0.925 0 0 900
Dr 0 0 0
At SMD N 00888000
Ne 6 "/acc_int1"
Po 1.2877 0.00146
$EndPAD
$PAD
Sh "10" R 0.3 0.925 0 0 900
Dr 0 0 0
At SMD N 00888000
Ne 0 ""
Po 1.2877 0.50146
$EndPAD
$EndMODULE LGA-CC-16-4
$EndLIBRARY
