PCBNEW-LibModule-V1  Mon 11 Mar 2019 02:10:59 PM -03
# encoding utf-8
Units mm
$INDEX
PinHeader_2x25_P2.54mm_Vertical
$EndINDEX
$MODULE PinHeader_2x25_P2.54mm_Vertical
Po 0 0 0 15 59FED5CC 00000000 ~~
Li PinHeader_2x25_P2.54mm_Vertical
Cd Through hole straight pin header, 2x25, 2.54mm pitch, double rows
Kw Through hole pin header THT 2x25 2.54mm double row
Sc 0
AR 
Op 0 0 0
T0 1.27 -2.33 1 1 0 0.15 N V 21 N "REF**"
T1 1.27 63.29 1 1 0 0.15 N V 27 N "PinHeader_2x25_P2.54mm_Vertical"
DS 0 -1.27 3.81 -1.27 0.1 27
DS 3.81 -1.27 3.81 62.23 0.1 27
DS 3.81 62.23 -1.27 62.23 0.1 27
DS -1.27 62.23 -1.27 0 0.1 27
DS -1.27 0 0 -1.27 0.1 27
DS -1.33 62.29 3.87 62.29 0.12 21
DS -1.33 1.27 -1.33 62.29 0.12 21
DS 3.87 -1.33 3.87 62.29 0.12 21
DS -1.33 1.27 1.27 1.27 0.12 21
DS 1.27 1.27 1.27 -1.33 0.12 21
DS 1.27 -1.33 3.87 -1.33 0.12 21
DS -1.33 0 -1.33 -1.33 0.12 21
DS -1.33 -1.33 0 -1.33 0.12 21
DS -1.8 -1.8 -1.8 62.75 0.05 26
DS -1.8 62.75 4.35 62.75 0.05 26
DS 4.35 62.75 4.35 -1.8 0.05 26
DS 4.35 -1.8 -1.8 -1.8 0.05 26
T2 1.27 30.48 1 1 900 0.15 N V 27 N "%R"
$PAD
Sh "1" R 1.7 1.7 0 0 0
Dr 1 0 0
At STD N 00C0FFFF
Ne 0 ""
Po 0 0
$EndPAD
$PAD
Sh "2" O 1.7 1.7 0 0 0
Dr 1 0 0
At STD N 00C0FFFF
Ne 0 ""
Po 2.54 0
$EndPAD
$PAD
Sh "3" O 1.7 1.7 0 0 0
Dr 1 0 0
At STD N 00C0FFFF
Ne 0 ""
Po 0 2.54
$EndPAD
$PAD
Sh "4" O 1.7 1.7 0 0 0
Dr 1 0 0
At STD N 00C0FFFF
Ne 0 ""
Po 2.54 2.54
$EndPAD
$PAD
Sh "5" O 1.7 1.7 0 0 0
Dr 1 0 0
At STD N 00C0FFFF
Ne 0 ""
Po 0 5.08
$EndPAD
$PAD
Sh "6" O 1.7 1.7 0 0 0
Dr 1 0 0
At STD N 00C0FFFF
Ne 0 ""
Po 2.54 5.08
$EndPAD
$PAD
Sh "7" O 1.7 1.7 0 0 0
Dr 1 0 0
At STD N 00C0FFFF
Ne 0 ""
Po 0 7.62
$EndPAD
$PAD
Sh "8" O 1.7 1.7 0 0 0
Dr 1 0 0
At STD N 00C0FFFF
Ne 0 ""
Po 2.54 7.62
$EndPAD
$PAD
Sh "9" O 1.7 1.7 0 0 0
Dr 1 0 0
At STD N 00C0FFFF
Ne 0 ""
Po 0 10.16
$EndPAD
$PAD
Sh "10" O 1.7 1.7 0 0 0
Dr 1 0 0
At STD N 00C0FFFF
Ne 0 ""
Po 2.54 10.16
$EndPAD
$PAD
Sh "11" O 1.7 1.7 0 0 0
Dr 1 0 0
At STD N 00C0FFFF
Ne 0 ""
Po 0 12.7
$EndPAD
$PAD
Sh "12" O 1.7 1.7 0 0 0
Dr 1 0 0
At STD N 00C0FFFF
Ne 0 ""
Po 2.54 12.7
$EndPAD
$PAD
Sh "13" O 1.7 1.7 0 0 0
Dr 1 0 0
At STD N 00C0FFFF
Ne 0 ""
Po 0 15.24
$EndPAD
$PAD
Sh "14" O 1.7 1.7 0 0 0
Dr 1 0 0
At STD N 00C0FFFF
Ne 0 ""
Po 2.54 15.24
$EndPAD
$PAD
Sh "15" O 1.7 1.7 0 0 0
Dr 1 0 0
At STD N 00C0FFFF
Ne 0 ""
Po 0 17.78
$EndPAD
$PAD
Sh "16" O 1.7 1.7 0 0 0
Dr 1 0 0
At STD N 00C0FFFF
Ne 0 ""
Po 2.54 17.78
$EndPAD
$PAD
Sh "17" O 1.7 1.7 0 0 0
Dr 1 0 0
At STD N 00C0FFFF
Ne 0 ""
Po 0 20.32
$EndPAD
$PAD
Sh "18" O 1.7 1.7 0 0 0
Dr 1 0 0
At STD N 00C0FFFF
Ne 0 ""
Po 2.54 20.32
$EndPAD
$PAD
Sh "19" O 1.7 1.7 0 0 0
Dr 1 0 0
At STD N 00C0FFFF
Ne 0 ""
Po 0 22.86
$EndPAD
$PAD
Sh "20" O 1.7 1.7 0 0 0
Dr 1 0 0
At STD N 00C0FFFF
Ne 0 ""
Po 2.54 22.86
$EndPAD
$PAD
Sh "21" O 1.7 1.7 0 0 0
Dr 1 0 0
At STD N 00C0FFFF
Ne 0 ""
Po 0 25.4
$EndPAD
$PAD
Sh "22" O 1.7 1.7 0 0 0
Dr 1 0 0
At STD N 00C0FFFF
Ne 0 ""
Po 2.54 25.4
$EndPAD
$PAD
Sh "23" O 1.7 1.7 0 0 0
Dr 1 0 0
At STD N 00C0FFFF
Ne 0 ""
Po 0 27.94
$EndPAD
$PAD
Sh "24" O 1.7 1.7 0 0 0
Dr 1 0 0
At STD N 00C0FFFF
Ne 0 ""
Po 2.54 27.94
$EndPAD
$PAD
Sh "25" O 1.7 1.7 0 0 0
Dr 1 0 0
At STD N 00C0FFFF
Ne 0 ""
Po 0 30.48
$EndPAD
$PAD
Sh "26" O 1.7 1.7 0 0 0
Dr 1 0 0
At STD N 00C0FFFF
Ne 0 ""
Po 2.54 30.48
$EndPAD
$PAD
Sh "27" O 1.7 1.7 0 0 0
Dr 1 0 0
At STD N 00C0FFFF
Ne 0 ""
Po 0 33.02
$EndPAD
$PAD
Sh "28" O 1.7 1.7 0 0 0
Dr 1 0 0
At STD N 00C0FFFF
Ne 0 ""
Po 2.54 33.02
$EndPAD
$PAD
Sh "29" O 1.7 1.7 0 0 0
Dr 1 0 0
At STD N 00C0FFFF
Ne 0 ""
Po 0 35.56
$EndPAD
$PAD
Sh "30" O 1.7 1.7 0 0 0
Dr 1 0 0
At STD N 00C0FFFF
Ne 0 ""
Po 2.54 35.56
$EndPAD
$PAD
Sh "31" O 1.7 1.7 0 0 0
Dr 1 0 0
At STD N 00C0FFFF
Ne 0 ""
Po 0 38.1
$EndPAD
$PAD
Sh "32" O 1.7 1.7 0 0 0
Dr 1 0 0
At STD N 00C0FFFF
Ne 0 ""
Po 2.54 38.1
$EndPAD
$PAD
Sh "33" O 1.7 1.7 0 0 0
Dr 1 0 0
At STD N 00C0FFFF
Ne 0 ""
Po 0 40.64
$EndPAD
$PAD
Sh "34" O 1.7 1.7 0 0 0
Dr 1 0 0
At STD N 00C0FFFF
Ne 0 ""
Po 2.54 40.64
$EndPAD
$PAD
Sh "35" O 1.7 1.7 0 0 0
Dr 1 0 0
At STD N 00C0FFFF
Ne 0 ""
Po 0 43.18
$EndPAD
$PAD
Sh "36" O 1.7 1.7 0 0 0
Dr 1 0 0
At STD N 00C0FFFF
Ne 0 ""
Po 2.54 43.18
$EndPAD
$PAD
Sh "37" O 1.7 1.7 0 0 0
Dr 1 0 0
At STD N 00C0FFFF
Ne 0 ""
Po 0 45.72
$EndPAD
$PAD
Sh "38" O 1.7 1.7 0 0 0
Dr 1 0 0
At STD N 00C0FFFF
Ne 0 ""
Po 2.54 45.72
$EndPAD
$PAD
Sh "39" O 1.7 1.7 0 0 0
Dr 1 0 0
At STD N 00C0FFFF
Ne 0 ""
Po 0 48.26
$EndPAD
$PAD
Sh "40" O 1.7 1.7 0 0 0
Dr 1 0 0
At STD N 00C0FFFF
Ne 0 ""
Po 2.54 48.26
$EndPAD
$PAD
Sh "41" O 1.7 1.7 0 0 0
Dr 1 0 0
At STD N 00C0FFFF
Ne 0 ""
Po 0 50.8
$EndPAD
$PAD
Sh "42" O 1.7 1.7 0 0 0
Dr 1 0 0
At STD N 00C0FFFF
Ne 0 ""
Po 2.54 50.8
$EndPAD
$PAD
Sh "43" O 1.7 1.7 0 0 0
Dr 1 0 0
At STD N 00C0FFFF
Ne 0 ""
Po 0 53.34
$EndPAD
$PAD
Sh "44" O 1.7 1.7 0 0 0
Dr 1 0 0
At STD N 00C0FFFF
Ne 0 ""
Po 2.54 53.34
$EndPAD
$PAD
Sh "45" O 1.7 1.7 0 0 0
Dr 1 0 0
At STD N 00C0FFFF
Ne 0 ""
Po 0 55.88
$EndPAD
$PAD
Sh "46" O 1.7 1.7 0 0 0
Dr 1 0 0
At STD N 00C0FFFF
Ne 0 ""
Po 2.54 55.88
$EndPAD
$PAD
Sh "47" O 1.7 1.7 0 0 0
Dr 1 0 0
At STD N 00C0FFFF
Ne 0 ""
Po 0 58.42
$EndPAD
$PAD
Sh "48" O 1.7 1.7 0 0 0
Dr 1 0 0
At STD N 00C0FFFF
Ne 0 ""
Po 2.54 58.42
$EndPAD
$PAD
Sh "49" O 1.7 1.7 0 0 0
Dr 1 0 0
At STD N 00C0FFFF
Ne 0 ""
Po 0 60.96
$EndPAD
$PAD
Sh "50" O 1.7 1.7 0 0 0
Dr 1 0 0
At STD N 00C0FFFF
Ne 0 ""
Po 2.54 60.96
$EndPAD
$SHAPE3D
Na "${KISYS3DMOD}/Connector_PinHeader_2.54mm.3dshapes/PinHeader_2x25_P2.54mm_Vertical.wrl"
Sc 1 1 1
Of 0 0 0
Ro 0 0 0
$EndSHAPE3D
$EndMODULE PinHeader_2x25_P2.54mm_Vertical
$EndLIBRARY
