PCBNEW-LibModule-V1  Wed 20 Feb 2019 11:58:44 AM -03
# encoding utf-8
Units mm
$INDEX
QFN40P600X600X90-48N
$EndINDEX
$MODULE QFN40P600X600X90-48N
Po 0 0 0 15 5C6D6AFF 00000000 ~~
Li QFN40P600X600X90-48N
Sc 0
AR 
Op 0 0 0
At SMD
T0 0 -4.445 0.8 0.8 0 0.1 N I 21 N "Ref**"
T1 0 0 1.524 1.524 0 0.05 N I 21 N ""
DS -3.81 -2.286 -3.81 3.81 0.15 21
DS -3.81 3.81 3.81 3.81 0.15 21
DS 3.81 3.81 3.81 -3.81 0.15 21
DS 3.81 -3.81 -2.794 -3.81 0.15 21
DS -2.794 -3.81 -3.81 -2.794 0.15 21
DS -3.81 -2.794 -3.81 -2.286 0.15 21
$PAD
Sh "1" O 0.2 0.650001 0 0 900
Dr 0 0 0
At SMD N 00888000
Ne 0 ""
Po -3.025 -2.2
$EndPAD
$PAD
Sh "2" O 0.2 0.650001 0 0 900
Dr 0 0 0
At SMD N 00888000
Ne 0 ""
Po -3.025 -1.8
$EndPAD
$PAD
Sh "3" O 0.2 0.650001 0 0 900
Dr 0 0 0
At SMD N 00888000
Ne 0 ""
Po -3.025 -1.4
$EndPAD
$PAD
Sh "4" O 0.2 0.650001 0 0 900
Dr 0 0 0
At SMD N 00888000
Ne 0 ""
Po -3.025 -1
$EndPAD
$PAD
Sh "5" O 0.2 0.650001 0 0 900
Dr 0 0 0
At SMD N 00888000
Ne 0 ""
Po -3.025 -0.6
$EndPAD
$PAD
Sh "6" O 0.2 0.650001 0 0 900
Dr 0 0 0
At SMD N 00888000
Ne 0 ""
Po -3.025 -0.2
$EndPAD
$PAD
Sh "7" O 0.2 0.650001 0 0 900
Dr 0 0 0
At SMD N 00888000
Ne 0 ""
Po -3.025 0.2
$EndPAD
$PAD
Sh "8" O 0.2 0.650001 0 0 900
Dr 0 0 0
At SMD N 00888000
Ne 0 ""
Po -3.025 0.6
$EndPAD
$PAD
Sh "9" O 0.2 0.650001 0 0 900
Dr 0 0 0
At SMD N 00888000
Ne 0 ""
Po -3.025 1
$EndPAD
$PAD
Sh "10" O 0.2 0.650001 0 0 900
Dr 0 0 0
At SMD N 00888000
Ne 0 ""
Po -3.025 1.4
$EndPAD
$PAD
Sh "11" O 0.2 0.650001 0 0 900
Dr 0 0 0
At SMD N 00888000
Ne 0 ""
Po -3.025 1.8
$EndPAD
$PAD
Sh "12" O 0.2 0.650001 0 0 900
Dr 0 0 0
At SMD N 00888000
Ne 0 ""
Po -3.025 2.2
$EndPAD
$PAD
Sh "13" O 0.2 0.650001 0 0 0
Dr 0 0 0
At SMD N 00888000
Ne 0 ""
Po -2.2 3.025
$EndPAD
$PAD
Sh "14" O 0.2 0.650001 0 0 0
Dr 0 0 0
At SMD N 00888000
Ne 0 ""
Po -1.8 3.025
$EndPAD
$PAD
Sh "15" O 0.2 0.650001 0 0 0
Dr 0 0 0
At SMD N 00888000
Ne 0 ""
Po -1.4 3.025
$EndPAD
$PAD
Sh "16" O 0.2 0.650001 0 0 0
Dr 0 0 0
At SMD N 00888000
Ne 0 ""
Po -1 3.025
$EndPAD
$PAD
Sh "17" O 0.2 0.650001 0 0 0
Dr 0 0 0
At SMD N 00888000
Ne 0 ""
Po -0.6 3.025
$EndPAD
$PAD
Sh "18" O 0.2 0.650001 0 0 0
Dr 0 0 0
At SMD N 00888000
Ne 0 ""
Po -0.2 3.025
$EndPAD
$PAD
Sh "19" O 0.2 0.650001 0 0 0
Dr 0 0 0
At SMD N 00888000
Ne 0 ""
Po 0.2 3.025
$EndPAD
$PAD
Sh "20" O 0.2 0.650001 0 0 0
Dr 0 0 0
At SMD N 00888000
Ne 0 ""
Po 0.6 3.025
$EndPAD
$PAD
Sh "21" O 0.2 0.650001 0 0 0
Dr 0 0 0
At SMD N 00888000
Ne 0 ""
Po 1 3.025
$EndPAD
$PAD
Sh "22" O 0.2 0.650001 0 0 0
Dr 0 0 0
At SMD N 00888000
Ne 0 ""
Po 1.4 3.025
$EndPAD
$PAD
Sh "23" O 0.2 0.650001 0 0 0
Dr 0 0 0
At SMD N 00888000
Ne 0 ""
Po 1.8 3.025
$EndPAD
$PAD
Sh "24" O 0.2 0.650001 0 0 0
Dr 0 0 0
At SMD N 00888000
Ne 0 ""
Po 2.2 3.025
$EndPAD
$PAD
Sh "25" O 0.2 0.650001 0 0 900
Dr 0 0 0
At SMD N 00888000
Ne 0 ""
Po 3.025 2.2
$EndPAD
$PAD
Sh "26" O 0.2 0.650001 0 0 900
Dr 0 0 0
At SMD N 00888000
Ne 0 ""
Po 3.025 1.8
$EndPAD
$PAD
Sh "27" O 0.2 0.650001 0 0 900
Dr 0 0 0
At SMD N 00888000
Ne 0 ""
Po 3.025 1.4
$EndPAD
$PAD
Sh "28" O 0.2 0.650001 0 0 900
Dr 0 0 0
At SMD N 00888000
Ne 0 ""
Po 3.025 1
$EndPAD
$PAD
Sh "29" O 0.2 0.650001 0 0 900
Dr 0 0 0
At SMD N 00888000
Ne 0 ""
Po 3.025 0.6
$EndPAD
$PAD
Sh "30" O 0.2 0.650001 0 0 900
Dr 0 0 0
At SMD N 00888000
Ne 0 ""
Po 3.025 0.2
$EndPAD
$PAD
Sh "31" O 0.2 0.650001 0 0 900
Dr 0 0 0
At SMD N 00888000
Ne 0 ""
Po 3.025 -0.2
$EndPAD
$PAD
Sh "32" O 0.2 0.650001 0 0 900
Dr 0 0 0
At SMD N 00888000
Ne 0 ""
Po 3.025 -0.6
$EndPAD
$PAD
Sh "33" O 0.2 0.650001 0 0 900
Dr 0 0 0
At SMD N 00888000
Ne 0 ""
Po 3.025 -1
$EndPAD
$PAD
Sh "34" O 0.2 0.650001 0 0 900
Dr 0 0 0
At SMD N 00888000
Ne 0 ""
Po 3.025 -1.4
$EndPAD
$PAD
Sh "35" O 0.2 0.650001 0 0 900
Dr 0 0 0
At SMD N 00888000
Ne 0 ""
Po 3.025 -1.8
$EndPAD
$PAD
Sh "36" O 0.2 0.650001 0 0 900
Dr 0 0 0
At SMD N 00888000
Ne 0 ""
Po 3.025 -2.2
$EndPAD
$PAD
Sh "37" O 0.2 0.650001 0 0 0
Dr 0 0 0
At SMD N 00888000
Ne 0 ""
Po 2.2 -3.025
$EndPAD
$PAD
Sh "38" O 0.2 0.650001 0 0 0
Dr 0 0 0
At SMD N 00888000
Ne 0 ""
Po 1.8 -3.025
$EndPAD
$PAD
Sh "39" O 0.2 0.650001 0 0 0
Dr 0 0 0
At SMD N 00888000
Ne 0 ""
Po 1.4 -3.025
$EndPAD
$PAD
Sh "40" O 0.2 0.650001 0 0 0
Dr 0 0 0
At SMD N 00888000
Ne 0 ""
Po 1 -3.025
$EndPAD
$PAD
Sh "41" O 0.2 0.650001 0 0 0
Dr 0 0 0
At SMD N 00888000
Ne 0 ""
Po 0.6 -3.025
$EndPAD
$PAD
Sh "42" O 0.2 0.650001 0 0 0
Dr 0 0 0
At SMD N 00888000
Ne 0 ""
Po 0.2 -3.025
$EndPAD
$PAD
Sh "43" O 0.2 0.650001 0 0 0
Dr 0 0 0
At SMD N 00888000
Ne 0 ""
Po -0.2 -3.025
$EndPAD
$PAD
Sh "44" O 0.2 0.650001 0 0 0
Dr 0 0 0
At SMD N 00888000
Ne 0 ""
Po -0.6 -3.025
$EndPAD
$PAD
Sh "45" O 0.2 0.650001 0 0 0
Dr 0 0 0
At SMD N 00888000
Ne 0 ""
Po -1 -3.025
$EndPAD
$PAD
Sh "46" O 0.2 0.650001 0 0 0
Dr 0 0 0
At SMD N 00888000
Ne 0 ""
Po -1.4 -3.025
$EndPAD
$PAD
Sh "47" O 0.2 0.650001 0 0 0
Dr 0 0 0
At SMD N 00888000
Ne 0 ""
Po -1.8 -3.025
$EndPAD
$PAD
Sh "48" O 0.2 0.650001 0 0 0
Dr 0 0 0
At SMD N 00888000
Ne 0 ""
Po -2.2 -3.025
$EndPAD
$PAD
Sh "49" R 4.700001 4.700001 0 0 0
Dr 0 0 0
At SMD N 00888000
Ne 0 ""
Po 0 0
$EndPAD
$SHAPE3D
Na "${KIPRJMOD}/dcdc.3dshapes/wrlshp/C2FCC158-013D.wrl"
Sc 1 1 1
Of 0 0 0
Ro 0 0 360
$EndSHAPE3D
$EndMODULE QFN40P600X600X90-48N
$EndLIBRARY
