PCBNEW-LibModule-V1  Mon 11 Mar 2019 05:46:27 PM -03
# encoding utf-8
Units mm
$INDEX
RF_SMA_Vertical_5-1814832-1
$EndINDEX
$MODULE RF_SMA_Vertical_5-1814832-1
Po 0 0 0 15 59CD3347 00000000 ~~
Li RF_SMA_Vertical_5-1814832-1
Sc 0
AR 
Op 0 0 0
T0 0.375 -4.8 1 1 0 0.15 N V 21 N "REF**"
T1 0.1 4.775 1 1 0 0.15 N V 27 N "RF_SMA_Vertical_5-1814832-1"
DS -1.3 3.325 1.25 3.325 0.1 21
DS -3.325 1.225 -3.325 -1.225 0.1 21
DS 3.4 -1.15 3.4 1.025 0.1 21
DS -1.15 -3.35 1.175 -3.35 0.1 21
DS -4.1 4.1 -4.1 -4.1 0.05 26
DS 4.1 4.1 -4.1 4.1 0.05 26
DS 4.1 -4.1 4.1 4.1 0.05 26
DS -4.1 -4.1 4.1 -4.1 0.05 26
DS -3.2 3.2 -3.2 -3.2 0.1 27
DS 3.2 3.2 -3.2 3.2 0.1 27
DS 3.2 -3.2 3.2 3.2 0.1 27
DS -3.2 -3.2 3.2 -3.2 0.1 27
$PAD
Sh "2" C 2.5 2.5 0 0 0
Dr 1.5 0 0
At STD N 00C0FFFF
Ne 0 ""
Po 0.1 -0.075
$EndPAD
$PAD
Sh "1" C 2.6 2.6 0 0 0
Dr 1.6 0 0
At STD N 00C0FFFF
Ne 0 ""
Po -2.54 -2.54
$EndPAD
$PAD
Sh "1" C 2.6 2.6 0 0 0
Dr 1.6 0 0
At STD N 00C0FFFF
Ne 0 ""
Po 2.54 -2.54
$EndPAD
$PAD
Sh "1" C 2.6 2.6 0 0 0
Dr 1.6 0 0
At STD N 00C0FFFF
Ne 0 ""
Po 2.54 2.54
$EndPAD
$PAD
Sh "1" C 2.6 2.6 0 0 0
Dr 1.6 0 0
At STD N 00C0FFFF
Ne 0 ""
Po -2.54 2.54
$EndPAD
$EndMODULE RF_SMA_Vertical_5-1814832-1
$EndLIBRARY
