PCBNEW-LibModule-V1  Wed 20 Feb 2019 11:54:12 AM -03
# encoding utf-8
Units mm
$INDEX
XTAL_2016
$EndINDEX
$MODULE XTAL_2016
Po 0 0 0 15 5C6D6A01 00000000 ~~
Li XTAL_2016
Sc 0
AR 
Op 0 0 0
At SMD
T0 0 -1.905 0.6 0.6 0 0.1 N I 21 N "Ref**"
T1 0 0 1.524 1.524 0 0.05 N V 21 N ""
DS -1.1176 -0.1016 -1.1176 0.1016 0.15 21
DS 1.1176 -0.1016 1.1176 0.1016 0.15 21
DS -0.2032 0.9144 0.2032 0.9144 0.15 21
DS 0.1524 -0.9144 0.2032 -0.9144 0.15 21
DS -0.2032 -0.9144 0.1524 -0.9144 0.15 21
$PAD
Sh "4" R 0.95 0.85 0 0 0
Dr 0 0 0
At SMD N 00888000
Ne 0 ""
Po -0.725 -0.575
$EndPAD
$PAD
Sh "1" R 0.95 0.85 0 0 0
Dr 0 0 0
At SMD N 00888000
Ne 0 ""
Po -0.725 0.575
$EndPAD
$PAD
Sh "2" R 0.95 0.85 0 0 0
Dr 0 0 0
At SMD N 00888000
Ne 0 ""
Po 0.725 0.575
$EndPAD
$PAD
Sh "3" R 0.95 0.85 0 0 0
Dr 0 0 0
At SMD N 00888000
Ne 0 ""
Po 0.725 -0.575
$EndPAD
$SHAPE3D
Na "./wrlshp/368438F8-044C.wrl"
Sc 1 1 1
Of 0 0 0
Ro 0 0 0
$EndSHAPE3D
$SHAPE3D
Na "./wrlshp/E61CE03E-8AFE.wrl"
Sc 1 1 1
Of 0 0 0
Ro 0 0 0
$EndSHAPE3D
$EndMODULE XTAL_2016
$EndLIBRARY
