PCBNEW-LibModule-V1  Wed 20 Feb 2019 11:38:46 AM -03
# encoding utf-8
Units mm
$INDEX
BGA50C40P7X8_295X322X50
$EndINDEX
$MODULE BGA50C40P7X8_295X322X50
Po 0 0 0 15 5C6D665E 00000000 ~~
Li BGA50C40P7X8_295X322X50
Sc 0
AR 
Op 0 0 0
At SMD
T0 0 -2.54 0.6 0.6 0 0.05 N V 21 N "Ref**"
T1 -0.381 4.699 1.524 1.524 0 0.05 N I 21 N ""
DS -1.524 -1.397 -1.27 -1.651 0.2 21
DS 1.524 -1.651 -1.27 -1.651 0.2 21
DS 1.524 1.651 1.524 -1.651 0.2 21
DS -1.524 1.651 1.524 1.651 0.2 21
DS -1.524 -1.397 -1.524 1.651 0.2 21
$PAD
Sh "H7" C 0.1935 0.1935 0 0 0
Dr 0 0 0
At SMD N 00888000
Ne 0 ""
Po 1.2 1.4
$EndPAD
$PAD
Sh "H6" C 0.1935 0.1935 0 0 0
Dr 0 0 0
At SMD N 00888000
Ne 0 ""
Po 0.8 1.4
$EndPAD
$PAD
Sh "H5" C 0.1935 0.1935 0 0 0
Dr 0 0 0
At SMD N 00888000
Ne 0 ""
Po 0.4 1.4
$EndPAD
$PAD
Sh "H4" C 0.1935 0.1935 0 0 0
Dr 0 0 0
At SMD N 00888000
Ne 0 ""
Po 0 1.4
$EndPAD
$PAD
Sh "H3" C 0.1935 0.1935 0 0 0
Dr 0 0 0
At SMD N 00888000
Ne 0 ""
Po -0.4 1.4
$EndPAD
$PAD
Sh "H2" C 0.1935 0.1935 0 0 0
Dr 0 0 0
At SMD N 00888000
Ne 0 ""
Po -0.8 1.4
$EndPAD
$PAD
Sh "H1" C 0.1935 0.1935 0 0 0
Dr 0 0 0
At SMD N 00888000
Ne 0 ""
Po -1.2 1.4
$EndPAD
$PAD
Sh "G7" C 0.1935 0.1935 0 0 0
Dr 0 0 0
At SMD N 00888000
Ne 0 ""
Po 1.2 1
$EndPAD
$PAD
Sh "G6" C 0.1935 0.1935 0 0 0
Dr 0 0 0
At SMD N 00888000
Ne 0 ""
Po 0.8 1
$EndPAD
$PAD
Sh "G5" C 0.1935 0.1935 0 0 0
Dr 0 0 0
At SMD N 00888000
Ne 0 ""
Po 0.4 1
$EndPAD
$PAD
Sh "G4" C 0.1935 0.1935 0 0 0
Dr 0 0 0
At SMD N 00888000
Ne 0 ""
Po 0 1
$EndPAD
$PAD
Sh "G3" C 0.1935 0.1935 0 0 0
Dr 0 0 0
At SMD N 00888000
Ne 0 ""
Po -0.4 1
$EndPAD
$PAD
Sh "G2" C 0.1935 0.1935 0 0 0
Dr 0 0 0
At SMD N 00888000
Ne 0 ""
Po -0.8 1
$EndPAD
$PAD
Sh "G1" C 0.1935 0.1935 0 0 0
Dr 0 0 0
At SMD N 00888000
Ne 0 ""
Po -1.2 1
$EndPAD
$PAD
Sh "F7" C 0.1935 0.1935 0 0 0
Dr 0 0 0
At SMD N 00888000
Ne 0 ""
Po 1.2 0.6
$EndPAD
$PAD
Sh "F6" C 0.1935 0.1935 0 0 0
Dr 0 0 0
At SMD N 00888000
Ne 0 ""
Po 0.8 0.6
$EndPAD
$PAD
Sh "F5" C 0.1935 0.1935 0 0 0
Dr 0 0 0
At SMD N 00888000
Ne 0 ""
Po 0.4 0.6
$EndPAD
$PAD
Sh "F4" C 0.1935 0.1935 0 0 0
Dr 0 0 0
At SMD N 00888000
Ne 0 ""
Po 0 0.6
$EndPAD
$PAD
Sh "F3" C 0.1935 0.1935 0 0 0
Dr 0 0 0
At SMD N 00888000
Ne 0 ""
Po -0.4 0.6
$EndPAD
$PAD
Sh "F2" C 0.1935 0.1935 0 0 0
Dr 0 0 0
At SMD N 00888000
Ne 0 ""
Po -0.8 0.6
$EndPAD
$PAD
Sh "F1" C 0.1935 0.1935 0 0 0
Dr 0 0 0
At SMD N 00888000
Ne 0 ""
Po -1.2 0.6
$EndPAD
$PAD
Sh "E7" C 0.1935 0.1935 0 0 0
Dr 0 0 0
At SMD N 00888000
Ne 0 ""
Po 1.2 0.2
$EndPAD
$PAD
Sh "E6" C 0.1935 0.1935 0 0 0
Dr 0 0 0
At SMD N 00888000
Ne 0 ""
Po 0.8 0.2
$EndPAD
$PAD
Sh "E3" C 0.1935 0.1935 0 0 0
Dr 0 0 0
At SMD N 00888000
Ne 0 ""
Po -0.4 0.2
$EndPAD
$PAD
Sh "E2" C 0.1935 0.1935 0 0 0
Dr 0 0 0
At SMD N 00888000
Ne 0 ""
Po -0.8 0.2
$EndPAD
$PAD
Sh "E1" C 0.1935 0.1935 0 0 0
Dr 0 0 0
At SMD N 00888000
Ne 0 ""
Po -1.2 0.2
$EndPAD
$PAD
Sh "D7" C 0.1935 0.1935 0 0 0
Dr 0 0 0
At SMD N 00888000
Ne 0 ""
Po 1.2 -0.2
$EndPAD
$PAD
Sh "D6" C 0.1935 0.1935 0 0 0
Dr 0 0 0
At SMD N 00888000
Ne 0 ""
Po 0.8 -0.2
$EndPAD
$PAD
Sh "D3" C 0.1935 0.1935 0 0 0
Dr 0 0 0
At SMD N 00888000
Ne 0 ""
Po -0.4 -0.2
$EndPAD
$PAD
Sh "D2" C 0.1935 0.1935 0 0 0
Dr 0 0 0
At SMD N 00888000
Ne 0 ""
Po -0.8 -0.2
$EndPAD
$PAD
Sh "D1" C 0.1935 0.1935 0 0 0
Dr 0 0 0
At SMD N 00888000
Ne 0 ""
Po -1.2 -0.2
$EndPAD
$PAD
Sh "C7" C 0.1935 0.1935 0 0 0
Dr 0 0 0
At SMD N 00888000
Ne 0 ""
Po 1.2 -0.6
$EndPAD
$PAD
Sh "C6" C 0.1935 0.1935 0 0 0
Dr 0 0 0
At SMD N 00888000
Ne 0 ""
Po 0.8 -0.6
$EndPAD
$PAD
Sh "C5" C 0.1935 0.1935 0 0 0
Dr 0 0 0
At SMD N 00888000
Ne 0 ""
Po 0.4 -0.6
$EndPAD
$PAD
Sh "C4" C 0.1935 0.1935 0 0 0
Dr 0 0 0
At SMD N 00888000
Ne 0 ""
Po 0 -0.6
$EndPAD
$PAD
Sh "C3" C 0.1935 0.1935 0 0 0
Dr 0 0 0
At SMD N 00888000
Ne 0 ""
Po -0.4 -0.6
$EndPAD
$PAD
Sh "C2" C 0.1935 0.1935 0 0 0
Dr 0 0 0
At SMD N 00888000
Ne 0 ""
Po -0.8 -0.6
$EndPAD
$PAD
Sh "B7" C 0.1935 0.1935 0 0 0
Dr 0 0 0
At SMD N 00888000
Ne 0 ""
Po 1.2 -1
$EndPAD
$PAD
Sh "B6" C 0.1935 0.1935 0 0 0
Dr 0 0 0
At SMD N 00888000
Ne 0 ""
Po 0.8 -1
$EndPAD
$PAD
Sh "B5" C 0.1935 0.1935 0 0 0
Dr 0 0 0
At SMD N 00888000
Ne 0 ""
Po 0.4 -1
$EndPAD
$PAD
Sh "B4" C 0.1935 0.1935 0 0 0
Dr 0 0 0
At SMD N 00888000
Ne 0 ""
Po 0 -1
$EndPAD
$PAD
Sh "B3" C 0.1935 0.1935 0 0 0
Dr 0 0 0
At SMD N 00888000
Ne 0 ""
Po -0.4 -1
$EndPAD
$PAD
Sh "B2" C 0.1935 0.1935 0 0 0
Dr 0 0 0
At SMD N 00888000
Ne 0 ""
Po -0.8 -1
$EndPAD
$PAD
Sh "A7" C 0.1935 0.1935 0 0 0
Dr 0 0 0
At SMD N 00888000
Ne 0 ""
Po 1.2 -1.4
$EndPAD
$PAD
Sh "A6" C 0.1935 0.1935 0 0 0
Dr 0 0 0
At SMD N 00888000
Ne 0 ""
Po 0.8 -1.4
$EndPAD
$PAD
Sh "A5" C 0.1935 0.1935 0 0 0
Dr 0 0 0
At SMD N 00888000
Ne 0 ""
Po 0.4 -1.4
$EndPAD
$PAD
Sh "A4" C 0.1935 0.1935 0 0 0
Dr 0 0 0
At SMD N 00888000
Ne 0 ""
Po 0 -1.4
$EndPAD
$PAD
Sh "A3" C 0.1935 0.1935 0 0 0
Dr 0 0 0
At SMD N 00888000
Ne 0 ""
Po -0.4 -1.4
$EndPAD
$PAD
Sh "A2" C 0.1935 0.1935 0 0 0
Dr 0 0 0
At SMD N 00888000
Ne 0 ""
Po -0.8 -1.4
$EndPAD
$PAD
Sh "A1" C 0.1935 0.1935 0 0 0
Dr 0 0 0
At SMD N 00888000
Ne 0 ""
Po -1.2 -1.4
$EndPAD
$SHAPE3D
Na "./wrlshp/C7B555C2-DB3A.wrl"
Sc 1 1 1
Of 0 0 0
Ro 0 0 0
$EndSHAPE3D
$SHAPE3D
Na "./wrlshp/E6AEDDBC-81FD.wrl"
Sc 1 1 1
Of 0 0 0
Ro 0 0 0
$EndSHAPE3D
$EndMODULE BGA50C40P7X8_295X322X50
$EndLIBRARY
