PCBNEW-LibModule-V1  Wed 27 Feb 2019 04:40:54 PM -03
# encoding utf-8
Units mm
$INDEX
MM8130-2600
$EndINDEX
$MODULE MM8130-2600
Po 0 0 0 15 5C76E779 00000000 ~~
Li MM8130-2600
Sc 0
AR /5C76E75A
Op 0 0 0
T0 0.02286 -2.37236 1 1 0 0.15 N I 21 N "J2"
T1 -0.14478 2.63652 1 1 0 0.15 N V 21 N "MM8130-2600"
DS 1.5 -1.5 0 -1.5 0.15 21
DS -1.5 -1.5 0 -1.5 0.15 21
DS -1.5 0 -1.5 -1.5 0.15 21
DS 1.5 1.5 1.5 -1.5 0.15 21
DS -1.5 1.5 1.5 1.5 0.15 21
DS -1.5 0 -1.5 1.5 0.15 21
$PAD
Sh "3" R 0.6 0.8 0 0 0
Dr 0 0 0
At SMD N 00888000
Ne 0 ""
Po -0.95 -0.95
$EndPAD
$PAD
Sh "3" R 0.6 0.8 0 0 0
Dr 0 0 0
At SMD N 00888000
Ne 0 ""
Po 0.95 -0.95
$EndPAD
$PAD
Sh "2" R 0.6 0.8 0 0 0
Dr 0 0 0
At SMD N 00888000
Ne 0 ""
Po -0.95 0.95
$EndPAD
$PAD
Sh "2" R 0.6 0.8 0 0 0
Dr 0 0 0
At SMD N 00888000
Ne 0 ""
Po 0.95 0.95
$EndPAD
$PAD
Sh "1" R 0.28 0.28 0 0 0
Dr 0 0 0
At SMD N 00888000
Ne 0 ""
Po 0 1.21
$EndPAD
$PAD
Sh "1" R 0.28 0.28 0 0 0
Dr 0 0 0
At SMD N 00888000
Ne 0 ""
Po 0 -1.21
$EndPAD
$EndMODULE MM8130-2600
$EndLIBRARY
