PCBNEW-LibModule-V1  Thu 21 Feb 2019 09:58:12 AM -03
# encoding utf-8
Units mm
$INDEX
nrf_prog
$EndINDEX
$MODULE nrf_prog
Po 0 0 0 15 5C6EA04D 00000000 ~~
Li nrf_prog
Sc 0
AR 
Op 0 0 0
T0 0.3556 -2.286 1 1 0 0.15 N V 21 N "Ref**"
T1 0.3556 2.0828 1 1 0 0.15 N V 21 N "VAL**"
$PAD
Sh "1" C 0.762 0.762 0 0 0
Dr 0 0 0
At SMD N 00888000
Ne 0 ""
Po 1.27 -0.6096
$EndPAD
$PAD
Sh "2" C 0.762 0.762 0 0 0
Dr 0 0 0
At SMD N 00888000
Ne 0 ""
Po 0 -0.6096
$EndPAD
$PAD
Sh "3" C 0.762 0.762 0 0 0
Dr 0 0 0
At SMD N 00888000
Ne 0 ""
Po -1.27 -0.6096
$EndPAD
$PAD
Sh "4" C 0.762 0.762 0 0 0
Dr 0 0 0
At SMD N 00888000
Ne 0 ""
Po -1.27 0.6096
$EndPAD
$PAD
Sh "5" C 0.762 0.762 0 0 0
Dr 0 0 0
At SMD N 00888000
Ne 0 ""
Po 0 0.6096
$EndPAD
$PAD
Sh "6" C 0.762 0.762 0 0 0
Dr 0 0 0
At SMD N 00888000
Ne 0 ""
Po 1.27 0.6096
$EndPAD
$PAD
Sh "" C 0.95 0.95 0 0 0
Dr 0.95 0 0
At STD N 0DFFFFFF
Ne 0 ""
Po 2.54 0
$EndPAD
$PAD
Sh "" C 0.95 0.95 0 0 0
Dr 0.95 0 0
At STD N 0DFFFFFF
Ne 0 ""
Po -2.54 -1.016
$EndPAD
$PAD
Sh "" C 0.95 0.95 0 0 0
Dr 0.95 0 0
At STD N 0DFFFFFF
Ne 0 ""
Po -2.54 1.016
$EndPAD
$EndMODULE nrf_prog
$EndLIBRARY
