PCBNEW-LibModule-V1  Wed 27 Feb 2019 04:00:20 PM -03
# encoding utf-8
Units mm
$INDEX
PCONN
$EndINDEX
$MODULE PCONN
Po 0 0 0 15 59FED6E3 00000000 ~~
Li PCONN
Cd Through hole straight pin header, 1x02, 1.27mm pitch, single row
Kw Through hole pin header THT 1x02 1.27mm single row
Sc 0
AR 
Op 0 0 0
T0 0 -1.695 1 1 0 0.15 N V 21 N "REF**"
T1 0 2.965 1 1 0 0.15 N V 27 N "PCONN"
DS -0.525 -0.635 1.05 -0.635 0.1 27
DS 1.05 -0.635 1.05 1.905 0.1 27
DS 1.05 1.905 -1.05 1.905 0.1 27
DS -1.05 1.905 -1.05 -0.11 0.1 27
DS -1.05 -0.11 -0.525 -0.635 0.1 27
DS -1.11 1.965 -0.30753 1.965 0.12 21
DS 0.30753 1.965 1.11 1.965 0.12 21
DS -1.11 0.76 -1.11 1.965 0.12 21
DS 1.11 0.76 1.11 1.965 0.12 21
DS -1.11 0.76 -0.563471 0.76 0.12 21
DS 0.563471 0.76 1.11 0.76 0.12 21
DS -1.11 0 -1.11 -0.76 0.12 21
DS -1.11 -0.76 0 -0.76 0.12 21
DS -1.55 -1.15 -1.55 2.45 0.05 26
DS -1.55 2.45 1.55 2.45 0.05 26
DS 1.55 2.45 1.55 -1.15 0.05 26
DS 1.55 -1.15 -1.55 -1.15 0.05 26
T2 0 0.635 1 1 900 0.15 N V 27 N "%R"
$PAD
Sh "1" R 1 1 0 0 0
Dr 0.65 0 0
At STD N 00C0FFFF
Ne 0 ""
Po 0 0
$EndPAD
$PAD
Sh "2" O 1 1 0 0 0
Dr 0.65 0 0
At STD N 00C0FFFF
Ne 0 ""
Po 0 1.27
$EndPAD
$SHAPE3D
Na "${KISYS3DMOD}/Connector_PinHeader_1.27mm.3dshapes/PinHeader_1x02_P1.27mm_Vertical.wrl"
Sc 1 1 1
Of 0 0 0
Ro 0 0 0
$EndSHAPE3D
$EndMODULE PCONN
$EndLIBRARY
