PCBNEW-LibModule-V1  Wed 20 Feb 2019 11:55:16 AM -03
# encoding utf-8
Units mm
$INDEX
XTAL_2012
$EndINDEX
$MODULE XTAL_2012
Po 0 0 0 15 5C6D6A4C 00000000 ~~
Li XTAL_2012
Sc 0
AR 
Op 0 0 0
At SMD
T0 0 -1.905 0.6 0.6 0 0.1 N I 21 N "Ref**"
T1 0 0 1.524 1.524 0 0.05 N V 21 N ""
DS -0.3048 0.6096 0.3048 0.6096 0.15 21
DS 0.254 -0.6096 0.3048 -0.6096 0.15 21
DS -0.3048 -0.6096 0.254 -0.6096 0.15 21
$PAD
Sh "2" R 0.75 1.4 0 0 0
Dr 0 0 0
At SMD N 00888000
Ne 0 ""
Po 0.725 0
$EndPAD
$PAD
Sh "1" R 0.75 1.4 0 0 0
Dr 0 0 0
At SMD N 00888000
Ne 0 ""
Po -0.725 0
$EndPAD
$SHAPE3D
Na "./wrlshp/4E1DA1CA-88A3.wrl"
Sc 1 1 1
Of 0 0 0
Ro 0 0 360
$EndSHAPE3D
$SHAPE3D
Na "./wrlshp/71EBD4AE-24C3.wrl"
Sc 1 1 1
Of 0 0 0
Ro 0 0 360
$EndSHAPE3D
$EndMODULE XTAL_2012
$EndLIBRARY
