EESchema Schematic File Version 2
LIBS:austral_0v1-rescue
LIBS:power
LIBS:device
LIBS:transistors
LIBS:conn
LIBS:linear
LIBS:regul
LIBS:74xx
LIBS:cmos4000
LIBS:adc-dac
LIBS:memory
LIBS:xilinx
LIBS:microcontrollers
LIBS:dsp
LIBS:microchip
LIBS:analog_switches
LIBS:motorola
LIBS:texas
LIBS:intel
LIBS:audio
LIBS:interface
LIBS:digital-audio
LIBS:philips
LIBS:display
LIBS:cypress
LIBS:siliconi
LIBS:opto
LIBS:atmel
LIBS:contrib
LIBS:valves
LIBS:austral_0v1-cache
EELAYER 25 0
EELAYER END
$Descr A4 11693 8268
encoding utf-8
Sheet 1 1
Title ""
Date "22 feb 2019"
Rev ""
Comp ""
Comment1 ""
Comment2 ""
Comment3 ""
Comment4 ""
$EndDescr
$Comp
L XTAL_2-pin X2
U 1 1 5C6AE318
P 1700 2700
F 0 "X2" V 1797 2810 60  0000 L CNN
F 1 "32kHz" V 1903 2810 60  0000 L CNN
F 2 "XTAL_2012" H 1700 2700 60  0001 C CNN
F 3 "" H 1700 2700 60  0000 C CNN
	1    1700 2700
	0    1    1    0   
$EndComp
$Comp
L XTAL_4-pin_grounded X1
U 1 1 5C6AE3BB
P 6000 2600
F 0 "X1" V 6203 2710 60  0000 L CNN
F 1 "32MHz" V 6050 2650 60  0000 L CNN
F 2 "XTAL_2016" H 6000 2600 60  0001 C CNN
F 3 "" H 6000 2600 60  0000 C CNN
	1    6000 2600
	0    -1   -1   0   
$EndComp
$Comp
L CAP C10
U 1 1 5C6AE9BE
P 1250 2650
F 0 "C10" H 1400 2909 60  0000 C CNN
F 1 "12pF" H 1400 2803 60  0000 C CNN
F 2 "CAPC0603X03L" H 1250 2650 60  0001 C CNN
F 3 "" H 1250 2650 60  0000 C CNN
	1    1250 2650
	1    0    0    -1  
$EndComp
$Comp
L CAP C11
U 1 1 5C6AEA27
P 1250 3100
F 0 "C11" H 1400 3359 60  0000 C CNN
F 1 "12pF" H 1400 3253 60  0000 C CNN
F 2 "CAPC0603X03L" H 1250 3100 60  0001 C CNN
F 3 "" H 1250 3100 60  0000 C CNN
	1    1250 3100
	1    0    0    -1  
$EndComp
$Comp
L CAP C4
U 1 1 5C6AEB17
P 2300 1550
F 0 "C4" V 2397 1650 60  0000 L CNN
F 1 "100nF" V 2503 1650 60  0000 L CNN
F 2 "CAPC0603X03L" H 2300 1550 60  0001 C CNN
F 3 "" H 2300 1550 60  0000 C CNN
	1    2300 1550
	0    1    1    0   
$EndComp
$Comp
L CAP C8
U 1 1 5C6AEC36
P 2750 1250
F 0 "C8" V 2847 1350 60  0000 L CNN
F 1 "4.7uF" V 2953 1350 60  0000 L CNN
F 2 "CAPC1608X06L" H 2750 1250 60  0001 C CNN
F 3 "" H 2750 1250 60  0000 C CNN
	1    2750 1250
	0    1    1    0   
$EndComp
$Comp
L CAP C2
U 1 1 5C6B0DB1
P 6150 2150
F 0 "C2" H 6300 2409 60  0000 C CNN
F 1 "12pF" H 6300 2303 60  0000 C CNN
F 2 "CAPC0603X03L" H 6150 2150 60  0001 C CNN
F 3 "" H 6150 2150 60  0000 C CNN
	1    6150 2150
	1    0    0    -1  
$EndComp
$Comp
L CAP C1
U 1 1 5C6B0E6C
P 6150 2750
F 0 "C1" H 6300 3009 60  0000 C CNN
F 1 "12pF" H 6300 2903 60  0000 C CNN
F 2 "CAPC0603X03L" H 6150 2750 60  0001 C CNN
F 3 "" H 6150 2750 60  0000 C CNN
	1    6150 2750
	1    0    0    -1  
$EndComp
$Comp
L CAP C6
U 1 1 5C6B10BC
P 5850 2950
F 0 "C6" V 5947 3050 60  0000 L CNN
F 1 "100pF" V 6053 3050 60  0000 L CNN
F 2 "CAPC0603X03L" H 5850 2950 60  0001 C CNN
F 3 "" H 5850 2950 60  0000 C CNN
	1    5850 2950
	0    1    1    0   
$EndComp
$Comp
L IND L2
U 1 1 5C6B2666
P 3450 1550
F 0 "L2" V 3653 1509 60  0000 R CNN
F 1 "10uH" V 3547 1509 60  0000 R CNN
F 2 "INDC1608X06L" V 3494 1509 60  0001 R CNN
F 3 "" H 3450 1550 60  0000 C CNN
	1    3450 1550
	0    -1   -1   0   
$EndComp
$Comp
L IND L3
U 1 1 5C6B2823
P 3450 1150
F 0 "L3" V 3653 1109 60  0000 R CNN
F 1 "15nH" V 3547 1109 60  0000 R CNN
F 2 "INDC1005X04L" V 3494 1109 60  0001 R CNN
F 3 "" H 3450 1150 60  0000 C CNN
	1    3450 1150
	0    -1   -1   0   
$EndComp
$Comp
L CAP C9
U 1 1 5C6B2E8C
P 3650 1050
F 0 "C9" V 3747 1150 60  0000 L CNN
F 1 "CAP" V 3853 1150 60  0000 L CNN
F 2 "CAPC1005X04L" V 3906 1150 60  0001 L CNN
F 3 "" H 3650 1050 60  0000 C CNN
	1    3650 1050
	0    1    1    0   
$EndComp
$Comp
L CAP C5
U 1 1 5C6BA4AD
P 3000 4600
F 0 "C5" H 3150 4341 60  0000 C CNN
F 1 "100nF" H 3150 4447 60  0000 C CNN
F 2 "CAPC0603X03L" H 3150 4447 60  0001 C CNN
F 3 "" H 3000 4600 60  0000 C CNN
	1    3000 4600
	-1   0    0    1   
$EndComp
$Comp
L IND L1
U 1 1 5C6C2716
P 5850 3800
F 0 "L1" H 6000 4019 60  0000 C CNN
F 1 "3.3nH" H 6000 3913 60  0000 C CNN
F 2 "INDC0603X03L" H 6000 3913 60  0001 C CNN
F 3 "" H 5850 3800 60  0000 C CNN
	1    5850 3800
	1    0    0    -1  
$EndComp
$Comp
L CAP C3
U 1 1 5C6C27E8
P 5600 3950
F 0 "C3" V 5697 4050 60  0000 L CNN
F 1 "1pF" V 5803 4050 60  0000 L CNN
F 2 "CAPC0603X03L" V 5856 4050 60  0001 L CNN
F 3 "" H 5600 3950 60  0000 C CNN
	1    5600 3950
	0    1    1    0   
$EndComp
NoConn ~ 6400 3800
Text Label 6450 3800 0    50   ~ 0
RF
Text Notes 900  2150 0    50   ~ 0
Optional
$Comp
L ADXL372_SPI U2
U 1 1 5C6DD109
P 9200 2000
F 0 "U2" H 9200 2778 50  0000 C CNN
F 1 "ADXL372_SPI" H 9200 2687 50  0000 C CNN
F 2 "LGA-CC-16-4" H 8800 1300 50  0001 L CNN
F 3 "www.st.com/resource/en/datasheet/lsm303c.pdf" H 9300 1350 50  0001 C CNN
	1    9200 2000
	1    0    0    -1  
$EndComp
$Comp
L BMG250_SPI U3
U 1 1 5C6DD1E7
P 9200 5000
F 0 "U3" H 9200 5778 50  0000 C CNN
F 1 "BMG250_SPI" H 9200 5687 50  0000 C CNN
F 2 "Bosch_LGA-14_3x2.5mm_P0.5mm" H 8800 4300 50  0001 L CNN
F 3 "www.st.com/resource/en/datasheet/lsm303c.pdf" H 9300 4350 50  0001 C CNN
	1    9200 5000
	1    0    0    -1  
$EndComp
Text Label 9050 4150 1    50   ~ 0
VBAT
Text Label 9350 4150 1    50   ~ 0
VBAT
$Comp
L CAP C12
U 1 1 5C6EA8E1
P 8850 4200
F 0 "C12" H 9000 3941 60  0000 C CNN
F 1 "100nf" H 9000 4047 60  0000 C CNN
F 2 "CAPC0603X03L" H 9000 4047 60  0001 C CNN
F 3 "" H 8850 4200 60  0000 C CNN
	1    8850 4200
	-1   0    0    1   
$EndComp
$Comp
L CAP C14
U 1 1 5C6EA9A5
P 9550 4200
F 0 "C14" H 9700 4459 60  0000 C CNN
F 1 "100nf" H 9700 4353 60  0000 C CNN
F 2 "CAPC0603X03L" H 9700 4353 60  0001 C CNN
F 3 "" H 9550 4200 60  0000 C CNN
	1    9550 4200
	1    0    0    -1  
$EndComp
Text Label 9050 1150 1    50   ~ 0
VBAT
Text Label 9350 1150 1    50   ~ 0
VBAT
$Comp
L CAP C15
U 1 1 5C6F12A8
P 8850 1200
F 0 "C15" H 9000 941 60  0000 C CNN
F 1 "100nf" H 9000 1047 60  0000 C CNN
F 2 "CAPC0603X03L" H 9000 1047 60  0001 C CNN
F 3 "" H 8850 1200 60  0000 C CNN
	1    8850 1200
	-1   0    0    1   
$EndComp
$Comp
L CAP C13
U 1 1 5C6F12AF
P 9550 1200
F 0 "C13" H 9700 1459 60  0000 C CNN
F 1 "100nf" H 9700 1353 60  0000 C CNN
F 2 "CAPC0603X03L" H 9700 1353 60  0001 C CNN
F 3 "" H 9550 1200 60  0000 C CNN
	1    9550 1200
	1    0    0    -1  
$EndComp
Text Label 8150 2250 0    50   ~ 0
acc_int1
Text Label 8150 2100 0    50   ~ 0
acc_int2
Text Label 8150 5250 0    50   ~ 0
gyro_int1
Text Label 8150 5100 0    50   ~ 0
gyro_int2
Text Label 10000 1850 0    50   ~ 0
MOSI
Text Label 10000 2000 0    50   ~ 0
MISO
Text Label 10000 4850 0    50   ~ 0
MOSI
Text Label 10000 5000 0    50   ~ 0
MISO
Text Label 10000 5300 0    50   ~ 0
gyro_CSB
Text Label 9950 2300 0    50   ~ 0
acc_CSB
Text Label 10000 5150 0    50   ~ 0
SCLK
Text Label 10000 2150 0    50   ~ 0
SCLK
Text Label 3850 4750 1    50   ~ 0
gyro_CSB
Text Label 3950 4750 1    50   ~ 0
SCLK
Text Label 4150 4750 1    50   ~ 0
MOSI
Text Label 4450 4800 1    50   ~ 0
MISO
Text Label 3750 4800 1    50   ~ 0
gyro_int1
$Comp
L power_GND #PWR01
U 1 1 5C6B6A79
P 2300 4750
F 0 "#PWR01" H 2300 4500 50  0001 C CNN
F 1 "power_GND" H 2300 4600 50  0000 C CNN
F 2 "" H 2300 4750 50  0001 C CNN
F 3 "" H 2300 4750 50  0001 C CNN
	1    2300 4750
	1    0    0    -1  
$EndComp
$Comp
L nRF52832_BGA U1
U 1 1 5C6AE214
P 2850 4150
F 0 "U1" H 4650 6450 60  0000 L CNN
F 1 "nRF52832_BGA" H 4600 6350 60  0000 L CNN
F 2 "BGA50C40P7X8_295X322X50" H 2850 4150 60  0001 C CNN
F 3 "" H 2850 4150 60  0000 C CNN
	1    2850 4150
	1    0    0    -1  
$EndComp
$Comp
L power_GND #PWR02
U 1 1 5C6B852E
P 2300 1950
F 0 "#PWR02" H 2300 1700 50  0001 C CNN
F 1 "power_GND" H 2300 1800 50  0000 C CNN
F 2 "" H 2300 1950 50  0001 C CNN
F 3 "" H 2300 1950 50  0001 C CNN
	1    2300 1950
	1    0    0    -1  
$EndComp
$Comp
L power_GND #PWR03
U 1 1 5C6B8570
P 2750 1650
F 0 "#PWR03" H 2750 1400 50  0001 C CNN
F 1 "power_GND" H 2750 1500 50  0000 C CNN
F 2 "" H 2750 1650 50  0001 C CNN
F 3 "" H 2750 1650 50  0001 C CNN
	1    2750 1650
	1    0    0    -1  
$EndComp
$Comp
L power_GND #PWR04
U 1 1 5C6B8795
P 5600 4300
F 0 "#PWR04" H 5600 4050 50  0001 C CNN
F 1 "power_GND" H 5600 4150 50  0000 C CNN
F 2 "" H 5600 4300 50  0001 C CNN
F 3 "" H 5600 4300 50  0001 C CNN
	1    5600 4300
	1    0    0    -1  
$EndComp
$Comp
L power_GND #PWR05
U 1 1 5C6B8C55
P 5850 3300
F 0 "#PWR05" H 5850 3050 50  0001 C CNN
F 1 "power_GND" H 5850 3150 50  0000 C CNN
F 2 "" H 5850 3300 50  0001 C CNN
F 3 "" H 5850 3300 50  0001 C CNN
	1    5850 3300
	1    0    0    -1  
$EndComp
$Comp
L power_GND #PWR06
U 1 1 5C6B8D0A
P 6250 3300
F 0 "#PWR06" H 6250 3050 50  0001 C CNN
F 1 "power_GND" H 6250 3150 50  0000 C CNN
F 2 "" H 6250 3300 50  0001 C CNN
F 3 "" H 6250 3300 50  0001 C CNN
	1    6250 3300
	1    0    0    -1  
$EndComp
$Comp
L CAP C7
U 1 1 5C6B0F27
P 6250 2950
F 0 "C7" V 6347 3050 60  0000 L CNN
F 1 "100pF" V 6453 3050 60  0000 L CNN
F 2 "CAPC0603X03L" H 6250 2950 60  0001 C CNN
F 3 "" H 6250 2950 60  0000 C CNN
	1    6250 2950
	0    1    1    0   
$EndComp
$Comp
L power_GND #PWR07
U 1 1 5C6B9FFC
P 9000 2700
F 0 "#PWR07" H 9000 2450 50  0001 C CNN
F 1 "power_GND" H 9000 2550 50  0000 C CNN
F 2 "" H 9000 2700 50  0001 C CNN
F 3 "" H 9000 2700 50  0001 C CNN
	1    9000 2700
	1    0    0    -1  
$EndComp
$Comp
L power_GND #PWR08
U 1 1 5C6BA083
P 9200 2700
F 0 "#PWR08" H 9200 2450 50  0001 C CNN
F 1 "power_GND" H 9200 2550 50  0000 C CNN
F 2 "" H 9200 2700 50  0001 C CNN
F 3 "" H 9200 2700 50  0001 C CNN
	1    9200 2700
	1    0    0    -1  
$EndComp
$Comp
L power_GND #PWR09
U 1 1 5C6BA0C5
P 9400 2700
F 0 "#PWR09" H 9400 2450 50  0001 C CNN
F 1 "power_GND" H 9400 2550 50  0000 C CNN
F 2 "" H 9400 2700 50  0001 C CNN
F 3 "" H 9400 2700 50  0001 C CNN
	1    9400 2700
	1    0    0    -1  
$EndComp
$Comp
L power_GND #PWR010
U 1 1 5C6BA163
P 8450 1300
F 0 "#PWR010" H 8450 1050 50  0001 C CNN
F 1 "power_GND" H 8450 1150 50  0000 C CNN
F 2 "" H 8450 1300 50  0001 C CNN
F 3 "" H 8450 1300 50  0001 C CNN
	1    8450 1300
	1    0    0    -1  
$EndComp
$Comp
L power_GND #PWR011
U 1 1 5C6BA25D
P 9950 1300
F 0 "#PWR011" H 9950 1050 50  0001 C CNN
F 1 "power_GND" H 9950 1150 50  0000 C CNN
F 2 "" H 9950 1300 50  0001 C CNN
F 3 "" H 9950 1300 50  0001 C CNN
	1    9950 1300
	1    0    0    -1  
$EndComp
$Comp
L power_GND #PWR012
U 1 1 5C6BA553
P 8450 4300
F 0 "#PWR012" H 8450 4050 50  0001 C CNN
F 1 "power_GND" H 8450 4150 50  0000 C CNN
F 2 "" H 8450 4300 50  0001 C CNN
F 3 "" H 8450 4300 50  0001 C CNN
	1    8450 4300
	1    0    0    -1  
$EndComp
$Comp
L power_GND #PWR013
U 1 1 5C6BA595
P 9950 4300
F 0 "#PWR013" H 9950 4050 50  0001 C CNN
F 1 "power_GND" H 9950 4150 50  0000 C CNN
F 2 "" H 9950 4300 50  0001 C CNN
F 3 "" H 9950 4300 50  0001 C CNN
	1    9950 4300
	1    0    0    -1  
$EndComp
$Comp
L power_GND #PWR014
U 1 1 5C6BA6A6
P 9050 5700
F 0 "#PWR014" H 9050 5450 50  0001 C CNN
F 1 "power_GND" H 9050 5550 50  0000 C CNN
F 2 "" H 9050 5700 50  0001 C CNN
F 3 "" H 9050 5700 50  0001 C CNN
	1    9050 5700
	1    0    0    -1  
$EndComp
$Comp
L power_GND #PWR015
U 1 1 5C6BA6E8
P 9350 5700
F 0 "#PWR015" H 9350 5450 50  0001 C CNN
F 1 "power_GND" H 9350 5550 50  0000 C CNN
F 2 "" H 9350 5700 50  0001 C CNN
F 3 "" H 9350 5700 50  0001 C CNN
	1    9350 5700
	1    0    0    -1  
$EndComp
$Comp
L power_GND #PWR016
U 1 1 5C6BAAC9
P 1100 3200
F 0 "#PWR016" H 1100 2950 50  0001 C CNN
F 1 "power_GND" H 1100 3050 50  0000 C CNN
F 2 "" H 1100 3200 50  0001 C CNN
F 3 "" H 1100 3200 50  0001 C CNN
	1    1100 3200
	1    0    0    -1  
$EndComp
$Comp
L power_GND #PWR017
U 1 1 5C6BAD47
P 6700 2850
F 0 "#PWR017" H 6700 2600 50  0001 C CNN
F 1 "power_GND" H 6700 2700 50  0000 C CNN
F 2 "" H 6700 2850 50  0001 C CNN
F 3 "" H 6700 2850 50  0001 C CNN
	1    6700 2850
	1    0    0    -1  
$EndComp
$Comp
L power_GND #PWR018
U 1 1 5C6B7FF6
P 3900 1500
F 0 "#PWR018" H 3900 1250 50  0001 C CNN
F 1 "power_GND" H 3900 1350 50  0000 C CNN
F 2 "" H 3900 1500 50  0001 C CNN
F 3 "" H 3900 1500 50  0001 C CNN
	1    3900 1500
	1    0    0    -1  
$EndComp
Text Notes 3750 850  0    60   ~ 0
DC/DC
Text Notes 7250 850  0    100  ~ 0
Accelerometer
Text Notes 7200 3450 0    100  ~ 0
Gyroscope
Text Notes 6150 3950 0    60   ~ 0
Antenna  Conn\n(Zout=50 Ohm)
Text Notes 700  850  0    70   ~ 0
nrf52 - DCDC configuration with BGA package
$Comp
L CONN_2 P1
U 1 1 5C6D513D
P 10600 6600
F 0 "P1" V 10550 6600 40  0000 C CNN
F 1 "CONN_2" V 10650 6600 40  0000 C CNN
F 2 "PCONN" H 10600 6600 60  0000 C CNN
F 3 "" H 10600 6600 60  0000 C CNN
	1    10600 6600
	1    0    0    -1  
$EndComp
Text Label 9700 6500 0    60   ~ 0
VBAT
$Comp
L power_GND #PWR019
U 1 1 5C6D52F4
P 10150 6800
F 0 "#PWR019" H 10150 6550 50  0001 C CNN
F 1 "power_GND" H 10150 6650 50  0000 C CNN
F 2 "" H 10150 6800 50  0001 C CNN
F 3 "" H 10150 6800 50  0001 C CNN
	1    10150 6800
	1    0    0    -1  
$EndComp
Text Notes 7200 6350 0    100  ~ 0
Power Conn
Text Notes 7200 6600 0    60   ~ 0
Note: The battery wires will be \nwelded directly on power pads
Text Notes 800  5650 0    150  ~ 0
Notes:
$Comp
L R-RESCUE-austral_0v1 R1
U 1 1 5C6D9BF3
P 6600 5950
F 0 "R1" V 6680 5950 40  0000 C CNN
F 1 "1M" V 6607 5951 40  0000 C CNN
F 2 "R_0402" V 6530 5950 30  0000 C CNN
F 3 "~" H 6600 5950 30  0000 C CNN
	1    6600 5950
	1    0    0    1   
$EndComp
$Comp
L R-RESCUE-austral_0v1 R2
U 1 1 5C6D9C02
P 6600 6750
F 0 "R2" V 6680 6750 40  0000 C CNN
F 1 "1M" V 6607 6751 40  0000 C CNN
F 2 "R_0402" V 6530 6750 30  0000 C CNN
F 3 "~" H 6600 6750 30  0000 C CNN
	1    6600 6750
	1    0    0    -1  
$EndComp
$Comp
L power_GND #PWR020
U 1 1 5C6D9C26
P 6600 7200
F 0 "#PWR020" H 6600 6950 50  0001 C CNN
F 1 "power_GND" H 6600 7050 50  0000 C CNN
F 2 "" H 6600 7200 50  0001 C CNN
F 3 "" H 6600 7200 50  0001 C CNN
	1    6600 7200
	1    0    0    -1  
$EndComp
$Comp
L CAP C16
U 1 1 5C6D9C3F
P 6100 6600
F 0 "C16" V 6197 6700 60  0000 L CNN
F 1 "100nF" V 6303 6700 60  0000 L CNN
F 2 "CAPC0603X03L" V 6356 6700 60  0001 L CNN
F 3 "" H 6100 6600 60  0000 C CNN
	1    6100 6600
	0    1    1    0   
$EndComp
$Comp
L power_GND #PWR021
U 1 1 5C6D9C49
P 6100 7200
F 0 "#PWR021" H 6100 6950 50  0001 C CNN
F 1 "power_GND" H 6100 7050 50  0000 C CNN
F 2 "" H 6100 7200 50  0001 C CNN
F 3 "" H 6100 7200 50  0001 C CNN
	1    6100 7200
	1    0    0    -1  
$EndComp
Text Label 3550 4800 1    50   ~ 0
gyro_int2
Text Label 6200 6350 0    50   ~ 0
BAT_MON
Text Label 2200 3450 0    50   ~ 0
acc_CSB
Text Label 6600 5550 0    50   ~ 0
VBAT
Text Label 2200 3150 0    50   ~ 0
acc_int1
Text Label 2200 3250 0    50   ~ 0
acc_int2
Text Label 4050 1550 0    50   ~ 0
BAT_MON
$Comp
L CONN_6 J1
U 1 1 5C6EA307
P 5300 6450
F 0 "J1" V 5250 6450 60  0000 C CNN
F 1 "CONN_6" V 5350 6450 60  0000 C CNN
F 2 "nrf_prog" V 5500 6450 60  0000 C CNN
F 3 "" H 5300 6450 60  0000 C CNN
	1    5300 6450
	1    0    0    -1  
$EndComp
Text Label 4450 6200 0    60   ~ 0
VBAT
Text Label 4450 6300 0    60   ~ 0
SWDIO
Text Label 4450 6400 0    60   ~ 0
SWDCLK
$Comp
L power_GND #PWR022
U 1 1 5C6EACA3
P 4350 6700
F 0 "#PWR022" H 4350 6450 50  0001 C CNN
F 1 "power_GND" H 4350 6550 50  0000 C CNN
F 2 "" H 4350 6700 50  0001 C CNN
F 3 "" H 4350 6700 50  0001 C CNN
	1    4350 6700
	1    0    0    -1  
$EndComp
Text Label 5350 3550 0    60   ~ 0
SWDIO
Text Label 5300 3650 0    60   ~ 0
SWDCLK
Wire Wire Line
	3350 1750 3350 1200
Wire Wire Line
	3350 1200 2750 1200
Wire Wire Line
	2300 1500 2550 1500
Wire Wire Line
	2550 1500 2550 2550
Wire Wire Line
	1700 2700 1700 2650
Wire Wire Line
	1550 2650 2550 2650
Wire Wire Line
	1700 3000 1700 3100
Wire Wire Line
	1550 3100 2350 3100
Wire Wire Line
	2750 1200 2750 1250
Wire Wire Line
	2750 1550 2750 1650
Wire Wire Line
	2300 1850 2300 1950
Wire Wire Line
	2300 1500 2300 1550
Connection ~ 1700 2650
Wire Wire Line
	2550 2750 2350 2750
Connection ~ 1700 3100
Wire Wire Line
	1250 2650 1100 2650
Wire Wire Line
	1100 2650 1100 3200
Wire Wire Line
	1100 3100 1250 3100
Connection ~ 1100 3100
Wire Wire Line
	5250 2850 6250 2850
Wire Wire Line
	6250 2850 6250 2950
Wire Wire Line
	5850 2950 5250 2950
Wire Wire Line
	3450 1750 3450 1550
Wire Wire Line
	3450 1250 3450 1150
Wire Wire Line
	3450 850  3450 750 
Wire Wire Line
	3450 750  3650 750 
Wire Wire Line
	3650 750  3650 1100
Wire Wire Line
	3750 1750 3750 1450
Wire Wire Line
	3650 1450 3900 1450
Connection ~ 3650 1450
Wire Wire Line
	3650 1350 3650 1750
Wire Wire Line
	3550 750  3550 1750
Connection ~ 3550 750 
Wire Wire Line
	3900 1450 3900 1500
Connection ~ 3750 1450
Connection ~ 3650 1050
Wire Wire Line
	5650 2150 6150 2150
Wire Wire Line
	6000 2150 6000 2300
Wire Wire Line
	6000 2600 6000 2750
Wire Wire Line
	5250 2750 6150 2750
Connection ~ 6000 2750
Wire Wire Line
	5250 2650 5650 2650
Wire Wire Line
	5650 2650 5650 2150
Connection ~ 6000 2150
Wire Wire Line
	5850 3250 5850 3300
Wire Wire Line
	6250 3250 6250 3300
Wire Wire Line
	6450 2750 6700 2750
Wire Wire Line
	6450 2150 6700 2150
Wire Wire Line
	6700 2150 6700 2850
Connection ~ 6700 2750
Wire Wire Line
	3000 4600 3350 4600
Wire Wire Line
	3350 4600 3350 4450
Wire Wire Line
	2700 4600 2300 4600
Wire Wire Line
	2300 3950 2300 4750
Wire Wire Line
	2300 3950 2550 3950
Connection ~ 2300 4600
Wire Wire Line
	2550 3850 2450 3850
Wire Wire Line
	2450 3850 2450 3950
Connection ~ 2450 3950
Wire Wire Line
	2350 2750 2350 3100
Wire Wire Line
	5600 4250 5600 4300
Wire Wire Line
	5600 3800 5600 3950
Wire Wire Line
	5600 3800 5850 3800
Wire Wire Line
	6150 3800 6850 3800
Wire Wire Line
	5250 3150 5600 3150
Connection ~ 5600 3800
Wire Wire Line
	5400 3050 5250 3050
Wire Notes Line
	800  2000 800  3650
Wire Notes Line
	800  3650 2150 3650
Wire Notes Line
	2150 3650 2150 2000
Wire Notes Line
	2150 2000 800  2000
Wire Notes Line
	600  600  600  5150
Wire Notes Line
	600  5150 6900 5150
Wire Notes Line
	6900 5150 6900 600 
Wire Notes Line
	6900 600  600  600 
Wire Wire Line
	9050 3950 9050 4400
Wire Wire Line
	9350 3950 9350 4400
Wire Wire Line
	9000 2600 9000 2700
Wire Wire Line
	9200 2600 9200 2700
Wire Wire Line
	9400 2600 9400 2700
Wire Wire Line
	9050 5600 9050 5700
Wire Wire Line
	9350 5600 9350 5700
Wire Wire Line
	9900 5300 10250 5300
Wire Wire Line
	8550 4200 8450 4200
Wire Wire Line
	8450 4200 8450 4300
Wire Wire Line
	9050 4200 8850 4200
Connection ~ 9050 4200
Wire Wire Line
	9350 4200 9550 4200
Connection ~ 9350 4200
Wire Wire Line
	9850 4200 9950 4200
Wire Wire Line
	9950 4200 9950 4300
Wire Wire Line
	9050 950  9050 1400
Wire Wire Line
	9350 950  9350 1400
Wire Wire Line
	8550 1200 8450 1200
Wire Wire Line
	8450 1200 8450 1300
Wire Wire Line
	9050 1200 8850 1200
Connection ~ 9050 1200
Wire Wire Line
	9350 1200 9550 1200
Connection ~ 9350 1200
Wire Wire Line
	9850 1200 9950 1200
Wire Wire Line
	9950 1200 9950 1300
Wire Wire Line
	9900 1850 10250 1850
Wire Wire Line
	9900 2000 10250 2000
Wire Wire Line
	9900 4850 10250 4850
Wire Wire Line
	9900 5000 10250 5000
Wire Wire Line
	9900 5150 10250 5150
Wire Wire Line
	9900 2150 10250 2150
Wire Wire Line
	9900 2300 10250 2300
Wire Wire Line
	8050 2100 8500 2100
Wire Wire Line
	8050 2250 8500 2250
Wire Wire Line
	8050 5100 8500 5100
Wire Wire Line
	8050 5250 8500 5250
Wire Wire Line
	3850 4450 3850 4850
Wire Wire Line
	3950 4450 3950 4850
Wire Wire Line
	4150 4450 4150 4850
Wire Wire Line
	4450 4450 4450 4850
Wire Wire Line
	3750 4450 3750 4850
Wire Notes Line
	7100 600  7100 5150
Wire Notes Line
	11000 6000 7100 6000
Wire Notes Line
	11000 600  11000 6000
Wire Notes Line
	11000 600  7100 600 
Wire Notes Line
	3300 700  3300 1650
Wire Notes Line
	3300 1650 4100 1650
Wire Notes Line
	4100 1650 4100 700 
Wire Notes Line
	4100 700  3300 700 
Wire Notes Line
	7100 6000 7100 5000
Wire Notes Line
	7100 3200 11000 3200
Wire Wire Line
	10250 6500 9050 6500
Wire Notes Line
	7100 6150 7100 7100
Wire Notes Line
	7100 7100 11050 7100
Wire Notes Line
	11000 7100 11000 6150
Wire Notes Line
	11000 6150 7100 6150
Wire Wire Line
	10250 6700 10150 6700
Wire Wire Line
	10150 6700 10150 6800
Wire Wire Line
	6600 6200 6600 6500
Wire Wire Line
	6600 7000 6600 7200
Wire Wire Line
	6100 7200 6100 6900
Wire Wire Line
	6100 6600 6100 6350
Wire Wire Line
	6100 6350 6600 6350
Connection ~ 6600 6350
Wire Wire Line
	3550 4450 3550 4850
Wire Wire Line
	2550 3450 2200 3450
Wire Notes Line
	5800 5300 5800 7500
Wire Notes Line
	5800 7500 6900 7500
Wire Notes Line
	6900 7500 6900 5300
Wire Notes Line
	6900 5300 5800 5300
Wire Wire Line
	6600 5700 6600 5400
Wire Wire Line
	2550 3150 2200 3150
Wire Wire Line
	2550 3250 2200 3250
Wire Wire Line
	4050 1400 4050 1750
Wire Wire Line
	4950 6200 4300 6200
Wire Wire Line
	4950 6300 4300 6300
Wire Wire Line
	4950 6400 4300 6400
Wire Notes Line
	5650 5300 5650 7500
Wire Notes Line
	5650 7500 4050 7500
Wire Notes Line
	4050 7500 4050 5300
Wire Notes Line
	4050 5300 5650 5300
Wire Wire Line
	4950 6500 4350 6500
Wire Wire Line
	4350 6500 4350 6700
Wire Wire Line
	4950 6600 4350 6600
Connection ~ 4350 6600
Wire Wire Line
	5600 3150 5600 3850
Connection ~ 5600 3850
Wire Wire Line
	5250 3550 5550 3550
Wire Wire Line
	5250 3650 5550 3650
$EndSCHEMATC
