EESchema Schematic File Version 2
LIBS:power
LIBS:device
LIBS:transistors
LIBS:conn
LIBS:linear
LIBS:regul
LIBS:74xx
LIBS:cmos4000
LIBS:adc-dac
LIBS:memory
LIBS:xilinx
LIBS:microcontrollers
LIBS:dsp
LIBS:microchip
LIBS:analog_switches
LIBS:motorola
LIBS:texas
LIBS:intel
LIBS:audio
LIBS:interface
LIBS:digital-audio
LIBS:philips
LIBS:display
LIBS:cypress
LIBS:siliconi
LIBS:opto
LIBS:atmel
LIBS:contrib
LIBS:valves
LIBS:fiducial
LIBS:austral_transmitter_0v1-cache
EELAYER 27 0
EELAYER END
$Descr A4 11693 8268
encoding utf-8
Sheet 1 1
Title ""
Date "13 mar 2019"
Rev ""
Comp ""
Comment1 ""
Comment2 ""
Comment3 ""
Comment4 ""
$EndDescr
$Comp
L XTAL_2-pin X2
U 1 1 5C6AE318
P 1700 2700
F 0 "X2" V 1797 2810 60  0000 L CNN
F 1 "32kHz" V 1903 2810 60  0000 L CNN
F 2 "XTAL_2012" H 1700 2700 60  0001 C CNN
F 3 "" H 1700 2700 60  0000 C CNN
	1    1700 2700
	0    1    1    0   
$EndComp
$Comp
L XTAL_4-pin_grounded X1
U 1 1 5C6AE3BB
P 5790 2060
F 0 "X1" V 5993 2170 60  0000 L CNN
F 1 "32MHz" V 5840 2110 60  0000 L CNN
F 2 "XTAL_2016" H 5790 2060 60  0001 C CNN
F 3 "" H 5790 2060 60  0000 C CNN
	1    5790 2060
	0    -1   -1   0   
$EndComp
$Comp
L CAP C10
U 1 1 5C6AE9BE
P 1250 2650
F 0 "C10" H 1400 2909 60  0000 C CNN
F 1 "12pF" H 1400 2803 60  0000 C CNN
F 2 "C_0201_0603Metric" H 1250 2650 60  0001 C CNN
F 3 "" H 1250 2650 60  0000 C CNN
	1    1250 2650
	1    0    0    -1  
$EndComp
$Comp
L CAP C11
U 1 1 5C6AEA27
P 1250 3100
F 0 "C11" H 1400 3359 60  0000 C CNN
F 1 "12pF" H 1400 3253 60  0000 C CNN
F 2 "C_0201_0603Metric" H 1250 3100 60  0001 C CNN
F 3 "" H 1250 3100 60  0000 C CNN
	1    1250 3100
	1    0    0    -1  
$EndComp
$Comp
L CAP C4
U 1 1 5C6AEB17
P 2300 1550
F 0 "C4" V 2397 1650 60  0000 L CNN
F 1 "100nF" V 2503 1650 60  0000 L CNN
F 2 "C_0201_0603Metric" H 2300 1550 60  0001 C CNN
F 3 "" H 2300 1550 60  0000 C CNN
	1    2300 1550
	0    1    1    0   
$EndComp
$Comp
L CAP C8
U 1 1 5C6AEC36
P 2750 1250
F 0 "C8" V 2847 1350 60  0000 L CNN
F 1 "4.7uF" V 2953 1350 60  0000 L CNN
F 2 "C_0603_1608Metric" H 2750 1250 60  0001 C CNN
F 3 "" H 2750 1250 60  0000 C CNN
	1    2750 1250
	0    1    1    0   
$EndComp
$Comp
L CAP C2
U 1 1 5C6B0DB1
P 5970 1560
F 0 "C2" H 6120 1819 60  0000 C CNN
F 1 "12pF" H 6120 1713 60  0000 C CNN
F 2 "C_0201_0603Metric" H 5970 1560 60  0001 C CNN
F 3 "" H 5970 1560 60  0000 C CNN
	1    5970 1560
	1    0    0    -1  
$EndComp
$Comp
L CAP C1
U 1 1 5C6B0E6C
P 5955 2190
F 0 "C1" H 6105 2449 60  0000 C CNN
F 1 "12pF" H 6105 2343 60  0000 C CNN
F 2 "C_0201_0603Metric" H 5955 2190 60  0001 C CNN
F 3 "" H 5955 2190 60  0000 C CNN
	1    5955 2190
	1    0    0    -1  
$EndComp
$Comp
L CAP C6
U 1 1 5C6B10BC
P 5710 2950
F 0 "C6" V 5780 2985 60  0000 L CNN
F 1 "100pF" V 5950 2970 60  0000 L CNN
F 2 "C_0201_0603Metric" H 5710 2950 60  0001 C CNN
F 3 "" H 5710 2950 60  0000 C CNN
	1    5710 2950
	0    1    1    0   
$EndComp
$Comp
L IND L2
U 1 1 5C6B2666
P 3450 1550
F 0 "L2" V 3653 1509 60  0000 R CNN
F 1 "10uH" V 3547 1509 60  0000 R CNN
F 2 "L_0603_1608Metric" V 3494 1509 60  0001 R CNN
F 3 "" H 3450 1550 60  0000 C CNN
	1    3450 1550
	0    -1   -1   0   
$EndComp
$Comp
L IND L3
U 1 1 5C6B2823
P 3450 1150
F 0 "L3" V 3653 1109 60  0000 R CNN
F 1 "15nH" V 3547 1109 60  0000 R CNN
F 2 "L_0402_1005Metric" V 3494 1109 60  0001 R CNN
F 3 "" H 3450 1150 60  0000 C CNN
	1    3450 1150
	0    -1   -1   0   
$EndComp
$Comp
L CAP C9
U 1 1 5C6B2E8C
P 3650 1050
F 0 "C9" V 3747 1150 60  0000 L CNN
F 1 "CAP" V 3853 1150 60  0000 L CNN
F 2 "C_0402_1005Metric" V 3906 1150 60  0001 L CNN
F 3 "" H 3650 1050 60  0000 C CNN
	1    3650 1050
	0    1    1    0   
$EndComp
$Comp
L CAP C5
U 1 1 5C6BA4AD
P 3000 4600
F 0 "C5" H 3150 4341 60  0000 C CNN
F 1 "100nF" H 3150 4447 60  0000 C CNN
F 2 "C_0201_0603Metric" H 3150 4447 60  0001 C CNN
F 3 "" H 3000 4600 60  0000 C CNN
	1    3000 4600
	-1   0    0    1   
$EndComp
$Comp
L IND L1
U 1 1 5C6C2716
P 5700 4400
F 0 "L1" H 5850 4619 60  0000 C CNN
F 1 "3.3nH" H 5850 4513 60  0000 C CNN
F 2 "L_0402_1005Metric" H 5850 4513 60  0001 C CNN
F 3 "" H 5700 4400 60  0000 C CNN
	1    5700 4400
	1    0    0    -1  
$EndComp
$Comp
L CAP C3
U 1 1 5C6C27E8
P 5600 4550
F 0 "C3" V 5697 4650 60  0000 L CNN
F 1 "1pF" V 5803 4650 60  0000 L CNN
F 2 "C_0402_1005Metric" V 5856 4650 60  0001 L CNN
F 3 "" H 5600 4550 60  0000 C CNN
	1    5600 4550
	0    1    1    0   
$EndComp
Text Notes 900  2150 0    50   ~ 0
Optional
$Comp
L ADXL372_SPI U2
U 1 1 5C6DD109
P 9235 1870
F 0 "U2" H 9235 2648 50  0000 C CNN
F 1 "ADXL372_SPI" H 9235 2557 50  0000 C CNN
F 2 "LGA-CC-16-4" H 8835 1170 50  0001 L CNN
F 3 "www.st.com/resource/en/datasheet/lsm303c.pdf" H 9335 1220 50  0001 C CNN
	1    9235 1870
	1    0    0    -1  
$EndComp
$Comp
L BMG250_SPI U3
U 1 1 5C6DD1E7
P 9225 4220
F 0 "U3" H 9225 4998 50  0000 C CNN
F 1 "BMG250_SPI" H 9225 4907 50  0000 C CNN
F 2 "Bosch_LGA-14_3x2.5mm_P0.5mm" H 8825 3520 50  0001 L CNN
F 3 "www.st.com/resource/en/datasheet/lsm303c.pdf" H 9325 3570 50  0001 C CNN
	1    9225 4220
	1    0    0    -1  
$EndComp
Text Label 9075 3370 1    50   ~ 0
VBAT
Text Label 9375 3370 1    50   ~ 0
VBAT
$Comp
L CAP C12
U 1 1 5C6EA8E1
P 8875 3420
F 0 "C12" H 9025 3161 60  0000 C CNN
F 1 "100nf" H 9025 3267 60  0000 C CNN
F 2 "C_0201_0603Metric" H 9025 3267 60  0001 C CNN
F 3 "" H 8875 3420 60  0000 C CNN
	1    8875 3420
	-1   0    0    1   
$EndComp
$Comp
L CAP C14
U 1 1 5C6EA9A5
P 9575 3420
F 0 "C14" H 9725 3679 60  0000 C CNN
F 1 "100nf" H 9725 3573 60  0000 C CNN
F 2 "C_0201_0603Metric" H 9725 3573 60  0001 C CNN
F 3 "" H 9575 3420 60  0000 C CNN
	1    9575 3420
	1    0    0    -1  
$EndComp
Text Label 9085 1020 1    50   ~ 0
VBAT
Text Label 9385 1020 1    50   ~ 0
VBAT
$Comp
L CAP C15
U 1 1 5C6F12A8
P 8885 1070
F 0 "C15" H 9035 811 60  0000 C CNN
F 1 "100nf" H 9035 917 60  0000 C CNN
F 2 "C_0201_0603Metric" H 9035 917 60  0001 C CNN
F 3 "" H 8885 1070 60  0000 C CNN
	1    8885 1070
	-1   0    0    1   
$EndComp
$Comp
L CAP C13
U 1 1 5C6F12AF
P 9585 1070
F 0 "C13" H 9735 1329 60  0000 C CNN
F 1 "100nf" H 9735 1223 60  0000 C CNN
F 2 "C_0201_0603Metric" H 9735 1223 60  0001 C CNN
F 3 "" H 9585 1070 60  0000 C CNN
	1    9585 1070
	1    0    0    -1  
$EndComp
Text Label 8185 2120 0    50   ~ 0
acc_int1
Text Label 8185 1970 0    50   ~ 0
acc_int2
Text Label 8175 4470 0    50   ~ 0
gyro_int1
Text Label 8175 4320 0    50   ~ 0
gyro_int2
Text Label 10035 1720 0    50   ~ 0
MOSI
Text Label 10035 1870 0    50   ~ 0
MISO
Text Label 10025 4070 0    50   ~ 0
MOSI
Text Label 10025 4220 0    50   ~ 0
MISO
Text Label 10025 4520 0    50   ~ 0
gyro_CSB
Text Label 9985 2170 0    50   ~ 0
acc_CSB
Text Label 10025 4370 0    50   ~ 0
SCLK
Text Label 10035 2020 0    50   ~ 0
SCLK
Text Label 3850 4750 1    50   ~ 0
gyro_CSB
Text Label 3950 4750 1    50   ~ 0
SCLK
Text Label 4150 4750 1    50   ~ 0
MOSI
Text Label 4450 4800 1    50   ~ 0
MISO
Text Label 3750 4800 1    50   ~ 0
gyro_int1
$Comp
L power_GND #PWR01
U 1 1 5C6B6A79
P 2300 4750
F 0 "#PWR01" H 2300 4500 50  0001 C CNN
F 1 "power_GND" H 2300 4600 50  0000 C CNN
F 2 "" H 2300 4750 50  0001 C CNN
F 3 "" H 2300 4750 50  0001 C CNN
	1    2300 4750
	1    0    0    -1  
$EndComp
$Comp
L nRF52832_BGA U1
U 1 1 5C6AE214
P 2850 4150
F 0 "U1" H 4650 6450 60  0000 L CNN
F 1 "nRF52832_BGA" H 4600 6350 60  0000 L CNN
F 2 "BGA50C40P7X8_295X322X50" H 2850 4150 60  0001 C CNN
F 3 "" H 2850 4150 60  0000 C CNN
	1    2850 4150
	1    0    0    -1  
$EndComp
$Comp
L power_GND #PWR02
U 1 1 5C6B852E
P 2300 1950
F 0 "#PWR02" H 2300 1700 50  0001 C CNN
F 1 "power_GND" H 2300 1800 50  0000 C CNN
F 2 "" H 2300 1950 50  0001 C CNN
F 3 "" H 2300 1950 50  0001 C CNN
	1    2300 1950
	1    0    0    -1  
$EndComp
$Comp
L power_GND #PWR03
U 1 1 5C6B8570
P 2750 1650
F 0 "#PWR03" H 2750 1400 50  0001 C CNN
F 1 "power_GND" H 2750 1500 50  0000 C CNN
F 2 "" H 2750 1650 50  0001 C CNN
F 3 "" H 2750 1650 50  0001 C CNN
	1    2750 1650
	1    0    0    -1  
$EndComp
$Comp
L power_GND #PWR04
U 1 1 5C6B8795
P 5600 4900
F 0 "#PWR04" H 5600 4650 50  0001 C CNN
F 1 "power_GND" H 5600 4750 50  0000 C CNN
F 2 "" H 5600 4900 50  0001 C CNN
F 3 "" H 5600 4900 50  0001 C CNN
	1    5600 4900
	1    0    0    -1  
$EndComp
$Comp
L power_GND #PWR05
U 1 1 5C6B8C55
P 5710 3275
F 0 "#PWR05" H 5710 3025 50  0001 C CNN
F 1 "power_GND" H 5710 3125 50  0000 C CNN
F 2 "" H 5710 3275 50  0001 C CNN
F 3 "" H 5710 3275 50  0001 C CNN
	1    5710 3275
	1    0    0    -1  
$EndComp
$Comp
L power_GND #PWR06
U 1 1 5C6B8D0A
P 6075 3285
F 0 "#PWR06" H 6075 3035 50  0001 C CNN
F 1 "power_GND" H 6075 3135 50  0000 C CNN
F 2 "" H 6075 3285 50  0001 C CNN
F 3 "" H 6075 3285 50  0001 C CNN
	1    6075 3285
	1    0    0    -1  
$EndComp
$Comp
L CAP C7
U 1 1 5C6B0F27
P 6075 2950
F 0 "C7" V 6140 2970 60  0000 L CNN
F 1 "100pF" V 6310 2975 60  0000 L CNN
F 2 "C_0201_0603Metric" H 6075 2950 60  0001 C CNN
F 3 "" H 6075 2950 60  0000 C CNN
	1    6075 2950
	0    1    1    0   
$EndComp
$Comp
L power_GND #PWR07
U 1 1 5C6B9FFC
P 9035 2570
F 0 "#PWR07" H 9035 2320 50  0001 C CNN
F 1 "power_GND" H 9035 2420 50  0000 C CNN
F 2 "" H 9035 2570 50  0001 C CNN
F 3 "" H 9035 2570 50  0001 C CNN
	1    9035 2570
	1    0    0    -1  
$EndComp
$Comp
L power_GND #PWR08
U 1 1 5C6BA083
P 9235 2570
F 0 "#PWR08" H 9235 2320 50  0001 C CNN
F 1 "power_GND" H 9235 2420 50  0000 C CNN
F 2 "" H 9235 2570 50  0001 C CNN
F 3 "" H 9235 2570 50  0001 C CNN
	1    9235 2570
	1    0    0    -1  
$EndComp
$Comp
L power_GND #PWR09
U 1 1 5C6BA0C5
P 9435 2570
F 0 "#PWR09" H 9435 2320 50  0001 C CNN
F 1 "power_GND" H 9435 2420 50  0000 C CNN
F 2 "" H 9435 2570 50  0001 C CNN
F 3 "" H 9435 2570 50  0001 C CNN
	1    9435 2570
	1    0    0    -1  
$EndComp
$Comp
L power_GND #PWR010
U 1 1 5C6BA163
P 8485 1170
F 0 "#PWR010" H 8485 920 50  0001 C CNN
F 1 "power_GND" H 8485 1020 50  0000 C CNN
F 2 "" H 8485 1170 50  0001 C CNN
F 3 "" H 8485 1170 50  0001 C CNN
	1    8485 1170
	1    0    0    -1  
$EndComp
$Comp
L power_GND #PWR011
U 1 1 5C6BA25D
P 9985 1170
F 0 "#PWR011" H 9985 920 50  0001 C CNN
F 1 "power_GND" H 9985 1020 50  0000 C CNN
F 2 "" H 9985 1170 50  0001 C CNN
F 3 "" H 9985 1170 50  0001 C CNN
	1    9985 1170
	1    0    0    -1  
$EndComp
$Comp
L power_GND #PWR012
U 1 1 5C6BA553
P 8475 3520
F 0 "#PWR012" H 8475 3270 50  0001 C CNN
F 1 "power_GND" H 8475 3370 50  0000 C CNN
F 2 "" H 8475 3520 50  0001 C CNN
F 3 "" H 8475 3520 50  0001 C CNN
	1    8475 3520
	1    0    0    -1  
$EndComp
$Comp
L power_GND #PWR013
U 1 1 5C6BA595
P 9975 3520
F 0 "#PWR013" H 9975 3270 50  0001 C CNN
F 1 "power_GND" H 9975 3370 50  0000 C CNN
F 2 "" H 9975 3520 50  0001 C CNN
F 3 "" H 9975 3520 50  0001 C CNN
	1    9975 3520
	1    0    0    -1  
$EndComp
$Comp
L power_GND #PWR014
U 1 1 5C6BA6A6
P 9075 4920
F 0 "#PWR014" H 9075 4670 50  0001 C CNN
F 1 "power_GND" H 9075 4770 50  0000 C CNN
F 2 "" H 9075 4920 50  0001 C CNN
F 3 "" H 9075 4920 50  0001 C CNN
	1    9075 4920
	1    0    0    -1  
$EndComp
$Comp
L power_GND #PWR015
U 1 1 5C6BA6E8
P 9375 4920
F 0 "#PWR015" H 9375 4670 50  0001 C CNN
F 1 "power_GND" H 9375 4770 50  0000 C CNN
F 2 "" H 9375 4920 50  0001 C CNN
F 3 "" H 9375 4920 50  0001 C CNN
	1    9375 4920
	1    0    0    -1  
$EndComp
$Comp
L power_GND #PWR016
U 1 1 5C6BAAC9
P 1100 3200
F 0 "#PWR016" H 1100 2950 50  0001 C CNN
F 1 "power_GND" H 1100 3050 50  0000 C CNN
F 2 "" H 1100 3200 50  0001 C CNN
F 3 "" H 1100 3200 50  0001 C CNN
	1    1100 3200
	1    0    0    -1  
$EndComp
$Comp
L power_GND #PWR017
U 1 1 5C6BAD47
P 6480 2285
F 0 "#PWR017" H 6480 2035 50  0001 C CNN
F 1 "power_GND" H 6480 2135 50  0000 C CNN
F 2 "" H 6480 2285 50  0001 C CNN
F 3 "" H 6480 2285 50  0001 C CNN
	1    6480 2285
	1    0    0    -1  
$EndComp
$Comp
L power_GND #PWR018
U 1 1 5C6B7FF6
P 3900 1500
F 0 "#PWR018" H 3900 1250 50  0001 C CNN
F 1 "power_GND" H 3900 1350 50  0000 C CNN
F 2 "" H 3900 1500 50  0001 C CNN
F 3 "" H 3900 1500 50  0001 C CNN
	1    3900 1500
	1    0    0    -1  
$EndComp
Text Notes 3750 850  0    60   ~ 0
DC/DC
Text Notes 7525 775  0    100  ~ 0
Accelerometer
Text Notes 7530 3050 0    100  ~ 0
Gyroscope
Text Notes 6150 5100 0    60   ~ 0
Antenna  Conn\n(Zout=50 Ohm)
Text Notes 700  850  0    70   ~ 0
nrf52 - DCDC configuration with BGA package
$Comp
L CONN_2 P1
U 1 1 5C6D513D
P 9895 6350
F 0 "P1" V 9845 6350 40  0000 C CNN
F 1 "CONN_2" V 9945 6350 40  0000 C CNN
F 2 "PCONN" H 9895 6350 60  0000 C CNN
F 3 "" H 9895 6350 60  0000 C CNN
	1    9895 6350
	1    0    0    -1  
$EndComp
Text Label 8995 6250 0    60   ~ 0
VBAT
$Comp
L power_GND #PWR019
U 1 1 5C6D52F4
P 9445 6550
F 0 "#PWR019" H 9445 6300 50  0001 C CNN
F 1 "power_GND" H 9445 6400 50  0000 C CNN
F 2 "" H 9445 6550 50  0001 C CNN
F 3 "" H 9445 6550 50  0001 C CNN
	1    9445 6550
	1    0    0    -1  
$EndComp
Text Notes 7660 5530 0    100  ~ 0
Power Conn
Text Notes 9080 5660 0    60   ~ 0
Note: The battery wires will be \nwelded directly on power pads
$Comp
L R R1
U 1 1 5C6D9BF3
P 6935 6030
F 0 "R1" V 7015 6030 40  0000 C CNN
F 1 "1M" V 6942 6031 40  0000 C CNN
F 2 "R_0402_1005Metric" V 6865 6030 30  0000 C CNN
F 3 "~" H 6935 6030 30  0000 C CNN
	1    6935 6030
	1    0    0    1   
$EndComp
$Comp
L R R2
U 1 1 5C6D9C02
P 6935 6595
F 0 "R2" V 7015 6595 40  0000 C CNN
F 1 "1M" V 6942 6596 40  0000 C CNN
F 2 "R_0402_1005Metric" V 6865 6595 30  0000 C CNN
F 3 "~" H 6935 6595 30  0000 C CNN
	1    6935 6595
	1    0    0    -1  
$EndComp
$Comp
L power_GND #PWR020
U 1 1 5C6D9C26
P 6935 6875
F 0 "#PWR020" H 6935 6625 50  0001 C CNN
F 1 "power_GND" H 6935 6725 50  0000 C CNN
F 2 "" H 6935 6875 50  0001 C CNN
F 3 "" H 6935 6875 50  0001 C CNN
	1    6935 6875
	1    0    0    -1  
$EndComp
$Comp
L CAP C16
U 1 1 5C6D9C3F
P 6265 6440
F 0 "C16" V 6362 6540 60  0000 L CNN
F 1 "100nF" V 6468 6540 60  0000 L CNN
F 2 "C_0201_0603Metric" V 6521 6540 60  0001 L CNN
F 3 "" H 6265 6440 60  0000 C CNN
	1    6265 6440
	0    1    1    0   
$EndComp
$Comp
L power_GND #PWR021
U 1 1 5C6D9C49
P 6265 6800
F 0 "#PWR021" H 6265 6550 50  0001 C CNN
F 1 "power_GND" H 6265 6650 50  0000 C CNN
F 2 "" H 6265 6800 50  0001 C CNN
F 3 "" H 6265 6800 50  0001 C CNN
	1    6265 6800
	1    0    0    -1  
$EndComp
Text Label 3550 4800 1    50   ~ 0
gyro_int2
Text Label 6535 6310 0    50   ~ 0
BAT_MON
Text Label 2200 3450 0    50   ~ 0
acc_CSB
Text Label 6935 5630 0    50   ~ 0
VBAT
Text Label 2200 3150 0    50   ~ 0
acc_int1
Text Label 2200 3250 0    50   ~ 0
acc_int2
Text Label 4050 1550 0    50   ~ 0
BAT_MON
$Comp
L CONN_6 J1
U 1 1 5C6EA307
P 5425 6445
F 0 "J1" V 5375 6445 60  0000 C CNN
F 1 "CONN_6" V 5475 6445 60  0000 C CNN
F 2 "nrf_prog" V 5625 6445 60  0000 C CNN
F 3 "" H 5425 6445 60  0000 C CNN
	1    5425 6445
	1    0    0    -1  
$EndComp
Text Label 4575 6195 0    60   ~ 0
VBAT
Text Label 4575 6295 0    60   ~ 0
SWDIO
Text Label 4575 6395 0    60   ~ 0
SWDCLK
$Comp
L power_GND #PWR022
U 1 1 5C6EACA3
P 4475 6695
F 0 "#PWR022" H 4475 6445 50  0001 C CNN
F 1 "power_GND" H 4475 6545 50  0000 C CNN
F 2 "" H 4475 6695 50  0001 C CNN
F 3 "" H 4475 6695 50  0001 C CNN
	1    4475 6695
	1    0    0    -1  
$EndComp
Text Label 5250 3550 0    60   ~ 0
SWDIO
Text Label 5250 3650 0    60   ~ 0
SWDCLK
Text Label 3050 1200 0    60   ~ 0
VBAT
$Comp
L R R_1
U 1 1 5C758ACC
P 1100 6000
F 0 "R_1" V 1180 6000 40  0000 C CNN
F 1 "1M" V 1107 6001 40  0000 C CNN
F 2 "R_0201_0603Metric" V 1030 6000 30  0000 C CNN
F 3 "~" H 1100 6000 30  0000 C CNN
	1    1100 6000
	1    0    0    1   
$EndComp
$Comp
L R R3
U 1 1 5C758AD2
P 1100 6800
F 0 "R3" V 1180 6800 40  0000 C CNN
F 1 "1M" V 1107 6801 40  0000 C CNN
F 2 "R_0402_1005Metric" V 1030 6800 30  0000 C CNN
F 3 "~" H 1100 6800 30  0000 C CNN
	1    1100 6800
	1    0    0    -1  
$EndComp
$Comp
L power_GND #PWR023
U 1 1 5C758AD8
P 1100 7250
F 0 "#PWR023" H 1100 7000 50  0001 C CNN
F 1 "power_GND" H 1100 7100 50  0000 C CNN
F 2 "" H 1100 7250 50  0001 C CNN
F 3 "" H 1100 7250 50  0001 C CNN
	1    1100 7250
	1    0    0    -1  
$EndComp
$Comp
L CAP C18
U 1 1 5C758ADE
P 750 6650
F 0 "C18" V 847 6750 60  0000 L CNN
F 1 "100nF" V 953 6750 60  0000 L CNN
F 2 "C_0201_0603Metric" V 1006 6750 60  0001 L CNN
F 3 "" H 750 6650 60  0000 C CNN
	1    750  6650
	0    1    1    0   
$EndComp
Text Label 1100 5600 0    50   ~ 0
VBAT
$Comp
L R R_2
U 1 1 5C758AF4
P 1300 6000
F 0 "R_2" V 1380 6000 40  0000 C CNN
F 1 "1M" V 1307 6001 40  0000 C CNN
F 2 "R_0201_0603Metric" V 1230 6000 30  0000 C CNN
F 3 "~" H 1300 6000 30  0000 C CNN
	1    1300 6000
	1    0    0    1   
$EndComp
$Comp
L R R_3
U 1 1 5C758AFA
P 1500 6000
F 0 "R_3" V 1580 6000 40  0000 C CNN
F 1 "1M" V 1507 6001 40  0000 C CNN
F 2 "R_0201_0603Metric" V 1430 6000 30  0000 C CNN
F 3 "~" H 1500 6000 30  0000 C CNN
	1    1500 6000
	1    0    0    1   
$EndComp
$Comp
L R R_4
U 1 1 5C758B00
P 1700 6000
F 0 "R_4" V 1780 6000 40  0000 C CNN
F 1 "1M" V 1707 6001 40  0000 C CNN
F 2 "R_0201_0603Metric" V 1630 6000 30  0000 C CNN
F 3 "~" H 1700 6000 30  0000 C CNN
	1    1700 6000
	1    0    0    1   
$EndComp
$Comp
L R R_5
U 1 1 5C758B06
P 1900 6000
F 0 "R_5" V 1980 6000 40  0000 C CNN
F 1 "1M" V 1907 6001 40  0000 C CNN
F 2 "R_0201_0603Metric" V 1830 6000 30  0000 C CNN
F 3 "~" H 1900 6000 30  0000 C CNN
	1    1900 6000
	1    0    0    1   
$EndComp
$Comp
L R R_6
U 1 1 5C758B0C
P 2100 6000
F 0 "R_6" V 2180 6000 40  0000 C CNN
F 1 "1M" V 2107 6001 40  0000 C CNN
F 2 "R_0201_0603Metric" V 2030 6000 30  0000 C CNN
F 3 "~" H 2100 6000 30  0000 C CNN
	1    2100 6000
	1    0    0    1   
$EndComp
$Comp
L R R_7
U 1 1 5C758B12
P 2300 6000
F 0 "R_7" V 2380 6000 40  0000 C CNN
F 1 "1M" V 2307 6001 40  0000 C CNN
F 2 "R_0201_0603Metric" V 2230 6000 30  0000 C CNN
F 3 "~" H 2300 6000 30  0000 C CNN
	1    2300 6000
	1    0    0    1   
$EndComp
$Comp
L R R_8
U 1 1 5C758B18
P 2500 6000
F 0 "R_8" V 2580 6000 40  0000 C CNN
F 1 "1M" V 2507 6001 40  0000 C CNN
F 2 "R_0201_0603Metric" V 2430 6000 30  0000 C CNN
F 3 "~" H 2500 6000 30  0000 C CNN
	1    2500 6000
	1    0    0    1   
$EndComp
$Comp
L R R_9
U 1 1 5C758B1E
P 2700 6000
F 0 "R_9" V 2780 6000 40  0000 C CNN
F 1 "1M" V 2707 6001 40  0000 C CNN
F 2 "R_0201_0603Metric" V 2630 6000 30  0000 C CNN
F 3 "~" H 2700 6000 30  0000 C CNN
	1    2700 6000
	1    0    0    1   
$EndComp
$Comp
L R R_10
U 1 1 5C758B24
P 2900 6000
F 0 "R_10" V 2980 6000 40  0000 C CNN
F 1 "1M" V 2907 6001 40  0000 C CNN
F 2 "R_0201_0603Metric" V 2830 6000 30  0000 C CNN
F 3 "~" H 2900 6000 30  0000 C CNN
	1    2900 6000
	1    0    0    1   
$EndComp
$Comp
L R R_11
U 1 1 5C758B2A
P 3100 6000
F 0 "R_11" V 3180 6000 40  0000 C CNN
F 1 "1M" V 3107 6001 40  0000 C CNN
F 2 "R_0201_0603Metric" V 3030 6000 30  0000 C CNN
F 3 "~" H 3100 6000 30  0000 C CNN
	1    3100 6000
	1    0    0    1   
$EndComp
$Comp
L R R_12
U 1 1 5C758B30
P 3300 6000
F 0 "R_12" V 3380 6000 40  0000 C CNN
F 1 "1M" V 3307 6001 40  0000 C CNN
F 2 "R_0201_0603Metric" V 3230 6000 30  0000 C CNN
F 3 "~" H 3300 6000 30  0000 C CNN
	1    3300 6000
	1    0    0    1   
$EndComp
Text Label 800  6400 0    60   ~ 0
WEAR_MON
Text Label 4150 1650 0    60   ~ 0
WEAR_MON
$Comp
L CAP C17
U 1 1 5C768B69
P 6050 4550
F 0 "C17" V 6147 4650 60  0000 L CNN
F 1 "1pF" V 6253 4650 60  0000 L CNN
F 2 "C_0402_1005Metric" V 6306 4650 60  0001 L CNN
F 3 "" H 6050 4550 60  0000 C CNN
	1    6050 4550
	0    1    1    0   
$EndComp
$Comp
L R R4
U 1 1 5C768B79
P 6350 4400
F 0 "R4" V 6430 4400 40  0000 C CNN
F 1 "1M" V 6357 4401 40  0000 C CNN
F 2 "R_0402_1005Metric" V 6280 4400 30  0000 C CNN
F 3 "~" H 6350 4400 30  0000 C CNN
	1    6350 4400
	0    1    -1   0   
$EndComp
$Comp
L power_GND #PWR024
U 1 1 5C768C35
P 6050 4900
F 0 "#PWR024" H 6050 4650 50  0001 C CNN
F 1 "power_GND" H 6050 4750 50  0000 C CNN
F 2 "" H 6050 4900 50  0001 C CNN
F 3 "" H 6050 4900 50  0001 C CNN
	1    6050 4900
	1    0    0    -1  
$EndComp
$Comp
L CAP C20
U 1 1 5C768D10
P 7150 4550
F 0 "C20" V 7247 4650 60  0000 L CNN
F 1 "1pF" V 7353 4650 60  0000 L CNN
F 2 "C_0402_1005Metric" V 7406 4650 60  0001 L CNN
F 3 "" H 7150 4550 60  0000 C CNN
	1    7150 4550
	0    1    1    0   
$EndComp
$Comp
L R R6
U 1 1 5C768D16
P 6900 4400
F 0 "R6" V 6980 4400 40  0000 C CNN
F 1 "1M" V 6907 4401 40  0000 C CNN
F 2 "R_0402_1005Metric" V 6830 4400 30  0000 C CNN
F 3 "~" H 6900 4400 30  0000 C CNN
	1    6900 4400
	0    1    -1   0   
$EndComp
$Comp
L R R5
U 1 1 5C768D26
P 6650 4100
F 0 "R5" V 6730 4100 40  0000 C CNN
F 1 "1M" V 6657 4101 40  0000 C CNN
F 2 "R_0402_1005Metric" V 6580 4100 30  0000 C CNN
F 3 "~" H 6650 4100 30  0000 C CNN
	1    6650 4100
	-1   0    0    -1  
$EndComp
$Comp
L power_GND #PWR025
U 1 1 5C769225
P 7150 4900
F 0 "#PWR025" H 7150 4650 50  0001 C CNN
F 1 "power_GND" H 7150 4750 50  0000 C CNN
F 2 "" H 7150 4900 50  0001 C CNN
F 3 "" H 7150 4900 50  0001 C CNN
	1    7150 4900
	1    0    0    -1  
$EndComp
$Comp
L MM8130-2600 J2
U 1 1 5C76E75A
P 6650 3450
F 0 "J2" H 6650 3700 60  0000 C CNN
F 1 "MM8130-2600" H 6650 3100 60  0000 C CNN
F 2 "MM8130-2600" H 6650 3450 60  0000 C CNN
F 3 "" H 6650 3450 60  0000 C CNN
	1    6650 3450
	1    0    0    -1  
$EndComp
$Comp
L power_GND #PWR026
U 1 1 5C76EA05
P 6300 3550
F 0 "#PWR026" H 6300 3300 50  0001 C CNN
F 1 "power_GND" H 6300 3400 50  0000 C CNN
F 2 "" H 6300 3550 50  0001 C CNN
F 3 "" H 6300 3550 50  0001 C CNN
	1    6300 3550
	1    0    0    -1  
$EndComp
$Comp
L power_GND #PWR027
U 1 1 5C76EA11
P 7000 3550
F 0 "#PWR027" H 7000 3300 50  0001 C CNN
F 1 "power_GND" H 7000 3400 50  0000 C CNN
F 2 "" H 7000 3550 50  0001 C CNN
F 3 "" H 7000 3550 50  0001 C CNN
	1    7000 3550
	1    0    0    -1  
$EndComp
Text Notes 1870 5460 0    100  ~ 0
Wear Sensor
Text Notes 4195 5445 0    100  ~ 0
nrf52 Prog
Text Notes 5925 5445 0    100  ~ 0
Battery monitoring
Wire Notes Line
	7676 600  6890 600 
Wire Wire Line
	6300 3450 6300 3550
Wire Wire Line
	7000 3450 7000 3550
Wire Wire Line
	6650 3850 6650 3800
Wire Wire Line
	6650 4400 6650 4350
Wire Wire Line
	7150 4550 7150 4400
Wire Wire Line
	7150 4850 7150 4900
Wire Wire Line
	6600 4400 6650 4400
Wire Wire Line
	5700 4400 5600 4400
Connection ~ 6050 4400
Wire Wire Line
	6050 4550 6050 4400
Wire Wire Line
	6000 4400 6100 4400
Wire Wire Line
	6050 4850 6050 4900
Wire Wire Line
	4150 1750 4150 1400
Connection ~ 1100 7200
Wire Wire Line
	750  7200 1100 7200
Wire Wire Line
	750  6950 750  7200
Connection ~ 1300 5750
Connection ~ 1500 5750
Connection ~ 1700 5750
Connection ~ 1900 5750
Connection ~ 2100 5750
Connection ~ 2300 5750
Connection ~ 2500 5750
Connection ~ 2700 5750
Connection ~ 2900 5750
Connection ~ 3100 5750
Connection ~ 3300 5750
Connection ~ 3300 6250
Connection ~ 3100 6250
Connection ~ 2900 6250
Connection ~ 2700 6250
Connection ~ 2500 6250
Connection ~ 2300 6250
Connection ~ 2100 6250
Connection ~ 1900 6250
Connection ~ 1700 6250
Connection ~ 1500 6250
Connection ~ 1300 6250
Wire Wire Line
	750  6400 1100 6400
Wire Wire Line
	750  6650 750  6400
Wire Wire Line
	1100 5750 1100 5450
Connection ~ 1100 6400
Wire Wire Line
	1100 7050 1100 7250
Wire Wire Line
	1100 6250 1100 6550
Wire Wire Line
	5250 3650 5550 3650
Wire Wire Line
	5250 3550 5550 3550
Connection ~ 5600 4450
Wire Wire Line
	5600 3150 5600 4450
Connection ~ 4475 6595
Wire Wire Line
	5075 6595 4475 6595
Wire Wire Line
	4475 6495 4475 6695
Wire Wire Line
	5075 6495 4475 6495
Wire Wire Line
	5075 6395 4425 6395
Wire Wire Line
	5075 6295 4425 6295
Wire Wire Line
	5075 6195 4425 6195
Wire Wire Line
	4050 1400 4050 1750
Wire Wire Line
	2550 3250 2200 3250
Wire Wire Line
	2550 3150 2200 3150
Wire Wire Line
	6935 5780 6935 5480
Wire Notes Line
	600  7500 6900 7500
Wire Wire Line
	2550 3450 2200 3450
Wire Wire Line
	3550 4450 3550 4850
Connection ~ 6935 6310
Wire Wire Line
	6265 6310 6935 6310
Wire Wire Line
	9445 6450 9445 6550
Wire Wire Line
	9545 6450 9445 6450
Wire Notes Line
	11000 6150 11000 7110
Wire Wire Line
	9545 6250 8345 6250
Wire Notes Line
	4100 700  3300 700 
Wire Notes Line
	4100 1650 4100 700 
Wire Notes Line
	3300 1650 4100 1650
Wire Notes Line
	3300 700  3300 1650
Wire Notes Line
	11000 600  11000 6000
Wire Wire Line
	3750 4450 3750 4850
Wire Wire Line
	4450 4450 4450 4850
Wire Wire Line
	4150 4450 4150 4850
Wire Wire Line
	3950 4450 3950 4850
Wire Wire Line
	3850 4450 3850 4850
Wire Wire Line
	8075 4470 8525 4470
Wire Wire Line
	8075 4320 8525 4320
Wire Wire Line
	8085 2120 8535 2120
Wire Wire Line
	8085 1970 8535 1970
Wire Wire Line
	9935 2170 10285 2170
Wire Wire Line
	9935 2020 10285 2020
Wire Wire Line
	9925 4370 10275 4370
Wire Wire Line
	9925 4220 10275 4220
Wire Wire Line
	9925 4070 10275 4070
Wire Wire Line
	9935 1870 10285 1870
Wire Wire Line
	9935 1720 10285 1720
Wire Wire Line
	9985 1070 9985 1170
Wire Wire Line
	9885 1070 9985 1070
Connection ~ 9385 1070
Wire Wire Line
	9385 1070 9585 1070
Connection ~ 9085 1070
Wire Wire Line
	9085 1070 8885 1070
Wire Wire Line
	8485 1070 8485 1170
Wire Wire Line
	8585 1070 8485 1070
Wire Wire Line
	9385 820  9385 1270
Wire Wire Line
	9085 820  9085 1270
Wire Wire Line
	9975 3420 9975 3520
Wire Wire Line
	9875 3420 9975 3420
Connection ~ 9375 3420
Wire Wire Line
	9375 3420 9575 3420
Connection ~ 9075 3420
Wire Wire Line
	9075 3420 8875 3420
Wire Wire Line
	8475 3420 8475 3520
Wire Wire Line
	8575 3420 8475 3420
Wire Wire Line
	9925 4520 10275 4520
Wire Wire Line
	9375 4820 9375 4920
Wire Wire Line
	9075 4820 9075 4920
Wire Wire Line
	9435 2470 9435 2570
Wire Wire Line
	9235 2470 9235 2570
Wire Wire Line
	9035 2470 9035 2570
Wire Wire Line
	9375 3170 9375 3620
Wire Wire Line
	9075 3170 9075 3620
Wire Notes Line
	6900 600  600  600 
Wire Notes Line
	600  600  600  5150
Wire Notes Line
	2150 2000 800  2000
Wire Notes Line
	2150 3650 2150 2000
Wire Notes Line
	800  3650 2150 3650
Wire Notes Line
	800  2000 800  3650
Wire Wire Line
	5400 3050 5250 3050
Connection ~ 5600 4400
Wire Wire Line
	5250 3150 5600 3150
Wire Wire Line
	5600 4400 5600 4550
Wire Wire Line
	5600 4850 5600 4900
Wire Wire Line
	2350 2750 2350 3100
Connection ~ 2450 3950
Wire Wire Line
	2450 3850 2450 3950
Wire Wire Line
	2550 3850 2450 3850
Connection ~ 2300 4600
Wire Wire Line
	2300 3950 2550 3950
Wire Wire Line
	2300 3950 2300 4750
Wire Wire Line
	2700 4600 2300 4600
Wire Wire Line
	3350 4600 3350 4450
Wire Wire Line
	3000 4600 3350 4600
Connection ~ 3650 1050
Connection ~ 3750 1450
Wire Wire Line
	3900 1450 3900 1500
Connection ~ 3550 750 
Wire Wire Line
	3550 750  3550 1750
Wire Wire Line
	3650 1350 3650 1750
Connection ~ 3650 1450
Wire Wire Line
	3650 1450 3900 1450
Wire Wire Line
	3750 1750 3750 1450
Wire Wire Line
	3650 750  3650 1100
Wire Wire Line
	3450 750  3650 750 
Wire Wire Line
	3450 850  3450 750 
Wire Wire Line
	3450 1250 3450 1150
Wire Wire Line
	3450 1750 3450 1550
Connection ~ 1100 3100
Wire Wire Line
	1100 3100 1250 3100
Wire Wire Line
	1100 2650 1100 3200
Wire Wire Line
	1250 2650 1100 2650
Connection ~ 1700 3100
Wire Wire Line
	2550 2750 2350 2750
Connection ~ 1700 2650
Wire Wire Line
	2300 1500 2300 1550
Wire Wire Line
	2300 1850 2300 1950
Wire Wire Line
	2750 1550 2750 1650
Wire Wire Line
	2750 1200 2750 1250
Wire Wire Line
	2350 3100 1550 3100
Wire Wire Line
	1700 3000 1700 3100
Wire Wire Line
	1550 2650 2550 2650
Wire Wire Line
	1700 2700 1700 2650
Wire Wire Line
	2550 1500 2550 2550
Wire Wire Line
	2300 1500 2550 1500
Wire Wire Line
	3350 1200 2750 1200
Wire Wire Line
	3350 1750 3350 1200
Wire Wire Line
	5790 1760 5790 1560
Wire Wire Line
	5340 1560 5970 1560
Wire Wire Line
	6270 1560 6480 1560
Wire Wire Line
	6480 1560 6480 2285
Wire Wire Line
	6255 2190 6480 2190
Connection ~ 6480 2190
Wire Wire Line
	6070 1860 6480 1860
Connection ~ 6480 1860
Connection ~ 6480 1770
Wire Wire Line
	5710 3275 5710 3245
Wire Wire Line
	5710 2950 5250 2950
Wire Wire Line
	5250 2850 6075 2850
Wire Wire Line
	6075 2850 6075 2950
Wire Wire Line
	6075 3285 6075 3250
Wire Notes Line
	11000 600  7665 600 
Wire Notes Line
	7645 5280 11000 5280
Wire Notes Line
	11000 7110 6900 7110
Wire Notes Line
	11000 6160 11000 5935
Wire Notes Line
	7650 5280 600  5280
Wire Notes Line
	600  5280 600  5145
Wire Notes Line
	7460 600  7460 5280
Wire Notes Line
	600  7500 600  5275
Wire Notes Line
	4135 5280 4135 7500
Wire Notes Line
	5845 7500 5845 5280
Wire Notes Line
	7460 5210 7460 7110
Wire Notes Line
	6900 7110 6900 7500
Wire Wire Line
	6265 6740 6265 6800
Wire Wire Line
	6265 6440 6265 6310
Wire Wire Line
	6935 6280 6935 6345
Wire Wire Line
	6935 6845 6935 6875
Wire Notes Line
	7460 2850 11000 2850
Wire Wire Line
	6480 1770 6070 1770
Wire Wire Line
	5790 2060 5790 2750
Wire Wire Line
	5955 2190 5790 2190
Connection ~ 5790 2190
Wire Wire Line
	5340 1560 5340 2650
Wire Wire Line
	5340 2650 5250 2650
Connection ~ 5790 1560
Wire Wire Line
	5790 2750 5250 2750
Text Label 3050 4600 0    60   ~ 0
VBAT
Wire Wire Line
	1100 5750 3300 5750
Wire Wire Line
	3300 6250 1100 6250
$Comp
L power_GND #PWR028
U 1 1 5C891309
P 5400 3050
F 0 "#PWR028" H 5400 2800 50  0001 C CNN
F 1 "power_GND" H 5400 2900 50  0000 C CNN
F 2 "" H 5400 3050 50  0001 C CNN
F 3 "" H 5400 3050 50  0001 C CNN
	1    5400 3050
	1    0    0    -1  
$EndComp
$Comp
L FIDUCIAL FID2
U 1 1 5C891A77
P 7900 1300
F 0 "FID2" H 7900 950 60  0000 C CNN
F 1 "FIDUCIAL" H 7900 1600 60  0000 C CNN
F 2 "Fiducial" H 7900 1300 60  0000 C CNN
F 3 "~" H 7900 1300 60  0000 C CNN
	1    7900 1300
	1    0    0    -1  
$EndComp
$Comp
L FIDUCIAL FID3
U 1 1 5C891A92
P 7900 3600
F 0 "FID3" H 7900 3250 60  0000 C CNN
F 1 "FIDUCIAL" H 7900 3900 60  0000 C CNN
F 2 "Fiducial" H 7900 3600 60  0000 C CNN
F 3 "~" H 7900 3600 60  0000 C CNN
	1    7900 3600
	1    0    0    -1  
$EndComp
$Comp
L FIDUCIAL FID1
U 1 1 5C891AA1
P 1450 4400
F 0 "FID1" H 1450 4050 60  0000 C CNN
F 1 "FIDUCIAL" H 1450 4700 60  0000 C CNN
F 2 "Fiducial" H 1450 4400 60  0000 C CNN
F 3 "~" H 1450 4400 60  0000 C CNN
	1    1450 4400
	1    0    0    -1  
$EndComp
$EndSCHEMATC
