EESchema Schematic File Version 2
LIBS:power
LIBS:device
LIBS:transistors
LIBS:conn
LIBS:linear
LIBS:regul
LIBS:74xx
LIBS:cmos4000
LIBS:adc-dac
LIBS:memory
LIBS:xilinx
LIBS:microcontrollers
LIBS:dsp
LIBS:microchip
LIBS:analog_switches
LIBS:motorola
LIBS:texas
LIBS:intel
LIBS:audio
LIBS:interface
LIBS:digital-audio
LIBS:philips
LIBS:display
LIBS:cypress
LIBS:siliconi
LIBS:opto
LIBS:atmel
LIBS:contrib
LIBS:valves
LIBS:Connector
LIBS:austral_receiver_0v1-cache
EELAYER 27 0
EELAYER END
$Descr A4 11693 8268
encoding utf-8
Sheet 1 1
Title ""
Date "12 mar 2019"
Rev ""
Comp ""
Comment1 ""
Comment2 ""
Comment3 ""
Comment4 ""
$EndDescr
$Comp
L XTAL_2-pin X2
U 1 1 5C6AE318
P 1950 3900
F 0 "X2" V 2047 4010 60  0000 L CNN
F 1 "32kHz" V 2153 4010 60  0000 L CNN
F 2 "XTAL_2012" H 1950 3900 60  0001 C CNN
F 3 "" H 1950 3900 60  0000 C CNN
	1    1950 3900
	0    1    1    0   
$EndComp
$Comp
L XTAL_4-pin_grounded X1
U 1 1 5C6AE3BB
P 6040 3260
F 0 "X1" V 6243 3370 60  0000 L CNN
F 1 "32MHz" V 6090 3310 60  0000 L CNN
F 2 "XTAL_2016" H 6040 3260 60  0001 C CNN
F 3 "" H 6040 3260 60  0000 C CNN
	1    6040 3260
	0    -1   -1   0   
$EndComp
$Comp
L CAP C10
U 1 1 5C6AE9BE
P 1500 3850
F 0 "C10" H 1650 4109 60  0000 C CNN
F 1 "12pF" H 1650 4003 60  0000 C CNN
F 2 "C_0201_0603Metric" H 1500 3850 60  0001 C CNN
F 3 "" H 1500 3850 60  0000 C CNN
	1    1500 3850
	1    0    0    -1  
$EndComp
$Comp
L CAP C11
U 1 1 5C6AEA27
P 1500 4300
F 0 "C11" H 1650 4559 60  0000 C CNN
F 1 "12pF" H 1650 4453 60  0000 C CNN
F 2 "C_0201_0603Metric" H 1500 4300 60  0001 C CNN
F 3 "" H 1500 4300 60  0000 C CNN
	1    1500 4300
	1    0    0    -1  
$EndComp
$Comp
L CAP C4
U 1 1 5C6AEB17
P 2550 2750
F 0 "C4" V 2647 2850 60  0000 L CNN
F 1 "100nF" V 2753 2850 60  0000 L CNN
F 2 "C_0201_0603Metric" H 2550 2750 60  0001 C CNN
F 3 "" H 2550 2750 60  0000 C CNN
	1    2550 2750
	0    1    1    0   
$EndComp
$Comp
L CAP C8
U 1 1 5C6AEC36
P 3000 2450
F 0 "C8" V 3097 2550 60  0000 L CNN
F 1 "4.7uF" V 3203 2550 60  0000 L CNN
F 2 "C_0603_1608Metric" H 3000 2450 60  0001 C CNN
F 3 "" H 3000 2450 60  0000 C CNN
	1    3000 2450
	0    1    1    0   
$EndComp
$Comp
L CAP C2
U 1 1 5C6B0DB1
P 6220 2760
F 0 "C2" H 6370 3019 60  0000 C CNN
F 1 "12pF" H 6370 2913 60  0000 C CNN
F 2 "C_0201_0603Metric" H 6220 2760 60  0001 C CNN
F 3 "" H 6220 2760 60  0000 C CNN
	1    6220 2760
	1    0    0    -1  
$EndComp
$Comp
L CAP C1
U 1 1 5C6B0E6C
P 6205 3390
F 0 "C1" H 6355 3649 60  0000 C CNN
F 1 "12pF" H 6355 3543 60  0000 C CNN
F 2 "C_0201_0603Metric" H 6205 3390 60  0001 C CNN
F 3 "" H 6205 3390 60  0000 C CNN
	1    6205 3390
	1    0    0    -1  
$EndComp
$Comp
L CAP C6
U 1 1 5C6B10BC
P 5960 4150
F 0 "C6" V 6030 4185 60  0000 L CNN
F 1 "100pF" V 6200 4170 60  0000 L CNN
F 2 "C_0201_0603Metric" H 5960 4150 60  0001 C CNN
F 3 "" H 5960 4150 60  0000 C CNN
	1    5960 4150
	0    1    1    0   
$EndComp
$Comp
L IND L2
U 1 1 5C6B2666
P 3700 2750
F 0 "L2" V 3903 2709 60  0000 R CNN
F 1 "10uH" V 3797 2709 60  0000 R CNN
F 2 "L_0603_1608Metric" V 3744 2709 60  0001 R CNN
F 3 "" H 3700 2750 60  0000 C CNN
	1    3700 2750
	0    -1   -1   0   
$EndComp
$Comp
L IND L3
U 1 1 5C6B2823
P 3700 2350
F 0 "L3" V 3903 2309 60  0000 R CNN
F 1 "15nH" V 3797 2309 60  0000 R CNN
F 2 "L_0402_1005Metric" V 3744 2309 60  0001 R CNN
F 3 "" H 3700 2350 60  0000 C CNN
	1    3700 2350
	0    -1   -1   0   
$EndComp
$Comp
L CAP C9
U 1 1 5C6B2E8C
P 3900 2250
F 0 "C9" V 3997 2350 60  0000 L CNN
F 1 "CAP" V 4103 2350 60  0000 L CNN
F 2 "C_0402_1005Metric" V 4156 2350 60  0001 L CNN
F 3 "" H 3900 2250 60  0000 C CNN
	1    3900 2250
	0    1    1    0   
$EndComp
$Comp
L CAP C5
U 1 1 5C6BA4AD
P 3250 5800
F 0 "C5" H 3400 5541 60  0000 C CNN
F 1 "100nF" H 3400 5647 60  0000 C CNN
F 2 "C_0201_0603Metric" H 3400 5647 60  0001 C CNN
F 3 "" H 3250 5800 60  0000 C CNN
	1    3250 5800
	-1   0    0    1   
$EndComp
$Comp
L IND L1
U 1 1 5C6C2716
P 5950 5600
F 0 "L1" H 6100 5819 60  0000 C CNN
F 1 "3.3nH" H 6100 5713 60  0000 C CNN
F 2 "L_0402_1005Metric" H 6100 5713 60  0001 C CNN
F 3 "" H 5950 5600 60  0000 C CNN
	1    5950 5600
	1    0    0    -1  
$EndComp
$Comp
L CAP C3
U 1 1 5C6C27E8
P 5850 5750
F 0 "C3" V 5947 5850 60  0000 L CNN
F 1 "1pF" V 6053 5850 60  0000 L CNN
F 2 "C_0402_1005Metric" V 6106 5850 60  0001 L CNN
F 3 "" H 5850 5750 60  0000 C CNN
	1    5850 5750
	0    1    1    0   
$EndComp
Text Notes 1150 3350 0    50   ~ 0
Optional
Text Label 4100 6150 1    50   ~ 0
UART_C_TXD
$Comp
L power_GND #PWR01
U 1 1 5C6B6A79
P 2550 5950
F 0 "#PWR01" H 2550 5700 50  0001 C CNN
F 1 "power_GND" H 2550 5800 50  0000 C CNN
F 2 "" H 2550 5950 50  0001 C CNN
F 3 "" H 2550 5950 50  0001 C CNN
	1    2550 5950
	1    0    0    -1  
$EndComp
$Comp
L power_GND #PWR02
U 1 1 5C6B852E
P 2550 3150
F 0 "#PWR02" H 2550 2900 50  0001 C CNN
F 1 "power_GND" H 2550 3000 50  0000 C CNN
F 2 "" H 2550 3150 50  0001 C CNN
F 3 "" H 2550 3150 50  0001 C CNN
	1    2550 3150
	1    0    0    -1  
$EndComp
$Comp
L power_GND #PWR03
U 1 1 5C6B8570
P 3000 2850
F 0 "#PWR03" H 3000 2600 50  0001 C CNN
F 1 "power_GND" H 3000 2700 50  0000 C CNN
F 2 "" H 3000 2850 50  0001 C CNN
F 3 "" H 3000 2850 50  0001 C CNN
	1    3000 2850
	1    0    0    -1  
$EndComp
$Comp
L power_GND #PWR04
U 1 1 5C6B8795
P 5850 6100
F 0 "#PWR04" H 5850 5850 50  0001 C CNN
F 1 "power_GND" H 5850 5950 50  0000 C CNN
F 2 "" H 5850 6100 50  0001 C CNN
F 3 "" H 5850 6100 50  0001 C CNN
	1    5850 6100
	1    0    0    -1  
$EndComp
$Comp
L power_GND #PWR05
U 1 1 5C6B8C55
P 5960 4475
F 0 "#PWR05" H 5960 4225 50  0001 C CNN
F 1 "power_GND" H 5960 4325 50  0000 C CNN
F 2 "" H 5960 4475 50  0001 C CNN
F 3 "" H 5960 4475 50  0001 C CNN
	1    5960 4475
	1    0    0    -1  
$EndComp
$Comp
L power_GND #PWR06
U 1 1 5C6B8D0A
P 6325 4485
F 0 "#PWR06" H 6325 4235 50  0001 C CNN
F 1 "power_GND" H 6325 4335 50  0000 C CNN
F 2 "" H 6325 4485 50  0001 C CNN
F 3 "" H 6325 4485 50  0001 C CNN
	1    6325 4485
	1    0    0    -1  
$EndComp
$Comp
L CAP C7
U 1 1 5C6B0F27
P 6325 4150
F 0 "C7" V 6390 4170 60  0000 L CNN
F 1 "100pF" V 6560 4175 60  0000 L CNN
F 2 "C_0201_0603Metric" H 6325 4150 60  0001 C CNN
F 3 "" H 6325 4150 60  0000 C CNN
	1    6325 4150
	0    1    1    0   
$EndComp
$Comp
L power_GND #PWR07
U 1 1 5C6BAAC9
P 1350 4400
F 0 "#PWR07" H 1350 4150 50  0001 C CNN
F 1 "power_GND" H 1350 4250 50  0000 C CNN
F 2 "" H 1350 4400 50  0001 C CNN
F 3 "" H 1350 4400 50  0001 C CNN
	1    1350 4400
	1    0    0    -1  
$EndComp
$Comp
L power_GND #PWR08
U 1 1 5C6BAD47
P 6730 3485
F 0 "#PWR08" H 6730 3235 50  0001 C CNN
F 1 "power_GND" H 6730 3335 50  0000 C CNN
F 2 "" H 6730 3485 50  0001 C CNN
F 3 "" H 6730 3485 50  0001 C CNN
	1    6730 3485
	1    0    0    -1  
$EndComp
$Comp
L power_GND #PWR09
U 1 1 5C6B7FF6
P 4150 2700
F 0 "#PWR09" H 4150 2450 50  0001 C CNN
F 1 "power_GND" H 4150 2550 50  0000 C CNN
F 2 "" H 4150 2700 50  0001 C CNN
F 3 "" H 4150 2700 50  0001 C CNN
	1    4150 2700
	1    0    0    -1  
$EndComp
Text Notes 4000 2050 0    60   ~ 0
DC/DC
Text Notes 6250 5200 0    60   ~ 0
Antenna  Conn\n(Zout=50 Ohm)
Text Notes 850  1050 0    70   ~ 0
nrf52 - DCDC configuration with BGA package
$Comp
L CONN_6 J1
U 1 1 5C6EA307
P 9625 6145
F 0 "J1" V 9575 6145 60  0000 C CNN
F 1 "CONN_6" V 9675 6145 60  0000 C CNN
F 2 "nrf_prog" V 9825 6145 60  0000 C CNN
F 3 "" H 9625 6145 60  0000 C CNN
	1    9625 6145
	1    0    0    -1  
$EndComp
Text Label 8775 5895 0    60   ~ 0
VDD_3v3
Text Label 8775 5995 0    60   ~ 0
SWDIO
Text Label 8775 6095 0    60   ~ 0
SWDCLK
$Comp
L power_GND #PWR010
U 1 1 5C6EACA3
P 8675 6395
F 0 "#PWR010" H 8675 6145 50  0001 C CNN
F 1 "power_GND" H 8675 6245 50  0000 C CNN
F 2 "" H 8675 6395 50  0001 C CNN
F 3 "" H 8675 6395 50  0001 C CNN
	1    8675 6395
	1    0    0    -1  
$EndComp
Text Label 5600 4750 0    60   ~ 0
SWDIO
Text Label 5550 4850 0    60   ~ 0
SWDCLK
Text Label 3050 2400 0    60   ~ 0
VDD_3v3
$Comp
L CAP C17
U 1 1 5C768B69
P 6300 5750
F 0 "C17" V 6397 5850 60  0000 L CNN
F 1 "1pF" V 6503 5850 60  0000 L CNN
F 2 "C_0402_1005Metric" V 6556 5850 60  0001 L CNN
F 3 "" H 6300 5750 60  0000 C CNN
	1    6300 5750
	0    1    1    0   
$EndComp
$Comp
L power_GND #PWR011
U 1 1 5C768C35
P 6300 6100
F 0 "#PWR011" H 6300 5850 50  0001 C CNN
F 1 "power_GND" H 6300 5950 50  0000 C CNN
F 2 "" H 6300 6100 50  0001 C CNN
F 3 "" H 6300 6100 50  0001 C CNN
	1    6300 6100
	1    0    0    -1  
$EndComp
Text Notes 7650 5650 0    100  ~ 0
nrf52 Prog
$Comp
L CONN_COAXIAL J2
U 1 1 5C87BC64
P 6900 5600
F 0 "J2" H 6910 5720 50  0000 C CNN
F 1 "CONN_COAXIAL" V 7015 5600 50  0000 C CNN
F 2 "SMA_Molex_73251-2200_Horizontal" H 6900 5600 50  0001 C CNN
F 3 "" H 6900 5600 50  0001 C CNN
	1    6900 5600
	1    0    0    -1  
$EndComp
$Comp
L power_GND #PWR012
U 1 1 5C87BCF8
P 6900 6100
F 0 "#PWR012" H 6900 5850 50  0001 C CNN
F 1 "power_GND" H 6900 5950 50  0000 C CNN
F 2 "" H 6900 6100 50  0001 C CNN
F 3 "" H 6900 6100 50  0001 C CNN
	1    6900 6100
	1    0    0    -1  
$EndComp
$Comp
L CONN_25X2 P1
U 1 1 5C87BE29
P 9300 3700
F 0 "P1" H 9300 5000 60  0000 C CNN
F 1 "CONN_25X2" V 9300 3700 50  0000 C CNN
F 2 "PinHeader_2x25_P2.54mm_Vertical" H 9350 2350 60  0000 C CNN
F 3 "" H 9300 3700 60  0000 C CNN
	1    9300 3700
	1    0    0    -1  
$EndComp
$Comp
L nRF52832_BGA U1
U 1 1 5C6AE214
P 3100 5350
F 0 "U1" H 4900 7650 60  0000 L CNN
F 1 "nRF52832_BGA" H 4850 7550 60  0000 L CNN
F 2 "BGA50C40P7X8_295X322X50" H 3100 5350 60  0001 C CNN
F 3 "" H 3100 5350 60  0000 C CNN
	1    3100 5350
	1    0    0    -1  
$EndComp
Text Label 9800 2600 0    60   ~ 0
VDD_3v3
$Comp
L power_GND #PWR013
U 1 1 5C87F975
P 8650 2900
F 0 "#PWR013" H 8650 2650 50  0001 C CNN
F 1 "power_GND" H 8650 2750 50  0000 C CNN
F 2 "" H 8650 2900 50  0001 C CNN
F 3 "" H 8650 2900 50  0001 C CNN
	1    8650 2900
	1    0    0    -1  
$EndComp
$Comp
L power_GND #PWR014
U 1 1 5C87FD89
P 8650 3450
F 0 "#PWR014" H 8650 3200 50  0001 C CNN
F 1 "power_GND" H 8650 3300 50  0000 C CNN
F 2 "" H 8650 3450 50  0001 C CNN
F 3 "" H 8650 3450 50  0001 C CNN
	1    8650 3450
	1    0    0    -1  
$EndComp
Wire Wire Line
	5950 5600 5850 5600
Connection ~ 6300 5600
Wire Wire Line
	6300 5750 6300 5600
Wire Wire Line
	6250 5600 6700 5600
Wire Wire Line
	6300 6050 6300 6100
Wire Wire Line
	5500 4850 5800 4850
Wire Wire Line
	5500 4750 5800 4750
Connection ~ 5850 5650
Wire Wire Line
	5850 4350 5850 5650
Connection ~ 8675 6295
Wire Wire Line
	9275 6295 8675 6295
Wire Wire Line
	8675 6195 8675 6395
Wire Wire Line
	9275 6195 8675 6195
Wire Wire Line
	9275 6095 8625 6095
Wire Wire Line
	9275 5995 8625 5995
Wire Wire Line
	9275 5895 8625 5895
Wire Notes Line
	4350 1900 3550 1900
Wire Notes Line
	4350 2850 4350 1900
Wire Notes Line
	3550 2850 4350 2850
Wire Notes Line
	3550 1900 3550 2850
Wire Wire Line
	4200 5650 4200 6300
Wire Wire Line
	4100 5650 4100 6300
Wire Notes Line
	2400 3200 1050 3200
Wire Notes Line
	2400 4850 2400 3200
Wire Notes Line
	1050 4850 2400 4850
Wire Notes Line
	1050 3200 1050 4850
Wire Wire Line
	5650 4250 5500 4250
Connection ~ 5850 5600
Wire Wire Line
	5500 4350 5850 4350
Wire Wire Line
	5850 5600 5850 5750
Wire Wire Line
	5850 6050 5850 6100
Wire Wire Line
	2600 3950 2600 4300
Connection ~ 2700 5150
Wire Wire Line
	2700 5050 2700 5150
Wire Wire Line
	2800 5050 2700 5050
Connection ~ 2550 5800
Wire Wire Line
	2550 5150 2800 5150
Wire Wire Line
	2550 5150 2550 5950
Wire Wire Line
	2950 5800 2550 5800
Wire Wire Line
	3600 5800 3600 5650
Wire Wire Line
	3250 5800 3600 5800
Connection ~ 3900 2250
Connection ~ 4000 2650
Wire Wire Line
	4150 2650 4150 2700
Connection ~ 3800 1950
Wire Wire Line
	3800 1950 3800 2950
Wire Wire Line
	3900 2550 3900 2950
Connection ~ 3900 2650
Wire Wire Line
	3900 2650 4150 2650
Wire Wire Line
	4000 2950 4000 2650
Wire Wire Line
	3900 1950 3900 2300
Wire Wire Line
	3700 1950 3900 1950
Wire Wire Line
	3700 2050 3700 1950
Wire Wire Line
	3700 2450 3700 2350
Wire Wire Line
	3700 2950 3700 2750
Connection ~ 1350 4300
Wire Wire Line
	1350 4300 1500 4300
Wire Wire Line
	1350 3850 1350 4400
Wire Wire Line
	1500 3850 1350 3850
Connection ~ 1950 4300
Wire Wire Line
	2800 3950 2600 3950
Connection ~ 1950 3850
Wire Wire Line
	2550 2700 2550 2750
Wire Wire Line
	2550 3050 2550 3150
Wire Wire Line
	3000 2750 3000 2850
Wire Wire Line
	3000 2400 3000 2450
Wire Wire Line
	2600 4300 1800 4300
Wire Wire Line
	1950 4200 1950 4300
Wire Wire Line
	1800 3850 2800 3850
Wire Wire Line
	1950 3900 1950 3850
Wire Wire Line
	2800 2700 2800 3750
Wire Wire Line
	2550 2700 2800 2700
Wire Wire Line
	3600 2400 3000 2400
Wire Wire Line
	3600 2950 3600 2400
Wire Wire Line
	6040 2960 6040 2760
Wire Wire Line
	5590 2760 6220 2760
Wire Wire Line
	6520 2760 6730 2760
Wire Wire Line
	6730 2760 6730 3485
Wire Wire Line
	6505 3390 6730 3390
Connection ~ 6730 3390
Wire Wire Line
	6320 3060 6730 3060
Connection ~ 6730 3060
Connection ~ 6730 2970
Wire Wire Line
	5960 4475 5960 4445
Wire Wire Line
	5960 4150 5500 4150
Wire Wire Line
	5500 4050 6325 4050
Wire Wire Line
	6325 4050 6325 4150
Wire Wire Line
	6325 4485 6325 4450
Wire Wire Line
	6730 2970 6320 2970
Wire Wire Line
	6040 3260 6040 3950
Wire Wire Line
	6205 3390 6040 3390
Connection ~ 6040 3390
Wire Wire Line
	5590 2760 5590 3850
Wire Wire Line
	5590 3850 5500 3850
Connection ~ 6040 2760
Wire Wire Line
	6040 3950 5500 3950
Wire Wire Line
	6900 6100 6900 5800
Wire Wire Line
	9700 2600 10250 2600
Wire Wire Line
	8900 2800 8650 2800
Wire Wire Line
	8650 2800 8650 2900
Wire Wire Line
	9700 4100 10400 4100
Wire Wire Line
	8150 4200 8900 4200
Wire Wire Line
	8900 3400 8650 3400
Wire Wire Line
	8650 3400 8650 3450
Text Label 9750 4100 0    60   ~ 0
UART_C_TXD
Text Label 8250 4200 0    60   ~ 0
UART_C_RXD
Text Label 3300 5800 0    60   ~ 0
VDD_3v3
$Comp
L power_GND #PWR015
U 1 1 5C8805A6
P 10000 3650
F 0 "#PWR015" H 10000 3400 50  0001 C CNN
F 1 "power_GND" H 10000 3500 50  0000 C CNN
F 2 "" H 10000 3650 50  0001 C CNN
F 3 "" H 10000 3650 50  0001 C CNN
	1    10000 3650
	1    0    0    -1  
$EndComp
Wire Wire Line
	10000 3650 10000 3600
Wire Wire Line
	10000 3600 9700 3600
$Comp
L power_GND #PWR016
U 1 1 5C8807E6
P 10000 4500
F 0 "#PWR016" H 10000 4250 50  0001 C CNN
F 1 "power_GND" H 10000 4350 50  0000 C CNN
F 2 "" H 10000 4500 50  0001 C CNN
F 3 "" H 10000 4500 50  0001 C CNN
	1    10000 4500
	1    0    0    -1  
$EndComp
Wire Wire Line
	10000 4500 10000 4400
Wire Wire Line
	10000 4400 9700 4400
$Comp
L power_GND #PWR017
U 1 1 5C88093F
P 8650 4800
F 0 "#PWR017" H 8650 4550 50  0001 C CNN
F 1 "power_GND" H 8650 4650 50  0000 C CNN
F 2 "" H 8650 4800 50  0001 C CNN
F 3 "" H 8650 4800 50  0001 C CNN
	1    8650 4800
	1    0    0    -1  
$EndComp
Wire Wire Line
	8900 4700 8650 4700
Wire Wire Line
	8650 4700 8650 4800
$Comp
L power_GND #PWR018
U 1 1 5C880A9A
P 8650 3900
F 0 "#PWR018" H 8650 3650 50  0001 C CNN
F 1 "power_GND" H 8650 3750 50  0000 C CNN
F 2 "" H 8650 3900 50  0001 C CNN
F 3 "" H 8650 3900 50  0001 C CNN
	1    8650 3900
	1    0    0    -1  
$EndComp
Wire Wire Line
	8900 4100 8800 4100
Wire Wire Line
	8800 4100 8800 3850
Wire Wire Line
	8800 3850 8650 3850
Wire Wire Line
	8650 3850 8650 3900
Text Label 4200 6150 1    50   ~ 0
UART_C_RXD
$Comp
L FIDUCIAL FID1
U 1 1 5C88153A
P 8350 1450
F 0 "FID1" H 8350 1100 60  0000 C CNN
F 1 "FIDUCIAL" H 8350 1750 60  0000 C CNN
F 2 "Fiducial" H 8350 1450 60  0000 C CNN
F 3 "" H 8350 1450 60  0000 C CNN
	1    8350 1450
	1    0    0    -1  
$EndComp
$Comp
L FIDUCIAL FID2
U 1 1 5C881549
P 9300 1450
F 0 "FID2" H 9300 1100 60  0000 C CNN
F 1 "FIDUCIAL" H 9300 1750 60  0000 C CNN
F 2 "Fiducial" H 9300 1450 60  0000 C CNN
F 3 "" H 9300 1450 60  0000 C CNN
	1    9300 1450
	1    0    0    -1  
$EndComp
$Comp
L FIDUCIAL FID3
U 1 1 5C881558
P 10250 1450
F 0 "FID3" H 10250 1100 60  0000 C CNN
F 1 "FIDUCIAL" H 10250 1750 60  0000 C CNN
F 2 "Fiducial" H 10250 1450 60  0000 C CNN
F 3 "" H 10250 1450 60  0000 C CNN
	1    10250 1450
	1    0    0    -1  
$EndComp
$EndSCHEMATC
