G04 (created by PCBNEW (22-Jun-2014 BZR 4027)-stable) date Wed 13 Mar 2019 02:29:13 PM -03*
%MOIN*%
G04 Gerber Fmt 3.4, Leading zero omitted, Abs format*
%FSLAX34Y34*%
G01*
G70*
G90*
G04 APERTURE LIST*
%ADD10C,0.00393701*%
%ADD11C,0.0177165*%
%ADD12C,0.0374016*%
%ADD13R,0.0393701X0.0393701*%
%ADD14O,0.0393701X0.0393701*%
%ADD15C,0.011811*%
%ADD16C,0.0216535*%
%ADD17C,0.005*%
%ADD18C,0.01*%
G04 APERTURE END LIST*
G54D10*
G54D11*
X7637Y-240D03*
X9657Y-3114D03*
X9251Y-3114D03*
X8846Y-3118D03*
X10444Y-1389D03*
X7629Y-3125D03*
X8035Y-3122D03*
X8440Y-3122D03*
X9267Y-1779D03*
X9657Y-1779D03*
X9657Y-1389D03*
X10031Y-1389D03*
X10031Y-1779D03*
X10031Y-1000D03*
X10031Y-610D03*
X9657Y-610D03*
X9657Y-1000D03*
X8448Y-1795D03*
X7637Y-1019D03*
X7637Y-629D03*
X8043Y-625D03*
X8043Y-1015D03*
X8043Y-1795D03*
X8043Y-1405D03*
X14677Y-1976D03*
X18307Y-1251D03*
X18307Y-1507D03*
X14228Y-1767D03*
X14228Y-1511D03*
X15933Y149D03*
X16188Y149D03*
X16984Y145D03*
X16728Y145D03*
X17240Y145D03*
X14925Y-2039D03*
X14748Y-2224D03*
X11074Y-1354D03*
X11370Y-1354D03*
X7637Y-1409D03*
G54D12*
X17846Y-1385D03*
X17446Y-3385D03*
X18246Y-3385D03*
G54D13*
X17921Y-165D03*
G54D14*
X17921Y-665D03*
G54D11*
X7637Y-1799D03*
G54D15*
X12206Y-870D03*
X12186Y-1533D03*
X14366Y-510D03*
X11716Y-2890D03*
X15496Y-3495D03*
X17241Y-815D03*
X15201Y-3355D03*
X11871Y-2635D03*
X17076Y-1255D03*
X12031Y-2805D03*
X14926Y-3220D03*
X16636Y-1675D03*
X11571Y-2380D03*
X17071Y-3555D03*
X17381Y-2640D03*
X11571Y-3275D03*
G54D16*
X11354Y-3511D03*
X3417Y-3551D03*
X4114Y-3539D03*
X12816Y-1195D03*
X2748Y-3551D03*
X2066Y-3551D03*
X1385Y-3555D03*
X685Y-3555D03*
X3Y-3555D03*
X17451Y-1525D03*
X15121Y-540D03*
X15481Y-665D03*
X16316Y-1785D03*
X16076Y-1665D03*
X16856Y-2670D03*
G54D15*
X8992Y216D03*
X12027Y-1334D03*
X17276Y-615D03*
X12659Y-2478D03*
X12659Y-2163D03*
X16436Y79D03*
X17146Y-305D03*
X13031Y-2585D03*
X12186Y-2636D03*
X15096Y-2465D03*
X16351Y-3065D03*
X12486Y-2850D03*
X12501Y-2636D03*
X15881Y-1820D03*
X12029Y-2163D03*
X12186Y-1848D03*
X12341Y-1855D03*
X12341Y-2320D03*
X11871Y-2006D03*
X13536Y-785D03*
X12501Y-1691D03*
G54D17*
X11571Y-3020D02*
X11571Y-2380D01*
X12186Y-3635D02*
X11571Y-3020D01*
X16991Y-3635D02*
X12186Y-3635D01*
X17071Y-3555D02*
X16991Y-3635D01*
X16466Y-615D02*
X17276Y-615D01*
X15721Y-1360D02*
X16466Y-615D01*
X15721Y-2660D02*
X15721Y-1360D01*
X15586Y-2795D02*
X15721Y-2660D01*
X12975Y-2795D02*
X15586Y-2795D01*
X12975Y-2795D02*
X12659Y-2478D01*
X16616Y-305D02*
X17146Y-305D01*
X15616Y-1305D02*
X16616Y-305D01*
X13031Y-2585D02*
X13106Y-2660D01*
X13106Y-2660D02*
X15531Y-2660D01*
X15531Y-2660D02*
X15616Y-2575D01*
X15616Y-2575D02*
X15616Y-1305D01*
X12701Y-3065D02*
X16351Y-3065D01*
X12486Y-2850D02*
X12701Y-3065D01*
X12800Y-2935D02*
X12501Y-2636D01*
X12800Y-2935D02*
X15646Y-2935D01*
X15646Y-2935D02*
X15881Y-2700D01*
X15881Y-2700D02*
X15881Y-1820D01*
X12030Y-2165D02*
X12029Y-2163D01*
X12031Y-2165D02*
X12030Y-2165D01*
X12186Y-1848D02*
X12186Y-1850D01*
X11874Y-2007D02*
X11873Y-2007D01*
X11873Y-2007D02*
X11871Y-2006D01*
G54D10*
G36*
X18492Y-3227D02*
X18490Y-3222D01*
X18485Y-3217D01*
X18485Y-1472D01*
X18458Y-1407D01*
X18430Y-1379D01*
X18457Y-1352D01*
X18485Y-1287D01*
X18485Y-1216D01*
X18458Y-1151D01*
X18408Y-1101D01*
X18342Y-1074D01*
X18271Y-1073D01*
X18224Y-1093D01*
X18224Y-665D01*
X18201Y-551D01*
X18141Y-460D01*
X18175Y-446D01*
X18203Y-418D01*
X18218Y-381D01*
X18218Y-342D01*
X18218Y12D01*
X18218Y51D01*
X18203Y88D01*
X18175Y116D01*
X18138Y131D01*
X17955Y131D01*
X17930Y106D01*
X17930Y-155D01*
X18193Y-155D01*
X18218Y-130D01*
X18218Y12D01*
X18218Y-342D01*
X18218Y-199D01*
X18193Y-174D01*
X17930Y-174D01*
X17930Y-181D01*
X17912Y-181D01*
X17912Y-174D01*
X17912Y-155D01*
X17912Y106D01*
X17887Y131D01*
X17705Y131D01*
X17668Y116D01*
X17640Y88D01*
X17624Y51D01*
X17624Y12D01*
X17624Y-130D01*
X17649Y-155D01*
X17912Y-155D01*
X17912Y-174D01*
X17649Y-174D01*
X17624Y-199D01*
X17624Y-342D01*
X17624Y-381D01*
X17640Y-418D01*
X17668Y-446D01*
X17702Y-460D01*
X17641Y-551D01*
X17619Y-665D01*
X17641Y-778D01*
X17706Y-874D01*
X17802Y-939D01*
X17915Y-961D01*
X17927Y-961D01*
X18041Y-939D01*
X18137Y-874D01*
X18201Y-778D01*
X18224Y-665D01*
X18224Y-1093D01*
X18206Y-1101D01*
X18156Y-1151D01*
X18129Y-1216D01*
X18129Y-1287D01*
X18156Y-1352D01*
X18183Y-1379D01*
X18156Y-1406D01*
X18133Y-1461D01*
X18133Y-1328D01*
X18090Y-1222D01*
X18009Y-1141D01*
X17904Y-1098D01*
X17789Y-1097D01*
X17684Y-1141D01*
X17603Y-1222D01*
X17559Y-1327D01*
X17559Y-1441D01*
X17603Y-1547D01*
X17683Y-1628D01*
X17789Y-1671D01*
X17903Y-1672D01*
X18009Y-1628D01*
X18089Y-1547D01*
X18133Y-1442D01*
X18133Y-1328D01*
X18133Y-1461D01*
X18129Y-1472D01*
X18129Y-1543D01*
X18156Y-1608D01*
X18206Y-1658D01*
X18271Y-1685D01*
X18342Y-1685D01*
X18407Y-1658D01*
X18457Y-1608D01*
X18485Y-1543D01*
X18485Y-1472D01*
X18485Y-3217D01*
X18409Y-3141D01*
X18304Y-3098D01*
X18189Y-3097D01*
X18084Y-3141D01*
X18003Y-3222D01*
X17959Y-3327D01*
X17959Y-3441D01*
X18003Y-3547D01*
X18083Y-3628D01*
X18113Y-3640D01*
X17580Y-3640D01*
X17609Y-3628D01*
X17689Y-3547D01*
X17733Y-3442D01*
X17733Y-3328D01*
X17690Y-3222D01*
X17609Y-3141D01*
X17540Y-3113D01*
X17540Y-2608D01*
X17516Y-2550D01*
X17471Y-2505D01*
X17413Y-2481D01*
X17350Y-2480D01*
X17291Y-2505D01*
X17247Y-2549D01*
X17235Y-2576D01*
X17235Y-1223D01*
X17211Y-1165D01*
X17166Y-1120D01*
X17108Y-1096D01*
X17045Y-1095D01*
X16986Y-1120D01*
X16942Y-1164D01*
X16917Y-1223D01*
X16917Y-1286D01*
X16941Y-1345D01*
X16986Y-1389D01*
X17044Y-1414D01*
X17108Y-1414D01*
X17166Y-1389D01*
X17211Y-1345D01*
X17235Y-1286D01*
X17235Y-1223D01*
X17235Y-2576D01*
X17222Y-2608D01*
X17222Y-2671D01*
X17246Y-2730D01*
X17291Y-2774D01*
X17349Y-2799D01*
X17413Y-2799D01*
X17471Y-2774D01*
X17516Y-2730D01*
X17540Y-2671D01*
X17540Y-2608D01*
X17540Y-3113D01*
X17504Y-3098D01*
X17389Y-3097D01*
X17284Y-3141D01*
X17203Y-3222D01*
X17159Y-3327D01*
X17159Y-3419D01*
X17103Y-3396D01*
X17040Y-3395D01*
X16981Y-3420D01*
X16937Y-3464D01*
X16918Y-3510D01*
X16795Y-3510D01*
X16795Y-1643D01*
X16771Y-1585D01*
X16726Y-1540D01*
X16668Y-1516D01*
X16605Y-1515D01*
X16546Y-1540D01*
X16502Y-1584D01*
X16477Y-1643D01*
X16477Y-1706D01*
X16501Y-1765D01*
X16546Y-1809D01*
X16604Y-1834D01*
X16668Y-1834D01*
X16726Y-1809D01*
X16771Y-1765D01*
X16795Y-1706D01*
X16795Y-1643D01*
X16795Y-3510D01*
X15655Y-3510D01*
X15655Y-3463D01*
X15631Y-3405D01*
X15586Y-3360D01*
X15528Y-3336D01*
X15465Y-3335D01*
X15406Y-3360D01*
X15362Y-3404D01*
X15337Y-3463D01*
X15337Y-3510D01*
X15243Y-3510D01*
X15291Y-3489D01*
X15336Y-3445D01*
X15360Y-3386D01*
X15360Y-3323D01*
X15336Y-3265D01*
X15291Y-3220D01*
X15233Y-3196D01*
X15170Y-3195D01*
X15111Y-3220D01*
X15085Y-3246D01*
X15085Y-3190D01*
X16251Y-3190D01*
X16261Y-3199D01*
X16319Y-3224D01*
X16383Y-3224D01*
X16441Y-3199D01*
X16486Y-3155D01*
X16510Y-3096D01*
X16510Y-3033D01*
X16486Y-2975D01*
X16441Y-2930D01*
X16383Y-2906D01*
X16320Y-2905D01*
X16261Y-2930D01*
X16251Y-2940D01*
X15818Y-2940D01*
X15970Y-2788D01*
X15997Y-2747D01*
X16006Y-2700D01*
X16006Y-2700D01*
X16006Y-1919D01*
X16016Y-1910D01*
X16040Y-1851D01*
X16040Y-1788D01*
X16016Y-1730D01*
X15971Y-1685D01*
X15913Y-1661D01*
X15850Y-1660D01*
X15846Y-1662D01*
X15846Y-1411D01*
X16518Y-740D01*
X17100Y-740D01*
X17082Y-783D01*
X17082Y-846D01*
X17106Y-905D01*
X17151Y-949D01*
X17209Y-974D01*
X17273Y-974D01*
X17331Y-949D01*
X17376Y-905D01*
X17400Y-846D01*
X17400Y-783D01*
X17381Y-735D01*
X17411Y-705D01*
X17435Y-646D01*
X17435Y-583D01*
X17411Y-525D01*
X17366Y-480D01*
X17308Y-456D01*
X17245Y-455D01*
X17186Y-480D01*
X17176Y-490D01*
X16608Y-490D01*
X16668Y-430D01*
X17046Y-430D01*
X17056Y-439D01*
X17114Y-464D01*
X17178Y-464D01*
X17236Y-439D01*
X17281Y-395D01*
X17305Y-336D01*
X17305Y-273D01*
X17281Y-215D01*
X17236Y-170D01*
X17178Y-146D01*
X17115Y-145D01*
X17056Y-170D01*
X17046Y-180D01*
X16616Y-180D01*
X16568Y-189D01*
X16528Y-216D01*
X15528Y-1216D01*
X15501Y-1257D01*
X15491Y-1305D01*
X15491Y-2523D01*
X15479Y-2535D01*
X15239Y-2535D01*
X15255Y-2496D01*
X15255Y-2433D01*
X15231Y-2375D01*
X15186Y-2330D01*
X15128Y-2306D01*
X15103Y-2305D01*
X15103Y-2004D01*
X15076Y-1938D01*
X15026Y-1888D01*
X14960Y-1861D01*
X14889Y-1861D01*
X14832Y-1885D01*
X14828Y-1875D01*
X14778Y-1825D01*
X14712Y-1798D01*
X14641Y-1798D01*
X14576Y-1825D01*
X14526Y-1875D01*
X14525Y-1876D01*
X14525Y-478D01*
X14501Y-420D01*
X14456Y-375D01*
X14398Y-351D01*
X14335Y-350D01*
X14276Y-375D01*
X14232Y-419D01*
X14207Y-478D01*
X14207Y-541D01*
X14231Y-600D01*
X14276Y-644D01*
X14334Y-669D01*
X14398Y-669D01*
X14456Y-644D01*
X14501Y-600D01*
X14525Y-541D01*
X14525Y-478D01*
X14525Y-1876D01*
X14499Y-1940D01*
X14499Y-2011D01*
X14526Y-2077D01*
X14576Y-2127D01*
X14592Y-2134D01*
X14570Y-2188D01*
X14570Y-2259D01*
X14597Y-2325D01*
X14647Y-2375D01*
X14712Y-2402D01*
X14783Y-2402D01*
X14848Y-2375D01*
X14898Y-2325D01*
X14925Y-2259D01*
X14925Y-2217D01*
X14960Y-2217D01*
X15025Y-2190D01*
X15075Y-2140D01*
X15103Y-2074D01*
X15103Y-2004D01*
X15103Y-2305D01*
X15065Y-2305D01*
X15006Y-2330D01*
X14962Y-2374D01*
X14937Y-2433D01*
X14937Y-2496D01*
X14953Y-2535D01*
X14406Y-2535D01*
X14406Y-1732D01*
X14379Y-1667D01*
X14352Y-1639D01*
X14379Y-1612D01*
X14406Y-1547D01*
X14406Y-1476D01*
X14379Y-1411D01*
X14329Y-1361D01*
X14263Y-1333D01*
X14193Y-1333D01*
X14127Y-1360D01*
X14077Y-1410D01*
X14050Y-1476D01*
X14050Y-1547D01*
X14077Y-1612D01*
X14104Y-1639D01*
X14077Y-1666D01*
X14050Y-1732D01*
X14050Y-1802D01*
X14077Y-1868D01*
X14127Y-1918D01*
X14192Y-1945D01*
X14263Y-1945D01*
X14329Y-1918D01*
X14379Y-1868D01*
X14406Y-1803D01*
X14406Y-1732D01*
X14406Y-2535D01*
X13695Y-2535D01*
X13695Y-753D01*
X13671Y-695D01*
X13626Y-650D01*
X13568Y-626D01*
X13505Y-625D01*
X13446Y-650D01*
X13402Y-694D01*
X13377Y-753D01*
X13377Y-816D01*
X13401Y-875D01*
X13446Y-919D01*
X13504Y-944D01*
X13568Y-944D01*
X13626Y-919D01*
X13671Y-875D01*
X13695Y-816D01*
X13695Y-753D01*
X13695Y-2535D01*
X13183Y-2535D01*
X13166Y-2495D01*
X13121Y-2450D01*
X13063Y-2426D01*
X13000Y-2425D01*
X12941Y-2450D01*
X12897Y-2494D01*
X12883Y-2526D01*
X12818Y-2461D01*
X12818Y-2447D01*
X12794Y-2388D01*
X12749Y-2343D01*
X12694Y-2321D01*
X12749Y-2298D01*
X12793Y-2253D01*
X12818Y-2195D01*
X12818Y-2132D01*
X12794Y-2073D01*
X12749Y-2029D01*
X12690Y-2004D01*
X12660Y-2004D01*
X12660Y-1659D01*
X12636Y-1601D01*
X12591Y-1556D01*
X12533Y-1532D01*
X12470Y-1532D01*
X12411Y-1556D01*
X12366Y-1601D01*
X12365Y-1603D01*
X12365Y-838D01*
X12341Y-780D01*
X12296Y-735D01*
X12238Y-711D01*
X12175Y-710D01*
X12116Y-735D01*
X12072Y-779D01*
X12047Y-838D01*
X12047Y-901D01*
X12071Y-960D01*
X12116Y-1004D01*
X12174Y-1029D01*
X12238Y-1029D01*
X12296Y-1004D01*
X12341Y-960D01*
X12365Y-901D01*
X12365Y-838D01*
X12365Y-1603D01*
X12342Y-1659D01*
X12342Y-1695D01*
X12310Y-1695D01*
X12271Y-1711D01*
X12222Y-1691D01*
X12276Y-1668D01*
X12321Y-1624D01*
X12345Y-1565D01*
X12345Y-1502D01*
X12321Y-1443D01*
X12276Y-1399D01*
X12218Y-1374D01*
X12183Y-1374D01*
X12186Y-1366D01*
X12186Y-1303D01*
X12162Y-1244D01*
X12117Y-1199D01*
X12059Y-1175D01*
X11996Y-1175D01*
X11937Y-1199D01*
X11892Y-1244D01*
X11868Y-1302D01*
X11868Y-1366D01*
X11892Y-1424D01*
X11937Y-1469D01*
X11995Y-1493D01*
X12031Y-1493D01*
X12027Y-1502D01*
X12027Y-1565D01*
X12051Y-1623D01*
X12096Y-1668D01*
X12151Y-1691D01*
X12096Y-1713D01*
X12052Y-1758D01*
X12027Y-1817D01*
X12027Y-1880D01*
X12051Y-1938D01*
X12096Y-1983D01*
X12154Y-2007D01*
X12218Y-2007D01*
X12256Y-1991D01*
X12309Y-2014D01*
X12373Y-2014D01*
X12431Y-1989D01*
X12476Y-1945D01*
X12500Y-1886D01*
X12500Y-1850D01*
X12533Y-1850D01*
X12591Y-1826D01*
X12636Y-1781D01*
X12660Y-1723D01*
X12660Y-1659D01*
X12660Y-2004D01*
X12627Y-2004D01*
X12569Y-2028D01*
X12524Y-2073D01*
X12500Y-2132D01*
X12500Y-2195D01*
X12524Y-2253D01*
X12568Y-2298D01*
X12623Y-2321D01*
X12569Y-2343D01*
X12524Y-2388D01*
X12500Y-2445D01*
X12500Y-2288D01*
X12476Y-2230D01*
X12431Y-2185D01*
X12373Y-2161D01*
X12310Y-2160D01*
X12251Y-2185D01*
X12207Y-2229D01*
X12188Y-2274D01*
X12188Y-2132D01*
X12164Y-2073D01*
X12119Y-2029D01*
X12061Y-2004D01*
X12030Y-2004D01*
X12030Y-1974D01*
X12006Y-1916D01*
X11962Y-1871D01*
X11903Y-1847D01*
X11840Y-1847D01*
X11781Y-1871D01*
X11737Y-1916D01*
X11712Y-1974D01*
X11712Y-2037D01*
X11736Y-2096D01*
X11781Y-2141D01*
X11840Y-2165D01*
X11870Y-2165D01*
X11870Y-2195D01*
X11894Y-2253D01*
X11939Y-2298D01*
X11997Y-2322D01*
X12060Y-2322D01*
X12119Y-2298D01*
X12164Y-2253D01*
X12188Y-2195D01*
X12188Y-2132D01*
X12188Y-2274D01*
X12182Y-2288D01*
X12182Y-2351D01*
X12206Y-2410D01*
X12251Y-2454D01*
X12309Y-2479D01*
X12373Y-2479D01*
X12431Y-2454D01*
X12476Y-2410D01*
X12500Y-2351D01*
X12500Y-2288D01*
X12500Y-2445D01*
X12500Y-2446D01*
X12500Y-2477D01*
X12470Y-2477D01*
X12411Y-2501D01*
X12366Y-2546D01*
X12344Y-2600D01*
X12321Y-2546D01*
X12276Y-2501D01*
X12218Y-2477D01*
X12155Y-2477D01*
X12096Y-2501D01*
X12052Y-2546D01*
X12029Y-2600D01*
X12006Y-2545D01*
X11961Y-2500D01*
X11903Y-2476D01*
X11840Y-2475D01*
X11781Y-2500D01*
X11737Y-2544D01*
X11712Y-2603D01*
X11712Y-2666D01*
X11736Y-2725D01*
X11742Y-2731D01*
X11696Y-2730D01*
X11696Y-2479D01*
X11706Y-2470D01*
X11730Y-2411D01*
X11730Y-2348D01*
X11706Y-2290D01*
X11661Y-2245D01*
X11603Y-2221D01*
X11548Y-2220D01*
X11548Y-1319D01*
X11521Y-1253D01*
X11471Y-1203D01*
X11405Y-1176D01*
X11334Y-1176D01*
X11269Y-1203D01*
X11222Y-1250D01*
X11175Y-1203D01*
X11110Y-1176D01*
X11039Y-1176D01*
X10974Y-1203D01*
X10924Y-1253D01*
X10896Y-1318D01*
X10896Y-1389D01*
X10923Y-1455D01*
X10973Y-1505D01*
X11039Y-1532D01*
X11110Y-1532D01*
X11175Y-1505D01*
X11222Y-1458D01*
X11269Y-1505D01*
X11334Y-1532D01*
X11405Y-1532D01*
X11470Y-1505D01*
X11520Y-1455D01*
X11548Y-1389D01*
X11548Y-1319D01*
X11548Y-2220D01*
X11540Y-2220D01*
X11481Y-2245D01*
X11437Y-2289D01*
X11412Y-2348D01*
X11412Y-2411D01*
X11436Y-2470D01*
X11446Y-2479D01*
X11446Y-3020D01*
X11456Y-3067D01*
X11483Y-3108D01*
X11505Y-3130D01*
X11481Y-3140D01*
X11437Y-3184D01*
X11412Y-3243D01*
X11412Y-3306D01*
X11436Y-3365D01*
X11481Y-3409D01*
X11539Y-3434D01*
X11603Y-3434D01*
X11661Y-3409D01*
X11706Y-3365D01*
X11716Y-3341D01*
X12015Y-3640D01*
X10622Y-3640D01*
X10622Y-1354D01*
X10595Y-1289D01*
X10545Y-1238D01*
X10480Y-1211D01*
X10409Y-1211D01*
X10344Y-1238D01*
X10294Y-1288D01*
X10266Y-1354D01*
X10266Y-1425D01*
X10293Y-1490D01*
X10343Y-1540D01*
X10409Y-1567D01*
X10480Y-1567D01*
X10545Y-1540D01*
X10595Y-1490D01*
X10622Y-1425D01*
X10622Y-1354D01*
X10622Y-3640D01*
X10209Y-3640D01*
X10209Y-1744D01*
X10209Y-1354D01*
X10209Y-964D01*
X10209Y-574D01*
X10182Y-509D01*
X10132Y-459D01*
X10067Y-432D01*
X9996Y-432D01*
X9930Y-459D01*
X9880Y-509D01*
X9853Y-574D01*
X9853Y-645D01*
X9880Y-710D01*
X9930Y-761D01*
X9995Y-788D01*
X10066Y-788D01*
X10132Y-761D01*
X10182Y-711D01*
X10209Y-645D01*
X10209Y-574D01*
X10209Y-964D01*
X10182Y-899D01*
X10132Y-849D01*
X10067Y-822D01*
X9996Y-822D01*
X9930Y-849D01*
X9880Y-899D01*
X9853Y-964D01*
X9853Y-1035D01*
X9880Y-1100D01*
X9930Y-1150D01*
X9995Y-1177D01*
X10066Y-1177D01*
X10132Y-1150D01*
X10182Y-1100D01*
X10209Y-1035D01*
X10209Y-964D01*
X10209Y-1354D01*
X10182Y-1289D01*
X10132Y-1238D01*
X10067Y-1211D01*
X9996Y-1211D01*
X9930Y-1238D01*
X9880Y-1288D01*
X9853Y-1354D01*
X9853Y-1425D01*
X9880Y-1490D01*
X9930Y-1540D01*
X9995Y-1567D01*
X10066Y-1567D01*
X10132Y-1540D01*
X10182Y-1490D01*
X10209Y-1425D01*
X10209Y-1354D01*
X10209Y-1744D01*
X10182Y-1678D01*
X10132Y-1628D01*
X10067Y-1601D01*
X9996Y-1601D01*
X9930Y-1628D01*
X9880Y-1678D01*
X9853Y-1743D01*
X9853Y-1814D01*
X9880Y-1880D01*
X9930Y-1930D01*
X9995Y-1957D01*
X10066Y-1957D01*
X10132Y-1930D01*
X10182Y-1880D01*
X10209Y-1815D01*
X10209Y-1744D01*
X10209Y-3640D01*
X9835Y-3640D01*
X9835Y-3078D01*
X9835Y-1744D01*
X9835Y-1354D01*
X9835Y-964D01*
X9835Y-574D01*
X9808Y-509D01*
X9758Y-459D01*
X9693Y-432D01*
X9622Y-432D01*
X9556Y-459D01*
X9506Y-509D01*
X9479Y-574D01*
X9479Y-645D01*
X9506Y-710D01*
X9556Y-761D01*
X9621Y-788D01*
X9692Y-788D01*
X9758Y-761D01*
X9808Y-711D01*
X9835Y-645D01*
X9835Y-574D01*
X9835Y-964D01*
X9808Y-899D01*
X9758Y-849D01*
X9693Y-822D01*
X9622Y-822D01*
X9556Y-849D01*
X9506Y-899D01*
X9479Y-964D01*
X9479Y-1035D01*
X9506Y-1100D01*
X9556Y-1150D01*
X9621Y-1177D01*
X9692Y-1177D01*
X9758Y-1150D01*
X9808Y-1100D01*
X9835Y-1035D01*
X9835Y-964D01*
X9835Y-1354D01*
X9808Y-1289D01*
X9758Y-1238D01*
X9693Y-1211D01*
X9622Y-1211D01*
X9556Y-1238D01*
X9506Y-1288D01*
X9479Y-1354D01*
X9479Y-1425D01*
X9506Y-1490D01*
X9556Y-1540D01*
X9621Y-1567D01*
X9692Y-1567D01*
X9758Y-1540D01*
X9808Y-1490D01*
X9835Y-1425D01*
X9835Y-1354D01*
X9835Y-1744D01*
X9808Y-1678D01*
X9758Y-1628D01*
X9693Y-1601D01*
X9622Y-1601D01*
X9556Y-1628D01*
X9506Y-1678D01*
X9479Y-1743D01*
X9479Y-1814D01*
X9506Y-1880D01*
X9556Y-1930D01*
X9621Y-1957D01*
X9692Y-1957D01*
X9758Y-1930D01*
X9808Y-1880D01*
X9835Y-1815D01*
X9835Y-1744D01*
X9835Y-3078D01*
X9808Y-3013D01*
X9758Y-2963D01*
X9693Y-2936D01*
X9622Y-2936D01*
X9556Y-2963D01*
X9506Y-3013D01*
X9479Y-3078D01*
X9479Y-3149D01*
X9506Y-3214D01*
X9556Y-3264D01*
X9621Y-3292D01*
X9692Y-3292D01*
X9758Y-3265D01*
X9808Y-3215D01*
X9835Y-3149D01*
X9835Y-3078D01*
X9835Y-3640D01*
X9445Y-3640D01*
X9445Y-1744D01*
X9418Y-1678D01*
X9368Y-1628D01*
X9303Y-1601D01*
X9232Y-1601D01*
X9167Y-1628D01*
X9116Y-1678D01*
X9089Y-1743D01*
X9089Y-1814D01*
X9116Y-1880D01*
X9166Y-1930D01*
X9232Y-1957D01*
X9302Y-1957D01*
X9368Y-1930D01*
X9418Y-1880D01*
X9445Y-1815D01*
X9445Y-1744D01*
X9445Y-3640D01*
X9429Y-3640D01*
X9429Y-3078D01*
X9402Y-3013D01*
X9352Y-2963D01*
X9287Y-2936D01*
X9216Y-2936D01*
X9151Y-2963D01*
X9101Y-3013D01*
X9074Y-3078D01*
X9073Y-3149D01*
X9101Y-3214D01*
X9151Y-3264D01*
X9216Y-3292D01*
X9287Y-3292D01*
X9352Y-3265D01*
X9402Y-3215D01*
X9429Y-3149D01*
X9429Y-3078D01*
X9429Y-3640D01*
X9024Y-3640D01*
X9024Y-3082D01*
X8997Y-3017D01*
X8947Y-2967D01*
X8882Y-2940D01*
X8811Y-2940D01*
X8745Y-2967D01*
X8695Y-3017D01*
X8668Y-3082D01*
X8668Y-3153D01*
X8695Y-3218D01*
X8745Y-3268D01*
X8810Y-3296D01*
X8881Y-3296D01*
X8947Y-3269D01*
X8997Y-3219D01*
X9024Y-3153D01*
X9024Y-3082D01*
X9024Y-3640D01*
X8626Y-3640D01*
X8626Y-1760D01*
X8599Y-1694D01*
X8549Y-1644D01*
X8484Y-1617D01*
X8413Y-1617D01*
X8348Y-1644D01*
X8298Y-1694D01*
X8270Y-1759D01*
X8270Y-1830D01*
X8297Y-1895D01*
X8347Y-1946D01*
X8413Y-1973D01*
X8484Y-1973D01*
X8549Y-1946D01*
X8599Y-1896D01*
X8626Y-1830D01*
X8626Y-1760D01*
X8626Y-3640D01*
X8618Y-3640D01*
X8618Y-3086D01*
X8591Y-3021D01*
X8541Y-2971D01*
X8476Y-2944D01*
X8405Y-2944D01*
X8340Y-2971D01*
X8290Y-3021D01*
X8263Y-3086D01*
X8262Y-3157D01*
X8289Y-3222D01*
X8340Y-3272D01*
X8405Y-3299D01*
X8476Y-3300D01*
X8541Y-3272D01*
X8591Y-3222D01*
X8618Y-3157D01*
X8618Y-3086D01*
X8618Y-3640D01*
X8221Y-3640D01*
X8221Y-1760D01*
X8221Y-1370D01*
X8221Y-980D01*
X8221Y-590D01*
X8194Y-525D01*
X8144Y-475D01*
X8078Y-448D01*
X8008Y-448D01*
X7942Y-475D01*
X7892Y-525D01*
X7865Y-590D01*
X7865Y-661D01*
X7892Y-726D01*
X7942Y-776D01*
X8007Y-803D01*
X8078Y-803D01*
X8143Y-776D01*
X8194Y-726D01*
X8221Y-661D01*
X8221Y-590D01*
X8221Y-980D01*
X8194Y-915D01*
X8144Y-864D01*
X8078Y-837D01*
X8008Y-837D01*
X7942Y-864D01*
X7892Y-914D01*
X7865Y-980D01*
X7865Y-1050D01*
X7892Y-1116D01*
X7942Y-1166D01*
X8007Y-1193D01*
X8078Y-1193D01*
X8143Y-1166D01*
X8194Y-1116D01*
X8221Y-1051D01*
X8221Y-980D01*
X8221Y-1370D01*
X8194Y-1304D01*
X8144Y-1254D01*
X8078Y-1227D01*
X8008Y-1227D01*
X7942Y-1254D01*
X7892Y-1304D01*
X7865Y-1369D01*
X7865Y-1440D01*
X7892Y-1506D01*
X7942Y-1556D01*
X8007Y-1583D01*
X8078Y-1583D01*
X8143Y-1556D01*
X8194Y-1506D01*
X8221Y-1441D01*
X8221Y-1370D01*
X8221Y-1760D01*
X8194Y-1694D01*
X8144Y-1644D01*
X8078Y-1617D01*
X8008Y-1617D01*
X7942Y-1644D01*
X7892Y-1694D01*
X7865Y-1759D01*
X7865Y-1830D01*
X7892Y-1895D01*
X7942Y-1946D01*
X8007Y-1973D01*
X8078Y-1973D01*
X8143Y-1946D01*
X8194Y-1896D01*
X8221Y-1830D01*
X8221Y-1760D01*
X8221Y-3640D01*
X8213Y-3640D01*
X8213Y-3086D01*
X8186Y-3021D01*
X8136Y-2971D01*
X8070Y-2944D01*
X8000Y-2944D01*
X7934Y-2971D01*
X7884Y-3021D01*
X7857Y-3086D01*
X7857Y-3157D01*
X7884Y-3222D01*
X7934Y-3272D01*
X7999Y-3299D01*
X8070Y-3300D01*
X8136Y-3272D01*
X8186Y-3222D01*
X8213Y-3157D01*
X8213Y-3086D01*
X8213Y-3640D01*
X8176Y-3640D01*
X8171Y-3640D01*
X7596Y-3640D01*
X7285Y-3640D01*
X6871Y-3640D01*
X-285Y-3640D01*
X-285Y-3435D01*
X7502Y-3435D01*
X7502Y-3250D01*
X7528Y-3276D01*
X7594Y-3303D01*
X7665Y-3303D01*
X7730Y-3276D01*
X7780Y-3226D01*
X7807Y-3161D01*
X7807Y-3090D01*
X7780Y-3025D01*
X7730Y-2975D01*
X7665Y-2948D01*
X7594Y-2948D01*
X7529Y-2975D01*
X7502Y-3001D01*
X7501Y-1914D01*
X7536Y-1949D01*
X7602Y-1977D01*
X7673Y-1977D01*
X7738Y-1950D01*
X7788Y-1900D01*
X7815Y-1834D01*
X7815Y-1763D01*
X7788Y-1698D01*
X7738Y-1648D01*
X7673Y-1621D01*
X7602Y-1621D01*
X7537Y-1648D01*
X7500Y-1684D01*
X7500Y-1524D01*
X7536Y-1560D01*
X7602Y-1587D01*
X7673Y-1587D01*
X7738Y-1560D01*
X7788Y-1510D01*
X7815Y-1445D01*
X7815Y-1374D01*
X7788Y-1308D01*
X7738Y-1258D01*
X7673Y-1231D01*
X7602Y-1231D01*
X7537Y-1258D01*
X7500Y-1295D01*
X7500Y-1133D01*
X7536Y-1170D01*
X7602Y-1197D01*
X7673Y-1197D01*
X7738Y-1170D01*
X7788Y-1120D01*
X7815Y-1055D01*
X7815Y-984D01*
X7788Y-919D01*
X7738Y-868D01*
X7673Y-841D01*
X7602Y-841D01*
X7537Y-868D01*
X7500Y-905D01*
X7499Y-743D01*
X7536Y-780D01*
X7602Y-807D01*
X7673Y-807D01*
X7738Y-780D01*
X7788Y-730D01*
X7815Y-665D01*
X7815Y-594D01*
X7788Y-529D01*
X7738Y-479D01*
X7673Y-451D01*
X7602Y-451D01*
X7537Y-478D01*
X7499Y-516D01*
X7499Y-353D01*
X7536Y-390D01*
X7602Y-418D01*
X7673Y-418D01*
X7738Y-391D01*
X7788Y-341D01*
X7815Y-275D01*
X7815Y-204D01*
X7788Y-139D01*
X7738Y-89D01*
X7673Y-62D01*
X7602Y-62D01*
X7537Y-89D01*
X7499Y-126D01*
X7498Y275D01*
X7596Y275D01*
X8171Y275D01*
X8176Y275D01*
X8844Y275D01*
X8833Y248D01*
X8833Y185D01*
X8857Y126D01*
X8901Y81D01*
X8960Y57D01*
X9023Y57D01*
X9082Y81D01*
X9126Y126D01*
X9151Y184D01*
X9151Y248D01*
X9139Y275D01*
X15321Y275D01*
X15326Y275D01*
X15807Y275D01*
X15782Y250D01*
X15755Y185D01*
X15755Y114D01*
X15782Y48D01*
X15832Y-1D01*
X15897Y-28D01*
X15968Y-28D01*
X16033Y-1D01*
X16061Y25D01*
X16088Y-1D01*
X16153Y-28D01*
X16224Y-28D01*
X16289Y-1D01*
X16295Y4D01*
X16301Y-10D01*
X16346Y-54D01*
X16404Y-79D01*
X16468Y-79D01*
X16526Y-54D01*
X16571Y-10D01*
X16589Y32D01*
X16627Y-5D01*
X16692Y-32D01*
X16763Y-32D01*
X16829Y-5D01*
X16856Y21D01*
X16883Y-5D01*
X16948Y-32D01*
X17019Y-32D01*
X17084Y-5D01*
X17112Y21D01*
X17139Y-5D01*
X17204Y-32D01*
X17275Y-32D01*
X17340Y-5D01*
X17390Y44D01*
X17418Y110D01*
X17418Y180D01*
X17391Y246D01*
X17362Y275D01*
X18492Y275D01*
X18492Y-3227D01*
X18492Y-3227D01*
G37*
G54D18*
X18492Y-3227D02*
X18490Y-3222D01*
X18485Y-3217D01*
X18485Y-1472D01*
X18458Y-1407D01*
X18430Y-1379D01*
X18457Y-1352D01*
X18485Y-1287D01*
X18485Y-1216D01*
X18458Y-1151D01*
X18408Y-1101D01*
X18342Y-1074D01*
X18271Y-1073D01*
X18224Y-1093D01*
X18224Y-665D01*
X18201Y-551D01*
X18141Y-460D01*
X18175Y-446D01*
X18203Y-418D01*
X18218Y-381D01*
X18218Y-342D01*
X18218Y12D01*
X18218Y51D01*
X18203Y88D01*
X18175Y116D01*
X18138Y131D01*
X17955Y131D01*
X17930Y106D01*
X17930Y-155D01*
X18193Y-155D01*
X18218Y-130D01*
X18218Y12D01*
X18218Y-342D01*
X18218Y-199D01*
X18193Y-174D01*
X17930Y-174D01*
X17930Y-181D01*
X17912Y-181D01*
X17912Y-174D01*
X17912Y-155D01*
X17912Y106D01*
X17887Y131D01*
X17705Y131D01*
X17668Y116D01*
X17640Y88D01*
X17624Y51D01*
X17624Y12D01*
X17624Y-130D01*
X17649Y-155D01*
X17912Y-155D01*
X17912Y-174D01*
X17649Y-174D01*
X17624Y-199D01*
X17624Y-342D01*
X17624Y-381D01*
X17640Y-418D01*
X17668Y-446D01*
X17702Y-460D01*
X17641Y-551D01*
X17619Y-665D01*
X17641Y-778D01*
X17706Y-874D01*
X17802Y-939D01*
X17915Y-961D01*
X17927Y-961D01*
X18041Y-939D01*
X18137Y-874D01*
X18201Y-778D01*
X18224Y-665D01*
X18224Y-1093D01*
X18206Y-1101D01*
X18156Y-1151D01*
X18129Y-1216D01*
X18129Y-1287D01*
X18156Y-1352D01*
X18183Y-1379D01*
X18156Y-1406D01*
X18133Y-1461D01*
X18133Y-1328D01*
X18090Y-1222D01*
X18009Y-1141D01*
X17904Y-1098D01*
X17789Y-1097D01*
X17684Y-1141D01*
X17603Y-1222D01*
X17559Y-1327D01*
X17559Y-1441D01*
X17603Y-1547D01*
X17683Y-1628D01*
X17789Y-1671D01*
X17903Y-1672D01*
X18009Y-1628D01*
X18089Y-1547D01*
X18133Y-1442D01*
X18133Y-1328D01*
X18133Y-1461D01*
X18129Y-1472D01*
X18129Y-1543D01*
X18156Y-1608D01*
X18206Y-1658D01*
X18271Y-1685D01*
X18342Y-1685D01*
X18407Y-1658D01*
X18457Y-1608D01*
X18485Y-1543D01*
X18485Y-1472D01*
X18485Y-3217D01*
X18409Y-3141D01*
X18304Y-3098D01*
X18189Y-3097D01*
X18084Y-3141D01*
X18003Y-3222D01*
X17959Y-3327D01*
X17959Y-3441D01*
X18003Y-3547D01*
X18083Y-3628D01*
X18113Y-3640D01*
X17580Y-3640D01*
X17609Y-3628D01*
X17689Y-3547D01*
X17733Y-3442D01*
X17733Y-3328D01*
X17690Y-3222D01*
X17609Y-3141D01*
X17540Y-3113D01*
X17540Y-2608D01*
X17516Y-2550D01*
X17471Y-2505D01*
X17413Y-2481D01*
X17350Y-2480D01*
X17291Y-2505D01*
X17247Y-2549D01*
X17235Y-2576D01*
X17235Y-1223D01*
X17211Y-1165D01*
X17166Y-1120D01*
X17108Y-1096D01*
X17045Y-1095D01*
X16986Y-1120D01*
X16942Y-1164D01*
X16917Y-1223D01*
X16917Y-1286D01*
X16941Y-1345D01*
X16986Y-1389D01*
X17044Y-1414D01*
X17108Y-1414D01*
X17166Y-1389D01*
X17211Y-1345D01*
X17235Y-1286D01*
X17235Y-1223D01*
X17235Y-2576D01*
X17222Y-2608D01*
X17222Y-2671D01*
X17246Y-2730D01*
X17291Y-2774D01*
X17349Y-2799D01*
X17413Y-2799D01*
X17471Y-2774D01*
X17516Y-2730D01*
X17540Y-2671D01*
X17540Y-2608D01*
X17540Y-3113D01*
X17504Y-3098D01*
X17389Y-3097D01*
X17284Y-3141D01*
X17203Y-3222D01*
X17159Y-3327D01*
X17159Y-3419D01*
X17103Y-3396D01*
X17040Y-3395D01*
X16981Y-3420D01*
X16937Y-3464D01*
X16918Y-3510D01*
X16795Y-3510D01*
X16795Y-1643D01*
X16771Y-1585D01*
X16726Y-1540D01*
X16668Y-1516D01*
X16605Y-1515D01*
X16546Y-1540D01*
X16502Y-1584D01*
X16477Y-1643D01*
X16477Y-1706D01*
X16501Y-1765D01*
X16546Y-1809D01*
X16604Y-1834D01*
X16668Y-1834D01*
X16726Y-1809D01*
X16771Y-1765D01*
X16795Y-1706D01*
X16795Y-1643D01*
X16795Y-3510D01*
X15655Y-3510D01*
X15655Y-3463D01*
X15631Y-3405D01*
X15586Y-3360D01*
X15528Y-3336D01*
X15465Y-3335D01*
X15406Y-3360D01*
X15362Y-3404D01*
X15337Y-3463D01*
X15337Y-3510D01*
X15243Y-3510D01*
X15291Y-3489D01*
X15336Y-3445D01*
X15360Y-3386D01*
X15360Y-3323D01*
X15336Y-3265D01*
X15291Y-3220D01*
X15233Y-3196D01*
X15170Y-3195D01*
X15111Y-3220D01*
X15085Y-3246D01*
X15085Y-3190D01*
X16251Y-3190D01*
X16261Y-3199D01*
X16319Y-3224D01*
X16383Y-3224D01*
X16441Y-3199D01*
X16486Y-3155D01*
X16510Y-3096D01*
X16510Y-3033D01*
X16486Y-2975D01*
X16441Y-2930D01*
X16383Y-2906D01*
X16320Y-2905D01*
X16261Y-2930D01*
X16251Y-2940D01*
X15818Y-2940D01*
X15970Y-2788D01*
X15997Y-2747D01*
X16006Y-2700D01*
X16006Y-2700D01*
X16006Y-1919D01*
X16016Y-1910D01*
X16040Y-1851D01*
X16040Y-1788D01*
X16016Y-1730D01*
X15971Y-1685D01*
X15913Y-1661D01*
X15850Y-1660D01*
X15846Y-1662D01*
X15846Y-1411D01*
X16518Y-740D01*
X17100Y-740D01*
X17082Y-783D01*
X17082Y-846D01*
X17106Y-905D01*
X17151Y-949D01*
X17209Y-974D01*
X17273Y-974D01*
X17331Y-949D01*
X17376Y-905D01*
X17400Y-846D01*
X17400Y-783D01*
X17381Y-735D01*
X17411Y-705D01*
X17435Y-646D01*
X17435Y-583D01*
X17411Y-525D01*
X17366Y-480D01*
X17308Y-456D01*
X17245Y-455D01*
X17186Y-480D01*
X17176Y-490D01*
X16608Y-490D01*
X16668Y-430D01*
X17046Y-430D01*
X17056Y-439D01*
X17114Y-464D01*
X17178Y-464D01*
X17236Y-439D01*
X17281Y-395D01*
X17305Y-336D01*
X17305Y-273D01*
X17281Y-215D01*
X17236Y-170D01*
X17178Y-146D01*
X17115Y-145D01*
X17056Y-170D01*
X17046Y-180D01*
X16616Y-180D01*
X16568Y-189D01*
X16528Y-216D01*
X15528Y-1216D01*
X15501Y-1257D01*
X15491Y-1305D01*
X15491Y-2523D01*
X15479Y-2535D01*
X15239Y-2535D01*
X15255Y-2496D01*
X15255Y-2433D01*
X15231Y-2375D01*
X15186Y-2330D01*
X15128Y-2306D01*
X15103Y-2305D01*
X15103Y-2004D01*
X15076Y-1938D01*
X15026Y-1888D01*
X14960Y-1861D01*
X14889Y-1861D01*
X14832Y-1885D01*
X14828Y-1875D01*
X14778Y-1825D01*
X14712Y-1798D01*
X14641Y-1798D01*
X14576Y-1825D01*
X14526Y-1875D01*
X14525Y-1876D01*
X14525Y-478D01*
X14501Y-420D01*
X14456Y-375D01*
X14398Y-351D01*
X14335Y-350D01*
X14276Y-375D01*
X14232Y-419D01*
X14207Y-478D01*
X14207Y-541D01*
X14231Y-600D01*
X14276Y-644D01*
X14334Y-669D01*
X14398Y-669D01*
X14456Y-644D01*
X14501Y-600D01*
X14525Y-541D01*
X14525Y-478D01*
X14525Y-1876D01*
X14499Y-1940D01*
X14499Y-2011D01*
X14526Y-2077D01*
X14576Y-2127D01*
X14592Y-2134D01*
X14570Y-2188D01*
X14570Y-2259D01*
X14597Y-2325D01*
X14647Y-2375D01*
X14712Y-2402D01*
X14783Y-2402D01*
X14848Y-2375D01*
X14898Y-2325D01*
X14925Y-2259D01*
X14925Y-2217D01*
X14960Y-2217D01*
X15025Y-2190D01*
X15075Y-2140D01*
X15103Y-2074D01*
X15103Y-2004D01*
X15103Y-2305D01*
X15065Y-2305D01*
X15006Y-2330D01*
X14962Y-2374D01*
X14937Y-2433D01*
X14937Y-2496D01*
X14953Y-2535D01*
X14406Y-2535D01*
X14406Y-1732D01*
X14379Y-1667D01*
X14352Y-1639D01*
X14379Y-1612D01*
X14406Y-1547D01*
X14406Y-1476D01*
X14379Y-1411D01*
X14329Y-1361D01*
X14263Y-1333D01*
X14193Y-1333D01*
X14127Y-1360D01*
X14077Y-1410D01*
X14050Y-1476D01*
X14050Y-1547D01*
X14077Y-1612D01*
X14104Y-1639D01*
X14077Y-1666D01*
X14050Y-1732D01*
X14050Y-1802D01*
X14077Y-1868D01*
X14127Y-1918D01*
X14192Y-1945D01*
X14263Y-1945D01*
X14329Y-1918D01*
X14379Y-1868D01*
X14406Y-1803D01*
X14406Y-1732D01*
X14406Y-2535D01*
X13695Y-2535D01*
X13695Y-753D01*
X13671Y-695D01*
X13626Y-650D01*
X13568Y-626D01*
X13505Y-625D01*
X13446Y-650D01*
X13402Y-694D01*
X13377Y-753D01*
X13377Y-816D01*
X13401Y-875D01*
X13446Y-919D01*
X13504Y-944D01*
X13568Y-944D01*
X13626Y-919D01*
X13671Y-875D01*
X13695Y-816D01*
X13695Y-753D01*
X13695Y-2535D01*
X13183Y-2535D01*
X13166Y-2495D01*
X13121Y-2450D01*
X13063Y-2426D01*
X13000Y-2425D01*
X12941Y-2450D01*
X12897Y-2494D01*
X12883Y-2526D01*
X12818Y-2461D01*
X12818Y-2447D01*
X12794Y-2388D01*
X12749Y-2343D01*
X12694Y-2321D01*
X12749Y-2298D01*
X12793Y-2253D01*
X12818Y-2195D01*
X12818Y-2132D01*
X12794Y-2073D01*
X12749Y-2029D01*
X12690Y-2004D01*
X12660Y-2004D01*
X12660Y-1659D01*
X12636Y-1601D01*
X12591Y-1556D01*
X12533Y-1532D01*
X12470Y-1532D01*
X12411Y-1556D01*
X12366Y-1601D01*
X12365Y-1603D01*
X12365Y-838D01*
X12341Y-780D01*
X12296Y-735D01*
X12238Y-711D01*
X12175Y-710D01*
X12116Y-735D01*
X12072Y-779D01*
X12047Y-838D01*
X12047Y-901D01*
X12071Y-960D01*
X12116Y-1004D01*
X12174Y-1029D01*
X12238Y-1029D01*
X12296Y-1004D01*
X12341Y-960D01*
X12365Y-901D01*
X12365Y-838D01*
X12365Y-1603D01*
X12342Y-1659D01*
X12342Y-1695D01*
X12310Y-1695D01*
X12271Y-1711D01*
X12222Y-1691D01*
X12276Y-1668D01*
X12321Y-1624D01*
X12345Y-1565D01*
X12345Y-1502D01*
X12321Y-1443D01*
X12276Y-1399D01*
X12218Y-1374D01*
X12183Y-1374D01*
X12186Y-1366D01*
X12186Y-1303D01*
X12162Y-1244D01*
X12117Y-1199D01*
X12059Y-1175D01*
X11996Y-1175D01*
X11937Y-1199D01*
X11892Y-1244D01*
X11868Y-1302D01*
X11868Y-1366D01*
X11892Y-1424D01*
X11937Y-1469D01*
X11995Y-1493D01*
X12031Y-1493D01*
X12027Y-1502D01*
X12027Y-1565D01*
X12051Y-1623D01*
X12096Y-1668D01*
X12151Y-1691D01*
X12096Y-1713D01*
X12052Y-1758D01*
X12027Y-1817D01*
X12027Y-1880D01*
X12051Y-1938D01*
X12096Y-1983D01*
X12154Y-2007D01*
X12218Y-2007D01*
X12256Y-1991D01*
X12309Y-2014D01*
X12373Y-2014D01*
X12431Y-1989D01*
X12476Y-1945D01*
X12500Y-1886D01*
X12500Y-1850D01*
X12533Y-1850D01*
X12591Y-1826D01*
X12636Y-1781D01*
X12660Y-1723D01*
X12660Y-1659D01*
X12660Y-2004D01*
X12627Y-2004D01*
X12569Y-2028D01*
X12524Y-2073D01*
X12500Y-2132D01*
X12500Y-2195D01*
X12524Y-2253D01*
X12568Y-2298D01*
X12623Y-2321D01*
X12569Y-2343D01*
X12524Y-2388D01*
X12500Y-2445D01*
X12500Y-2288D01*
X12476Y-2230D01*
X12431Y-2185D01*
X12373Y-2161D01*
X12310Y-2160D01*
X12251Y-2185D01*
X12207Y-2229D01*
X12188Y-2274D01*
X12188Y-2132D01*
X12164Y-2073D01*
X12119Y-2029D01*
X12061Y-2004D01*
X12030Y-2004D01*
X12030Y-1974D01*
X12006Y-1916D01*
X11962Y-1871D01*
X11903Y-1847D01*
X11840Y-1847D01*
X11781Y-1871D01*
X11737Y-1916D01*
X11712Y-1974D01*
X11712Y-2037D01*
X11736Y-2096D01*
X11781Y-2141D01*
X11840Y-2165D01*
X11870Y-2165D01*
X11870Y-2195D01*
X11894Y-2253D01*
X11939Y-2298D01*
X11997Y-2322D01*
X12060Y-2322D01*
X12119Y-2298D01*
X12164Y-2253D01*
X12188Y-2195D01*
X12188Y-2132D01*
X12188Y-2274D01*
X12182Y-2288D01*
X12182Y-2351D01*
X12206Y-2410D01*
X12251Y-2454D01*
X12309Y-2479D01*
X12373Y-2479D01*
X12431Y-2454D01*
X12476Y-2410D01*
X12500Y-2351D01*
X12500Y-2288D01*
X12500Y-2445D01*
X12500Y-2446D01*
X12500Y-2477D01*
X12470Y-2477D01*
X12411Y-2501D01*
X12366Y-2546D01*
X12344Y-2600D01*
X12321Y-2546D01*
X12276Y-2501D01*
X12218Y-2477D01*
X12155Y-2477D01*
X12096Y-2501D01*
X12052Y-2546D01*
X12029Y-2600D01*
X12006Y-2545D01*
X11961Y-2500D01*
X11903Y-2476D01*
X11840Y-2475D01*
X11781Y-2500D01*
X11737Y-2544D01*
X11712Y-2603D01*
X11712Y-2666D01*
X11736Y-2725D01*
X11742Y-2731D01*
X11696Y-2730D01*
X11696Y-2479D01*
X11706Y-2470D01*
X11730Y-2411D01*
X11730Y-2348D01*
X11706Y-2290D01*
X11661Y-2245D01*
X11603Y-2221D01*
X11548Y-2220D01*
X11548Y-1319D01*
X11521Y-1253D01*
X11471Y-1203D01*
X11405Y-1176D01*
X11334Y-1176D01*
X11269Y-1203D01*
X11222Y-1250D01*
X11175Y-1203D01*
X11110Y-1176D01*
X11039Y-1176D01*
X10974Y-1203D01*
X10924Y-1253D01*
X10896Y-1318D01*
X10896Y-1389D01*
X10923Y-1455D01*
X10973Y-1505D01*
X11039Y-1532D01*
X11110Y-1532D01*
X11175Y-1505D01*
X11222Y-1458D01*
X11269Y-1505D01*
X11334Y-1532D01*
X11405Y-1532D01*
X11470Y-1505D01*
X11520Y-1455D01*
X11548Y-1389D01*
X11548Y-1319D01*
X11548Y-2220D01*
X11540Y-2220D01*
X11481Y-2245D01*
X11437Y-2289D01*
X11412Y-2348D01*
X11412Y-2411D01*
X11436Y-2470D01*
X11446Y-2479D01*
X11446Y-3020D01*
X11456Y-3067D01*
X11483Y-3108D01*
X11505Y-3130D01*
X11481Y-3140D01*
X11437Y-3184D01*
X11412Y-3243D01*
X11412Y-3306D01*
X11436Y-3365D01*
X11481Y-3409D01*
X11539Y-3434D01*
X11603Y-3434D01*
X11661Y-3409D01*
X11706Y-3365D01*
X11716Y-3341D01*
X12015Y-3640D01*
X10622Y-3640D01*
X10622Y-1354D01*
X10595Y-1289D01*
X10545Y-1238D01*
X10480Y-1211D01*
X10409Y-1211D01*
X10344Y-1238D01*
X10294Y-1288D01*
X10266Y-1354D01*
X10266Y-1425D01*
X10293Y-1490D01*
X10343Y-1540D01*
X10409Y-1567D01*
X10480Y-1567D01*
X10545Y-1540D01*
X10595Y-1490D01*
X10622Y-1425D01*
X10622Y-1354D01*
X10622Y-3640D01*
X10209Y-3640D01*
X10209Y-1744D01*
X10209Y-1354D01*
X10209Y-964D01*
X10209Y-574D01*
X10182Y-509D01*
X10132Y-459D01*
X10067Y-432D01*
X9996Y-432D01*
X9930Y-459D01*
X9880Y-509D01*
X9853Y-574D01*
X9853Y-645D01*
X9880Y-710D01*
X9930Y-761D01*
X9995Y-788D01*
X10066Y-788D01*
X10132Y-761D01*
X10182Y-711D01*
X10209Y-645D01*
X10209Y-574D01*
X10209Y-964D01*
X10182Y-899D01*
X10132Y-849D01*
X10067Y-822D01*
X9996Y-822D01*
X9930Y-849D01*
X9880Y-899D01*
X9853Y-964D01*
X9853Y-1035D01*
X9880Y-1100D01*
X9930Y-1150D01*
X9995Y-1177D01*
X10066Y-1177D01*
X10132Y-1150D01*
X10182Y-1100D01*
X10209Y-1035D01*
X10209Y-964D01*
X10209Y-1354D01*
X10182Y-1289D01*
X10132Y-1238D01*
X10067Y-1211D01*
X9996Y-1211D01*
X9930Y-1238D01*
X9880Y-1288D01*
X9853Y-1354D01*
X9853Y-1425D01*
X9880Y-1490D01*
X9930Y-1540D01*
X9995Y-1567D01*
X10066Y-1567D01*
X10132Y-1540D01*
X10182Y-1490D01*
X10209Y-1425D01*
X10209Y-1354D01*
X10209Y-1744D01*
X10182Y-1678D01*
X10132Y-1628D01*
X10067Y-1601D01*
X9996Y-1601D01*
X9930Y-1628D01*
X9880Y-1678D01*
X9853Y-1743D01*
X9853Y-1814D01*
X9880Y-1880D01*
X9930Y-1930D01*
X9995Y-1957D01*
X10066Y-1957D01*
X10132Y-1930D01*
X10182Y-1880D01*
X10209Y-1815D01*
X10209Y-1744D01*
X10209Y-3640D01*
X9835Y-3640D01*
X9835Y-3078D01*
X9835Y-1744D01*
X9835Y-1354D01*
X9835Y-964D01*
X9835Y-574D01*
X9808Y-509D01*
X9758Y-459D01*
X9693Y-432D01*
X9622Y-432D01*
X9556Y-459D01*
X9506Y-509D01*
X9479Y-574D01*
X9479Y-645D01*
X9506Y-710D01*
X9556Y-761D01*
X9621Y-788D01*
X9692Y-788D01*
X9758Y-761D01*
X9808Y-711D01*
X9835Y-645D01*
X9835Y-574D01*
X9835Y-964D01*
X9808Y-899D01*
X9758Y-849D01*
X9693Y-822D01*
X9622Y-822D01*
X9556Y-849D01*
X9506Y-899D01*
X9479Y-964D01*
X9479Y-1035D01*
X9506Y-1100D01*
X9556Y-1150D01*
X9621Y-1177D01*
X9692Y-1177D01*
X9758Y-1150D01*
X9808Y-1100D01*
X9835Y-1035D01*
X9835Y-964D01*
X9835Y-1354D01*
X9808Y-1289D01*
X9758Y-1238D01*
X9693Y-1211D01*
X9622Y-1211D01*
X9556Y-1238D01*
X9506Y-1288D01*
X9479Y-1354D01*
X9479Y-1425D01*
X9506Y-1490D01*
X9556Y-1540D01*
X9621Y-1567D01*
X9692Y-1567D01*
X9758Y-1540D01*
X9808Y-1490D01*
X9835Y-1425D01*
X9835Y-1354D01*
X9835Y-1744D01*
X9808Y-1678D01*
X9758Y-1628D01*
X9693Y-1601D01*
X9622Y-1601D01*
X9556Y-1628D01*
X9506Y-1678D01*
X9479Y-1743D01*
X9479Y-1814D01*
X9506Y-1880D01*
X9556Y-1930D01*
X9621Y-1957D01*
X9692Y-1957D01*
X9758Y-1930D01*
X9808Y-1880D01*
X9835Y-1815D01*
X9835Y-1744D01*
X9835Y-3078D01*
X9808Y-3013D01*
X9758Y-2963D01*
X9693Y-2936D01*
X9622Y-2936D01*
X9556Y-2963D01*
X9506Y-3013D01*
X9479Y-3078D01*
X9479Y-3149D01*
X9506Y-3214D01*
X9556Y-3264D01*
X9621Y-3292D01*
X9692Y-3292D01*
X9758Y-3265D01*
X9808Y-3215D01*
X9835Y-3149D01*
X9835Y-3078D01*
X9835Y-3640D01*
X9445Y-3640D01*
X9445Y-1744D01*
X9418Y-1678D01*
X9368Y-1628D01*
X9303Y-1601D01*
X9232Y-1601D01*
X9167Y-1628D01*
X9116Y-1678D01*
X9089Y-1743D01*
X9089Y-1814D01*
X9116Y-1880D01*
X9166Y-1930D01*
X9232Y-1957D01*
X9302Y-1957D01*
X9368Y-1930D01*
X9418Y-1880D01*
X9445Y-1815D01*
X9445Y-1744D01*
X9445Y-3640D01*
X9429Y-3640D01*
X9429Y-3078D01*
X9402Y-3013D01*
X9352Y-2963D01*
X9287Y-2936D01*
X9216Y-2936D01*
X9151Y-2963D01*
X9101Y-3013D01*
X9074Y-3078D01*
X9073Y-3149D01*
X9101Y-3214D01*
X9151Y-3264D01*
X9216Y-3292D01*
X9287Y-3292D01*
X9352Y-3265D01*
X9402Y-3215D01*
X9429Y-3149D01*
X9429Y-3078D01*
X9429Y-3640D01*
X9024Y-3640D01*
X9024Y-3082D01*
X8997Y-3017D01*
X8947Y-2967D01*
X8882Y-2940D01*
X8811Y-2940D01*
X8745Y-2967D01*
X8695Y-3017D01*
X8668Y-3082D01*
X8668Y-3153D01*
X8695Y-3218D01*
X8745Y-3268D01*
X8810Y-3296D01*
X8881Y-3296D01*
X8947Y-3269D01*
X8997Y-3219D01*
X9024Y-3153D01*
X9024Y-3082D01*
X9024Y-3640D01*
X8626Y-3640D01*
X8626Y-1760D01*
X8599Y-1694D01*
X8549Y-1644D01*
X8484Y-1617D01*
X8413Y-1617D01*
X8348Y-1644D01*
X8298Y-1694D01*
X8270Y-1759D01*
X8270Y-1830D01*
X8297Y-1895D01*
X8347Y-1946D01*
X8413Y-1973D01*
X8484Y-1973D01*
X8549Y-1946D01*
X8599Y-1896D01*
X8626Y-1830D01*
X8626Y-1760D01*
X8626Y-3640D01*
X8618Y-3640D01*
X8618Y-3086D01*
X8591Y-3021D01*
X8541Y-2971D01*
X8476Y-2944D01*
X8405Y-2944D01*
X8340Y-2971D01*
X8290Y-3021D01*
X8263Y-3086D01*
X8262Y-3157D01*
X8289Y-3222D01*
X8340Y-3272D01*
X8405Y-3299D01*
X8476Y-3300D01*
X8541Y-3272D01*
X8591Y-3222D01*
X8618Y-3157D01*
X8618Y-3086D01*
X8618Y-3640D01*
X8221Y-3640D01*
X8221Y-1760D01*
X8221Y-1370D01*
X8221Y-980D01*
X8221Y-590D01*
X8194Y-525D01*
X8144Y-475D01*
X8078Y-448D01*
X8008Y-448D01*
X7942Y-475D01*
X7892Y-525D01*
X7865Y-590D01*
X7865Y-661D01*
X7892Y-726D01*
X7942Y-776D01*
X8007Y-803D01*
X8078Y-803D01*
X8143Y-776D01*
X8194Y-726D01*
X8221Y-661D01*
X8221Y-590D01*
X8221Y-980D01*
X8194Y-915D01*
X8144Y-864D01*
X8078Y-837D01*
X8008Y-837D01*
X7942Y-864D01*
X7892Y-914D01*
X7865Y-980D01*
X7865Y-1050D01*
X7892Y-1116D01*
X7942Y-1166D01*
X8007Y-1193D01*
X8078Y-1193D01*
X8143Y-1166D01*
X8194Y-1116D01*
X8221Y-1051D01*
X8221Y-980D01*
X8221Y-1370D01*
X8194Y-1304D01*
X8144Y-1254D01*
X8078Y-1227D01*
X8008Y-1227D01*
X7942Y-1254D01*
X7892Y-1304D01*
X7865Y-1369D01*
X7865Y-1440D01*
X7892Y-1506D01*
X7942Y-1556D01*
X8007Y-1583D01*
X8078Y-1583D01*
X8143Y-1556D01*
X8194Y-1506D01*
X8221Y-1441D01*
X8221Y-1370D01*
X8221Y-1760D01*
X8194Y-1694D01*
X8144Y-1644D01*
X8078Y-1617D01*
X8008Y-1617D01*
X7942Y-1644D01*
X7892Y-1694D01*
X7865Y-1759D01*
X7865Y-1830D01*
X7892Y-1895D01*
X7942Y-1946D01*
X8007Y-1973D01*
X8078Y-1973D01*
X8143Y-1946D01*
X8194Y-1896D01*
X8221Y-1830D01*
X8221Y-1760D01*
X8221Y-3640D01*
X8213Y-3640D01*
X8213Y-3086D01*
X8186Y-3021D01*
X8136Y-2971D01*
X8070Y-2944D01*
X8000Y-2944D01*
X7934Y-2971D01*
X7884Y-3021D01*
X7857Y-3086D01*
X7857Y-3157D01*
X7884Y-3222D01*
X7934Y-3272D01*
X7999Y-3299D01*
X8070Y-3300D01*
X8136Y-3272D01*
X8186Y-3222D01*
X8213Y-3157D01*
X8213Y-3086D01*
X8213Y-3640D01*
X8176Y-3640D01*
X8171Y-3640D01*
X7596Y-3640D01*
X7285Y-3640D01*
X6871Y-3640D01*
X-285Y-3640D01*
X-285Y-3435D01*
X7502Y-3435D01*
X7502Y-3250D01*
X7528Y-3276D01*
X7594Y-3303D01*
X7665Y-3303D01*
X7730Y-3276D01*
X7780Y-3226D01*
X7807Y-3161D01*
X7807Y-3090D01*
X7780Y-3025D01*
X7730Y-2975D01*
X7665Y-2948D01*
X7594Y-2948D01*
X7529Y-2975D01*
X7502Y-3001D01*
X7501Y-1914D01*
X7536Y-1949D01*
X7602Y-1977D01*
X7673Y-1977D01*
X7738Y-1950D01*
X7788Y-1900D01*
X7815Y-1834D01*
X7815Y-1763D01*
X7788Y-1698D01*
X7738Y-1648D01*
X7673Y-1621D01*
X7602Y-1621D01*
X7537Y-1648D01*
X7500Y-1684D01*
X7500Y-1524D01*
X7536Y-1560D01*
X7602Y-1587D01*
X7673Y-1587D01*
X7738Y-1560D01*
X7788Y-1510D01*
X7815Y-1445D01*
X7815Y-1374D01*
X7788Y-1308D01*
X7738Y-1258D01*
X7673Y-1231D01*
X7602Y-1231D01*
X7537Y-1258D01*
X7500Y-1295D01*
X7500Y-1133D01*
X7536Y-1170D01*
X7602Y-1197D01*
X7673Y-1197D01*
X7738Y-1170D01*
X7788Y-1120D01*
X7815Y-1055D01*
X7815Y-984D01*
X7788Y-919D01*
X7738Y-868D01*
X7673Y-841D01*
X7602Y-841D01*
X7537Y-868D01*
X7500Y-905D01*
X7499Y-743D01*
X7536Y-780D01*
X7602Y-807D01*
X7673Y-807D01*
X7738Y-780D01*
X7788Y-730D01*
X7815Y-665D01*
X7815Y-594D01*
X7788Y-529D01*
X7738Y-479D01*
X7673Y-451D01*
X7602Y-451D01*
X7537Y-478D01*
X7499Y-516D01*
X7499Y-353D01*
X7536Y-390D01*
X7602Y-418D01*
X7673Y-418D01*
X7738Y-391D01*
X7788Y-341D01*
X7815Y-275D01*
X7815Y-204D01*
X7788Y-139D01*
X7738Y-89D01*
X7673Y-62D01*
X7602Y-62D01*
X7537Y-89D01*
X7499Y-126D01*
X7498Y275D01*
X7596Y275D01*
X8171Y275D01*
X8176Y275D01*
X8844Y275D01*
X8833Y248D01*
X8833Y185D01*
X8857Y126D01*
X8901Y81D01*
X8960Y57D01*
X9023Y57D01*
X9082Y81D01*
X9126Y126D01*
X9151Y184D01*
X9151Y248D01*
X9139Y275D01*
X15321Y275D01*
X15326Y275D01*
X15807Y275D01*
X15782Y250D01*
X15755Y185D01*
X15755Y114D01*
X15782Y48D01*
X15832Y-1D01*
X15897Y-28D01*
X15968Y-28D01*
X16033Y-1D01*
X16061Y25D01*
X16088Y-1D01*
X16153Y-28D01*
X16224Y-28D01*
X16289Y-1D01*
X16295Y4D01*
X16301Y-10D01*
X16346Y-54D01*
X16404Y-79D01*
X16468Y-79D01*
X16526Y-54D01*
X16571Y-10D01*
X16589Y32D01*
X16627Y-5D01*
X16692Y-32D01*
X16763Y-32D01*
X16829Y-5D01*
X16856Y21D01*
X16883Y-5D01*
X16948Y-32D01*
X17019Y-32D01*
X17084Y-5D01*
X17112Y21D01*
X17139Y-5D01*
X17204Y-32D01*
X17275Y-32D01*
X17340Y-5D01*
X17390Y44D01*
X17418Y110D01*
X17418Y180D01*
X17391Y246D01*
X17362Y275D01*
X18492Y275D01*
X18492Y-3227D01*
M02*
